"Prob_Chromosome"	"Prob_Plasmid"	"Prediction"	"Contig_name"	"Contig_length"
1	0	"Chromosome"	"S2_LN:i:284966_dp:f:1.0026640603720662"	284966
1	0	"Chromosome"	"S7_LN:i:178247_dp:f:1.0"	178247
1	0	"Chromosome"	"S6_LN:i:202900_dp:f:1.0405796582809768"	202900
1	0	"Chromosome"	"S8_LN:i:163136_dp:f:1.016166251091681"	163136
1	0	"Chromosome"	"S1_LN:i:297322_dp:f:0.9951656455790484"	297322
1	0	"Chromosome"	"S5_LN:i:228286_dp:f:0.9990150147606218"	228286
1	0	"Chromosome"	"S3_LN:i:269219_dp:f:1.0371649550018514"	269219
1	0	"Chromosome"	"S9_LN:i:142028_dp:f:0.9995125620080482"	142028
1	0	"Chromosome"	"S10_LN:i:139945_dp:f:0.9717765623817548"	139945
1	0	"Chromosome"	"S11_LN:i:132450_dp:f:1.0313570314537301"	132450
1	0	"Chromosome"	"S12_LN:i:125453_dp:f:1.0172839161971876"	125453
1	0	"Chromosome"	"S15_LN:i:111672_dp:f:0.9946211554538563"	111672
1	0	"Chromosome"	"S14_LN:i:112233_dp:f:1.0210768793638254"	112233
1	0	"Chromosome"	"S4_LN:i:264988_dp:f:0.9947084929862439"	264988
1	0	"Chromosome"	"S13_LN:i:114997_dp:f:0.9981832864919636"	114997
1	0	"Chromosome"	"S19_LN:i:88215_dp:f:1.0340013223968636"	88215
1	0	"Chromosome"	"S17_LN:i:94927_dp:f:0.9831891949009341"	94927
1	0	"Chromosome"	"S16_LN:i:97910_dp:f:0.9953237833631867"	97910
1	0	"Chromosome"	"S20_LN:i:87826_dp:f:1.0172041871083182"	87826
1	0	"Chromosome"	"S22_LN:i:78496_dp:f:0.9939415348015782"	78496
1	0	"Chromosome"	"S23_LN:i:67222_dp:f:0.9500449011883445"	67222
1	0	"Chromosome"	"S18_LN:i:90696_dp:f:1.090256806826195"	90696
1	0	"Chromosome"	"S21_LN:i:86699_dp:f:0.9418929571285877"	86699
1	0	"Chromosome"	"S28_LN:i:45976_dp:f:0.9255139217701182"	45976
1	0	"Chromosome"	"S25_LN:i:57810_dp:f:0.9988349382582724"	57810
1	0	"Chromosome"	"S26_LN:i:56908_dp:f:1.0201483197002035"	56908
1	0	"Chromosome"	"S29_LN:i:45076_dp:f:1.007102249378552"	45076
1	0	"Chromosome"	"S30_LN:i:43699_dp:f:0.9949704908824226"	43699
1	0	"Chromosome"	"S27_LN:i:54750_dp:f:1.0449084773706545"	54750
1	0	"Chromosome"	"S24_LN:i:63524_dp:f:0.9889157477348159"	63524
1	0	"Chromosome"	"S32_LN:i:40753_dp:f:1.0205202826068185"	40753
1	0	"Chromosome"	"S33_LN:i:37754_dp:f:0.9973501873566745"	37754
1	0	"Chromosome"	"S35_LN:i:36545_dp:f:0.9618048437890862"	36545
1	0	"Chromosome"	"S36_LN:i:35077_dp:f:0.9206654669961317"	35077
1	0	"Chromosome"	"S34_LN:i:37523_dp:f:0.9240000491564487"	37523
1	0	"Chromosome"	"S31_LN:i:42177_dp:f:1.0745044100967487"	42177
1	0	"Chromosome"	"S37_LN:i:35031_dp:f:0.9849809420782045"	35031
1	0	"Chromosome"	"S38_LN:i:33563_dp:f:0.9887925768283174"	33563
1	0	"Chromosome"	"S44_LN:i:26554_dp:f:0.9207235486818"	26554
1	0	"Chromosome"	"S40_LN:i:31729_dp:f:0.9651769628160745"	31729
1	0	"Chromosome"	"S45_LN:i:26346_dp:f:0.9045486996669362"	26346
1	0	"Chromosome"	"S41_LN:i:31472_dp:f:1.0411042555942025"	31472
1	0	"Chromosome"	"S43_LN:i:29147_dp:f:0.9630535203998739"	29147
1	0	"Chromosome"	"S42_LN:i:30841_dp:f:2.2030998125946457"	30841
1	0	"Chromosome"	"S39_LN:i:33370_dp:f:1.0638423105877168"	33370
0.5	0.5	"Plasmid"	"S52_LN:i:11620_dp:f:1.0621191797431042"	11620
1	0	"Chromosome"	"S49_LN:i:14995_dp:f:0.9812041880569871"	14995
1	0	"Chromosome"	"S50_LN:i:13950_dp:f:0.8992623597018837"	13950
1	0	"Chromosome"	"S51_LN:i:12971_dp:f:0.9044502266466025"	12971
1	0	"Chromosome"	"S48_LN:i:19053_dp:f:0.9884976478047404"	19053
1	0	"Chromosome"	"S46_LN:i:24605_dp:f:0.9978669673348332"	24605
1	0	"Chromosome"	"S53_LN:i:10522_dp:f:0.908781544927142"	10522
1	0	"Chromosome"	"S47_LN:i:23887_dp:f:0.9241743309662604"	23887
0.5	0.5	"Plasmid"	"S56_LN:i:6967_dp:f:0.949121842194806"	6967
1	0	"Chromosome"	"S55_LN:i:7947_dp:f:1.040399165246817"	7947
1	0	"Chromosome"	"S59_LN:i:4113_dp:f:2.404714194780866"	4113
1	0	"Chromosome"	"S54_LN:i:9118_dp:f:1.0194111931562302"	9118
1	0	"Chromosome"	"S57_LN:i:6552_dp:f:0.7416889271502365"	6552
1	0	"Chromosome"	"S58_LN:i:5821_dp:f:0.9752767076283685"	5821
1	0	"Chromosome"	"S61_LN:i:3065_dp:f:0.9901654411732584"	3065
1	0	"Chromosome"	"S64_LN:i:2543_dp:f:0.9976131769529927"	2543
0.5	0.5	"Plasmid"	"S60_LN:i:4074_dp:f:1.0916441795520881"	4074
1	0	"Chromosome"	"S63_LN:i:2857_dp:f:0.7583557858363308"	2857
1	0	"Chromosome"	"S65_LN:i:2536_dp:f:1.1218112998994858"	2536
1	0	"Chromosome"	"S62_LN:i:3027_dp:f:9.744892664918957"	3027
0.5	0.5	"Plasmid"	"S66_LN:i:2254_dp:f:1.3887702859193467"	2254
1	0	"Chromosome"	"S68_LN:i:1870_dp:f:0.6670410485803105"	1870
1	0	"Chromosome"	"S67_LN:i:2073_dp:f:1.5277722556779736"	2073
1	0	"Chromosome"	"S69_LN:i:1648_dp:f:0.8917668820261254"	1648
1	0	"Chromosome"	"S70_LN:i:1560_dp:f:0.7359845852625932"	1560
1	0	"Chromosome"	"S71_LN:i:1473_dp:f:0.9856434493310773"	1473
0.5	0.5	"Plasmid"	"S72_LN:i:1343_dp:f:3.889269057718881"	1343
0.5	0.5	"Plasmid"	"S73_LN:i:1283_dp:f:10.30180750521763"	1283
0.5	0.5	"Plasmid"	"S74_LN:i:1195_dp:f:7.76969975145647"	1195
1	0	"Chromosome"	"S75_LN:i:1191_dp:f:0.8287435977204587"	1191
0.5	0.5	"Plasmid"	"S77_LN:i:1040_dp:f:3.7686587192696366"	1040
1	0	"Chromosome"	"S76_LN:i:1133_dp:f:1.834047863037897"	1133
