"Prob_Chromosome"	"Prob_Plasmid"	"Prediction"	"Contig_name"	"Contig_length"
1	0	"Chromosome"	"S2_LN:i:272754_dp:f:0.9593011787028197"	272754
1	0	"Chromosome"	"S8_LN:i:223184_dp:f:1.0"	223184
1	0	"Chromosome"	"S3_LN:i:257575_dp:f:1.0447975532696177"	257575
1	0	"Chromosome"	"S7_LN:i:232258_dp:f:0.9730927216890553"	232258
1	0	"Chromosome"	"S1_LN:i:285232_dp:f:1.083762553873728"	285232
1	0	"Chromosome"	"S4_LN:i:254679_dp:f:1.0838530307639433"	254679
1	0	"Chromosome"	"S5_LN:i:249475_dp:f:0.9178663885794811"	249475
1	0	"Chromosome"	"S6_LN:i:241282_dp:f:0.9642103248243484"	241282
1	0	"Chromosome"	"S14_LN:i:147586_dp:f:1.0366144866428766"	147586
1	0	"Chromosome"	"S15_LN:i:144554_dp:f:1.0409748848090763"	144554
1	0	"Chromosome"	"S9_LN:i:205734_dp:f:0.9659368580939627"	205734
1	0	"Chromosome"	"S16_LN:i:132919_dp:f:1.075479207588815"	132919
1	0	"Chromosome"	"S11_LN:i:192504_dp:f:1.055309622339935"	192504
1	0	"Chromosome"	"S10_LN:i:203824_dp:f:1.0053890560578678"	203824
1	0	"Chromosome"	"S12_LN:i:189009_dp:f:0.9339436269212742"	189009
1	0	"Chromosome"	"S13_LN:i:166718_dp:f:0.9203432206561595"	166718
1	0	"Chromosome"	"S17_LN:i:105796_dp:f:1.024918120078489"	105796
1	0	"Chromosome"	"S19_LN:i:97850_dp:f:0.984849305366199"	97850
1	0	"Chromosome"	"S21_LN:i:89574_dp:f:1.008013925800984"	89574
1	0	"Chromosome"	"S18_LN:i:102174_dp:f:0.9917758433031753"	102174
1	0	"Chromosome"	"S20_LN:i:93982_dp:f:1.0032936330612963"	93982
1	0	"Chromosome"	"S22_LN:i:83604_dp:f:0.9267199952841384"	83604
1	0	"Chromosome"	"S24_LN:i:75633_dp:f:0.9788419154693594"	75633
1	0	"Chromosome"	"S25_LN:i:72112_dp:f:1.0087364483244678"	72112
1	0	"Chromosome"	"S23_LN:i:81207_dp:f:1.085754864934999"	81207
1	0	"Chromosome"	"S27_LN:i:53336_dp:f:1.0582345008621479"	53336
1	0	"Chromosome"	"S29_LN:i:41246_dp:f:1.0568285513821967"	41246
1	0	"Chromosome"	"S30_LN:i:38930_dp:f:0.9522194990634706"	38930
1	0	"Chromosome"	"S26_LN:i:55146_dp:f:0.9838263599156629"	55146
1	0	"Chromosome"	"S31_LN:i:38767_dp:f:0.9052090676363937"	38767
1	0	"Chromosome"	"S28_LN:i:49311_dp:f:1.814695869507033"	49311
1	0	"Chromosome"	"S32_LN:i:36667_dp:f:0.9970387487353702"	36667
1	0	"Chromosome"	"S34_LN:i:36412_dp:f:0.9589421143392928"	36412
1	0	"Chromosome"	"S36_LN:i:34072_dp:f:1.0629073322461142"	34072
1	0	"Chromosome"	"S33_LN:i:36493_dp:f:0.9387716744730981"	36493
1	0	"Chromosome"	"S35_LN:i:34759_dp:f:0.9274656844327296"	34759
0	1	"Plasmid"	"S37_LN:i:32734_dp:f:1.874619102873928"	32734
1	0	"Chromosome"	"S38_LN:i:31492_dp:f:0.9336640523658627"	31492
1	0	"Chromosome"	"S39_LN:i:30089_dp:f:1.0345420074430496"	30089
1	0	"Chromosome"	"S41_LN:i:27201_dp:f:0.9346607853568051"	27201
0	1	"Plasmid"	"S42_LN:i:20094_dp:f:2.2215494372461793"	20094
1	0	"Chromosome"	"S43_LN:i:19273_dp:f:1.0620880647601831"	19273
1	0	"Chromosome"	"S40_LN:i:28126_dp:f:0.9844674772255997"	28126
1	0	"Chromosome"	"S49_LN:i:9940_dp:f:0.943826128104834"	9940
1	0	"Chromosome"	"S44_LN:i:18381_dp:f:1.1553323683567427"	18381
1	0	"Chromosome"	"S48_LN:i:11682_dp:f:1.072491709895703"	11682
1	0	"Chromosome"	"S50_LN:i:8409_dp:f:2.0203003238867256"	8409
1	0	"Chromosome"	"S45_LN:i:18171_dp:f:1.2192671534926598"	18171
1	0	"Chromosome"	"S52_LN:i:5306_dp:f:0.7356985585986201"	5306
1	0	"Chromosome"	"S46_LN:i:16606_dp:f:0.9649654822067402"	16606
1	0	"Chromosome"	"S47_LN:i:13814_dp:f:0.975996069843025"	13814
1	0	"Chromosome"	"S53_LN:i:4889_dp:f:0.6864878397149003"	4889
1	0	"Chromosome"	"S51_LN:i:6273_dp:f:1.0514181224891594"	6273
1	0	"Chromosome"	"S54_LN:i:4566_dp:f:1.1596672040199705"	4566
0	1	"Plasmid"	"S57_LN:i:4116_dp:f:27.236466479615913"	4116
1	0	"Chromosome"	"S55_LN:i:4539_dp:f:1.1273239052729835"	4539
1	0	"Chromosome"	"S56_LN:i:4450_dp:f:1.03256612135142"	4450
1	0	"Chromosome"	"S61_LN:i:3270_dp:f:2.0987804112187276"	3270
1	0	"Chromosome"	"S59_LN:i:3626_dp:f:1.170936335553276"	3626
1	0	"Chromosome"	"S60_LN:i:3532_dp:f:0.9871272409119025"	3532
0	1	"Plasmid"	"S58_LN:i:4073_dp:f:38.64835232835734"	4073
1	0	"Chromosome"	"S63_LN:i:2153_dp:f:1.5517179642087455"	2153
1	0	"Chromosome"	"S65_LN:i:1838_dp:f:2.167463039507492"	1838
1	0	"Chromosome"	"S64_LN:i:2053_dp:f:1.8010920202883627"	2053
1	0	"Chromosome"	"S68_LN:i:1458_dp:f:3.4569140247986745"	1458
1	0	"Chromosome"	"S66_LN:i:1780_dp:f:2.0707863286431367"	1780
1	0	"Chromosome"	"S70_LN:i:1374_dp:f:1.6438117137955168"	1374
1	0	"Chromosome"	"S69_LN:i:1449_dp:f:1.9130377864715968"	1449
1	0	"Chromosome"	"S62_LN:i:2840_dp:f:0.8881951731803578"	2840
1	0	"Chromosome"	"S67_LN:i:1663_dp:f:6.43654945029029"	1663
1	0	"Chromosome"	"S73_LN:i:1336_dp:f:1.1097804322110871"	1336
1	0	"Chromosome"	"S72_LN:i:1338_dp:f:0.94271738371694"	1338
1	0	"Chromosome"	"S71_LN:i:1347_dp:f:0.99840072345368"	1347
1	0	"Chromosome"	"S78_LN:i:1224_dp:f:1.0248552524188161"	1224
1	0	"Chromosome"	"S77_LN:i:1276_dp:f:1.962102557418041"	1276
1	0	"Chromosome"	"S76_LN:i:1292_dp:f:3.55911290167451"	1292
1	0	"Chromosome"	"S75_LN:i:1309_dp:f:0.8413054582674332"	1309
1	0	"Chromosome"	"S74_LN:i:1331_dp:f:1.9054933359925181"	1331
1	0	"Chromosome"	"S79_LN:i:1205_dp:f:1.2279549008181958"	1205
1	0	"Chromosome"	"S83_LN:i:1150_dp:f:1.21024676252912"	1150
1	0	"Chromosome"	"S80_LN:i:1192_dp:f:7.243506056920548"	1192
1	0	"Chromosome"	"S84_LN:i:1110_dp:f:0.8841982650599316"	1110
0.5	0.5	"Plasmid"	"S81_LN:i:1181_dp:f:4.932682886347432"	1181
1	0	"Chromosome"	"S82_LN:i:1162_dp:f:0.833031279090442"	1162
1	0	"Chromosome"	"S86_LN:i:1100_dp:f:1.9413451305608658"	1100
1	0	"Chromosome"	"S85_LN:i:1109_dp:f:0.847066918967707"	1109
