"Prob_Chromosome"	"Prob_Plasmid"	"Prediction"	"Contig_name"	"Contig_length"
1	0	"Chromosome"	"S6_LN:i:213082_dp:f:1.0446413725261219"	213082
1	0	"Chromosome"	"S7_LN:i:191665_dp:f:0.9156111982772192"	191665
1	0	"Chromosome"	"S5_LN:i:217183_dp:f:1.0573695474057425"	217183
1	0	"Chromosome"	"S8_LN:i:184482_dp:f:1.0378971771448005"	184482
1	0	"Chromosome"	"S4_LN:i:253390_dp:f:0.9359853934687223"	253390
1	0	"Chromosome"	"S3_LN:i:371582_dp:f:1.0081270852748176"	371582
1	0	"Chromosome"	"S9_LN:i:180800_dp:f:1.0438762633069973"	180800
1	0	"Chromosome"	"S12_LN:i:146377_dp:f:0.9801003877699728"	146377
1	0	"Chromosome"	"S11_LN:i:151641_dp:f:1.0420789145026963"	151641
1	0	"Chromosome"	"S13_LN:i:134789_dp:f:1.0144230101310812"	134789
1	0	"Chromosome"	"S10_LN:i:166986_dp:f:1.0746615442001215"	166986
1	0	"Chromosome"	"S2_LN:i:441403_dp:f:0.946996082189224"	441403
0	1	"Plasmid"	"S15_LN:i:118965_dp:f:2.1294927921170506"	118965
1	0	"Chromosome"	"S14_LN:i:122222_dp:f:1.0162949756665067"	122222
1	0	"Chromosome"	"S1_LN:i:521720_dp:f:1.0"	521720
1	0	"Chromosome"	"S16_LN:i:113564_dp:f:1.0285588915011117"	113564
1	0	"Chromosome"	"S17_LN:i:111806_dp:f:1.0617892225798018"	111806
1	0	"Chromosome"	"S19_LN:i:102942_dp:f:0.975758025397579"	102942
1	0	"Chromosome"	"S20_LN:i:98118_dp:f:0.9655290720315428"	98118
1	0	"Chromosome"	"S18_LN:i:109688_dp:f:1.034713365187241"	109688
1	0	"Chromosome"	"S27_LN:i:47944_dp:f:0.8369344035972616"	47944
1	0	"Chromosome"	"S21_LN:i:97132_dp:f:0.836139191011326"	97132
1	0	"Chromosome"	"S22_LN:i:91631_dp:f:1.096669375413246"	91631
1	0	"Chromosome"	"S25_LN:i:78475_dp:f:1.0472307994763053"	78475
1	0	"Chromosome"	"S24_LN:i:79156_dp:f:1.0267763701745756"	79156
1	0	"Chromosome"	"S28_LN:i:47705_dp:f:0.9462891324863257"	47705
1	0	"Chromosome"	"S23_LN:i:88999_dp:f:1.0409479547657334"	88999
1	0	"Chromosome"	"S26_LN:i:69282_dp:f:1.062328027365009"	69282
1	0	"Chromosome"	"S32_LN:i:34581_dp:f:0.8791248691035344"	34581
1	0	"Chromosome"	"S34_LN:i:29463_dp:f:0.9036379322435696"	29463
1	0	"Chromosome"	"S36_LN:i:26062_dp:f:1.045428744269157"	26062
1	0	"Chromosome"	"S33_LN:i:30711_dp:f:1.1432012866772934"	30711
1	0	"Chromosome"	"S31_LN:i:37586_dp:f:0.9458874214839602"	37586
1	0	"Chromosome"	"S30_LN:i:43545_dp:f:1.043688775564364"	43545
1	0	"Chromosome"	"S35_LN:i:27226_dp:f:0.9566913566873848"	27226
1	0	"Chromosome"	"S29_LN:i:44011_dp:f:1.016922334320907"	44011
1	0	"Chromosome"	"S44_LN:i:9692_dp:f:0.9736611943378705"	9692
1	0	"Chromosome"	"S43_LN:i:12875_dp:f:0.9372617282453701"	12875
1	0	"Chromosome"	"S39_LN:i:22531_dp:f:1.0734242773108391"	22531
1	0	"Chromosome"	"S41_LN:i:17973_dp:f:0.8254193238512023"	17973
0	1	"Plasmid"	"S40_LN:i:19905_dp:f:0.8193885812729694"	19905
1	0	"Chromosome"	"S42_LN:i:16650_dp:f:0.9933946873956824"	16650
1	0	"Chromosome"	"S38_LN:i:25058_dp:f:1.0967539307659584"	25058
1	0	"Chromosome"	"S48_LN:i:4900_dp:f:0.9217420911922443"	4900
1	0	"Chromosome"	"S45_LN:i:9003_dp:f:0.9678691657783745"	9003
1	0	"Chromosome"	"S49_LN:i:4528_dp:f:2.5913467708912066"	4528
1	0	"Chromosome"	"S51_LN:i:4129_dp:f:0.8020897262126905"	4129
1	0	"Chromosome"	"S52_LN:i:3823_dp:f:0.9336678698371568"	3823
1	0	"Chromosome"	"S47_LN:i:7114_dp:f:1.0274814104163745"	7114
1	0	"Chromosome"	"S50_LN:i:4505_dp:f:0.9667828216577333"	4505
1	0	"Chromosome"	"S37_LN:i:25339_dp:f:1.051728646196746"	25339
1	0	"Chromosome"	"S57_LN:i:2674_dp:f:0.7274154042712996"	2674
1	0	"Chromosome"	"S58_LN:i:2646_dp:f:0.9706239168449006"	2646
1	0	"Chromosome"	"S54_LN:i:3710_dp:f:0.8965426602406137"	3710
1	0	"Chromosome"	"S53_LN:i:3724_dp:f:2.8139993971015977"	3724
1	0	"Chromosome"	"S55_LN:i:3161_dp:f:1.1597103306967766"	3161
1	0	"Chromosome"	"S46_LN:i:8562_dp:f:0.9779878824917884"	8562
1	0	"Chromosome"	"S59_LN:i:1922_dp:f:0.7395571378891727"	1922
1	0	"Chromosome"	"S56_LN:i:3028_dp:f:7.463836747637138"	3028
1	0	"Chromosome"	"S61_LN:i:1702_dp:f:7.461827531203626"	1702
1	0	"Chromosome"	"S63_LN:i:1487_dp:f:1.1901918426445042"	1487
1	0	"Chromosome"	"S60_LN:i:1794_dp:f:1.0291065784122788"	1794
1	0	"Chromosome"	"S62_LN:i:1536_dp:f:1.9691850453289101"	1536
1	0	"Chromosome"	"S64_LN:i:1487_dp:f:2.2765351942585754"	1487
1	0	"Chromosome"	"S66_LN:i:1427_dp:f:1.5619692655423159"	1427
1	0	"Chromosome"	"S67_LN:i:1391_dp:f:1.160896116607238"	1391
1	0	"Chromosome"	"S65_LN:i:1453_dp:f:1.0052593075215488"	1453
1	0	"Chromosome"	"S69_LN:i:1250_dp:f:2.221918559835533"	1250
0.5	0.5	"Plasmid"	"S71_LN:i:1173_dp:f:8.123294343345512"	1173
1	0	"Chromosome"	"S70_LN:i:1194_dp:f:2.510984432675172"	1194
1	0	"Chromosome"	"S68_LN:i:1262_dp:f:3.4038513510279533"	1262
1	0	"Chromosome"	"S72_LN:i:1155_dp:f:3.390745045044665"	1155
