"Prob_Chromosome"	"Prob_Plasmid"	"Prediction"	"Contig_name"	"Contig_length"
1	0	"Chromosome"	"S1_LN:i:370414_dp:f:1.1369769586536629"	370414
1	0	"Chromosome"	"S7_LN:i:246241_dp:f:0.9845591055609402"	246241
1	0	"Chromosome"	"S6_LN:i:247190_dp:f:0.8317567978615122"	247190
1	0	"Chromosome"	"S8_LN:i:245386_dp:f:1.0"	245386
1	0	"Chromosome"	"S2_LN:i:349907_dp:f:1.1127703143880072"	349907
1	0	"Chromosome"	"S3_LN:i:334055_dp:f:1.09170762402119"	334055
1	0	"Chromosome"	"S4_LN:i:317820_dp:f:0.957021116175354"	317820
1	0	"Chromosome"	"S5_LN:i:297640_dp:f:0.9418936710163079"	297640
1	0	"Chromosome"	"S10_LN:i:196106_dp:f:1.169156211968643"	196106
1	0	"Chromosome"	"S13_LN:i:150756_dp:f:1.0406382896940298"	150756
1	0	"Chromosome"	"S12_LN:i:168325_dp:f:1.176741705626817"	168325
1	0	"Chromosome"	"S9_LN:i:234343_dp:f:0.8865032166733052"	234343
1	0	"Chromosome"	"S15_LN:i:131140_dp:f:1.2362050195262309"	131140
1	0	"Chromosome"	"S14_LN:i:140047_dp:f:1.169110388959863"	140047
1	0	"Chromosome"	"S16_LN:i:130459_dp:f:1.2310107982093883"	130459
1	0	"Chromosome"	"S11_LN:i:185697_dp:f:1.0145544056189562"	185697
1	0	"Chromosome"	"S24_LN:i:56334_dp:f:1.2677981983748872"	56334
1	0	"Chromosome"	"S23_LN:i:56531_dp:f:1.2176905264107298"	56531
1	0	"Chromosome"	"S21_LN:i:76174_dp:f:0.8696130195456014"	76174
1	0	"Chromosome"	"S20_LN:i:97591_dp:f:0.9885862572740999"	97591
1	0	"Chromosome"	"S18_LN:i:111435_dp:f:1.1900378841876418"	111435
0	1	"Plasmid"	"S22_LN:i:70597_dp:f:1.01879041415249"	70597
1	0	"Chromosome"	"S19_LN:i:104012_dp:f:0.8616715955153983"	104012
1	0	"Chromosome"	"S17_LN:i:123273_dp:f:0.9202262248785014"	123273
1	0	"Chromosome"	"S25_LN:i:55040_dp:f:1.2796652680661145"	55040
1	0	"Chromosome"	"S26_LN:i:51644_dp:f:1.0540961502316726"	51644
1	0	"Chromosome"	"S28_LN:i:44021_dp:f:0.8902402896287441"	44021
1	0	"Chromosome"	"S27_LN:i:50993_dp:f:0.9882237288730656"	50993
1	0	"Chromosome"	"S31_LN:i:36051_dp:f:1.1230851946712768"	36051
1	0	"Chromosome"	"S35_LN:i:19753_dp:f:0.9187587109872619"	19753
1	0	"Chromosome"	"S29_LN:i:41641_dp:f:1.2326674469289958"	41641
1	0	"Chromosome"	"S30_LN:i:41325_dp:f:1.2400623846669068"	41325
1	0	"Chromosome"	"S34_LN:i:24211_dp:f:1.0750877492458422"	24211
1	0	"Chromosome"	"S32_LN:i:31752_dp:f:0.804118925538216"	31752
0	1	"Plasmid"	"S36_LN:i:19145_dp:f:1.0199300919376422"	19145
1	0	"Chromosome"	"S33_LN:i:29837_dp:f:1.181124733922374"	29837
1	0	"Chromosome"	"S41_LN:i:15144_dp:f:0.8952319555256525"	15144
1	0	"Chromosome"	"S38_LN:i:16295_dp:f:0.987144886504953"	16295
1	0	"Chromosome"	"S40_LN:i:15316_dp:f:0.8313293689884486"	15316
1	0	"Chromosome"	"S42_LN:i:11881_dp:f:0.7729472336250085"	11881
1	0	"Chromosome"	"S39_LN:i:16252_dp:f:1.1693438692215168"	16252
1	0	"Chromosome"	"S43_LN:i:11644_dp:f:1.0694980685632065"	11644
1	0	"Chromosome"	"S37_LN:i:16396_dp:f:1.1547700851963738"	16396
1	0	"Chromosome"	"S44_LN:i:11335_dp:f:1.029688633539018"	11335
1	0	"Chromosome"	"S49_LN:i:9195_dp:f:0.9014292910797543"	9195
0	1	"Plasmid"	"S45_LN:i:10543_dp:f:0.9507951078944207"	10543
1	0	"Chromosome"	"S48_LN:i:9558_dp:f:1.214245495814759"	9558
1	0	"Chromosome"	"S46_LN:i:10262_dp:f:0.9800805387042142"	10262
1	0	"Chromosome"	"S47_LN:i:9999_dp:f:0.9245646360988183"	9999
1	0	"Chromosome"	"S50_LN:i:9066_dp:f:1.1893001761189483"	9066
1	0	"Chromosome"	"S51_LN:i:8413_dp:f:1.1723201479804217"	8413
1	0	"Chromosome"	"S52_LN:i:7461_dp:f:1.0163043204720503"	7461
1	0	"Chromosome"	"S55_LN:i:7274_dp:f:0.8941468521499737"	7274
1	0	"Chromosome"	"S58_LN:i:5590_dp:f:0.9767083522875334"	5590
1	0	"Chromosome"	"S53_LN:i:7441_dp:f:0.9275124795060072"	7441
1	0	"Chromosome"	"S56_LN:i:6506_dp:f:1.254096909114415"	6506
1	0	"Chromosome"	"S54_LN:i:7393_dp:f:1.2287797155990696"	7393
1	0	"Chromosome"	"S60_LN:i:4195_dp:f:0.8155484066819269"	4195
1	0	"Chromosome"	"S57_LN:i:6426_dp:f:0.9138245354064459"	6426
1	0	"Chromosome"	"S62_LN:i:3885_dp:f:1.2698069047465554"	3885
1	0	"Chromosome"	"S64_LN:i:3380_dp:f:1.032209035244068"	3380
1	0	"Chromosome"	"S63_LN:i:3721_dp:f:1.0058473670080994"	3721
1	0	"Chromosome"	"S61_LN:i:4143_dp:f:1.3231498506212285"	4143
0	1	"Plasmid"	"S59_LN:i:5219_dp:f:4.644128828634961"	5219
1	0	"Chromosome"	"S67_LN:i:2658_dp:f:1.4639214023414528"	2658
1	0	"Chromosome"	"S68_LN:i:2444_dp:f:1.1703236693141534"	2444
1	0	"Chromosome"	"S66_LN:i:2768_dp:f:1.95411161625379"	2768
1	0	"Chromosome"	"S70_LN:i:2104_dp:f:1.403884423112835"	2104
0.5	0.5	"Plasmid"	"S69_LN:i:2260_dp:f:4.254747781261416"	2260
0	1	"Plasmid"	"S72_LN:i:1888_dp:f:2.332163605695733"	1888
1	0	"Chromosome"	"S73_LN:i:1835_dp:f:0.8962866111161049"	1835
1	0	"Chromosome"	"S75_LN:i:1737_dp:f:1.1402753678325503"	1737
1	0	"Chromosome"	"S71_LN:i:2089_dp:f:1.9109657728758658"	2089
1	0	"Chromosome"	"S74_LN:i:1804_dp:f:0.9826871956167296"	1804
1	0	"Chromosome"	"S65_LN:i:3246_dp:f:9.394609289237918"	3246
0.5	0.5	"Plasmid"	"S77_LN:i:1669_dp:f:2.285784183313827"	1669
1	0	"Chromosome"	"S76_LN:i:1673_dp:f:9.816699127153402"	1673
0	1	"Plasmid"	"S78_LN:i:1615_dp:f:1.3237895567728617"	1615
1	0	"Chromosome"	"S79_LN:i:1542_dp:f:1.2375588866522174"	1542
1	0	"Chromosome"	"S80_LN:i:1391_dp:f:1.4092712568667503"	1391
1	0	"Chromosome"	"S81_LN:i:1384_dp:f:3.003767414029649"	1384
1	0	"Chromosome"	"S83_LN:i:1259_dp:f:1.1402884428258089"	1259
1	0	"Chromosome"	"S84_LN:i:1153_dp:f:3.2351782088288283"	1153
1	0	"Chromosome"	"S86_LN:i:1114_dp:f:2.04834938803281"	1114
1	0	"Chromosome"	"S88_LN:i:1003_dp:f:2.5464367768083513"	1003
1	0	"Chromosome"	"S85_LN:i:1130_dp:f:2.7395275508570323"	1130
1	0	"Chromosome"	"S87_LN:i:1015_dp:f:0.955653618004992"	1015
0	1	"Plasmid"	"S82_LN:i:1329_dp:f:2.0889712734528905"	1329
