"Prob_Chromosome"	"Prob_Plasmid"	"Prediction"	"Contig_name"	"Contig_length"
1	0	"Chromosome"	"S7_LN:i:192628_dp:f:1.0193181005732836"	192628
1	0	"Chromosome"	"S2_LN:i:229954_dp:f:1.0008105576586388"	229954
1	0	"Chromosome"	"S3_LN:i:222260_dp:f:0.9945242644746334"	222260
1	0	"Chromosome"	"S4_LN:i:221996_dp:f:0.962357278799091"	221996
1	0	"Chromosome"	"S6_LN:i:200246_dp:f:1.0107876660859527"	200246
1	0	"Chromosome"	"S5_LN:i:200771_dp:f:0.9990083930833149"	200771
1	0	"Chromosome"	"S1_LN:i:295810_dp:f:1.000712334662098"	295810
1	0	"Chromosome"	"S8_LN:i:187889_dp:f:1.0"	187889
1	0	"Chromosome"	"S9_LN:i:185229_dp:f:0.9982678183745639"	185229
1	0	"Chromosome"	"S14_LN:i:121382_dp:f:0.959197915438491"	121382
1	0	"Chromosome"	"S13_LN:i:132377_dp:f:1.0040594489024488"	132377
1	0	"Chromosome"	"S12_LN:i:133376_dp:f:1.0124831796270528"	133376
1	0	"Chromosome"	"S10_LN:i:165280_dp:f:0.936729147939898"	165280
1	0	"Chromosome"	"S11_LN:i:162368_dp:f:1.003846109381603"	162368
1	0	"Chromosome"	"S18_LN:i:103230_dp:f:0.984492596542401"	103230
1	0	"Chromosome"	"S15_LN:i:112642_dp:f:0.9782878742933926"	112642
1	0	"Chromosome"	"S16_LN:i:105862_dp:f:0.9960775531797165"	105862
1	0	"Chromosome"	"S17_LN:i:103936_dp:f:0.9278268234562762"	103936
1	0	"Chromosome"	"S19_LN:i:101271_dp:f:0.9651588639766855"	101271
1	0	"Chromosome"	"S23_LN:i:68876_dp:f:0.9549601676612796"	68876
1	0	"Chromosome"	"S26_LN:i:53060_dp:f:1.0197894359738662"	53060
1	0	"Chromosome"	"S27_LN:i:52690_dp:f:1.026861547923595"	52690
1	0	"Chromosome"	"S21_LN:i:100814_dp:f:0.9763771851070454"	100814
1	0	"Chromosome"	"S25_LN:i:63014_dp:f:0.965329596344145"	63014
1	0	"Chromosome"	"S22_LN:i:82011_dp:f:1.025681876531832"	82011
1	0	"Chromosome"	"S28_LN:i:50364_dp:f:1.0289622782522763"	50364
1	0	"Chromosome"	"S20_LN:i:101258_dp:f:0.9922083448997837"	101258
1	0	"Chromosome"	"S24_LN:i:68393_dp:f:0.9495511763913029"	68393
1	0	"Chromosome"	"S29_LN:i:50305_dp:f:1.0566658954944181"	50305
1	0	"Chromosome"	"S30_LN:i:48581_dp:f:1.0192330676121304"	48581
1	0	"Chromosome"	"S31_LN:i:45305_dp:f:1.0259296853213733"	45305
1	0	"Chromosome"	"S34_LN:i:39969_dp:f:0.9728732205064358"	39969
1	0	"Chromosome"	"S32_LN:i:40712_dp:f:1.0652374092982881"	40712
1	0	"Chromosome"	"S37_LN:i:37996_dp:f:0.9917098758590538"	37996
0	1	"Plasmid"	"S38_LN:i:37024_dp:f:0.8879663262945391"	37024
1	0	"Chromosome"	"S33_LN:i:40134_dp:f:1.0512498272116266"	40134
1	0	"Chromosome"	"S35_LN:i:39835_dp:f:0.9849371727888225"	39835
1	0	"Chromosome"	"S40_LN:i:34119_dp:f:1.0287819980379311"	34119
1	0	"Chromosome"	"S39_LN:i:34698_dp:f:0.961372649031669"	34698
1	0	"Chromosome"	"S36_LN:i:38353_dp:f:0.9032112546355907"	38353
1	0	"Chromosome"	"S42_LN:i:32512_dp:f:1.0170924321797985"	32512
1	0	"Chromosome"	"S43_LN:i:31057_dp:f:1.0057945637932861"	31057
1	0	"Chromosome"	"S41_LN:i:32719_dp:f:0.9716382432342556"	32719
1	0	"Chromosome"	"S46_LN:i:30036_dp:f:0.9706146605511483"	30036
1	0	"Chromosome"	"S47_LN:i:26313_dp:f:0.9014643432121814"	26313
0	1	"Plasmid"	"S44_LN:i:30819_dp:f:0.8816594656587841"	30819
1	0	"Chromosome"	"S49_LN:i:24201_dp:f:1.0000677325890186"	24201
1	0	"Chromosome"	"S45_LN:i:30582_dp:f:0.9676146826299776"	30582
1	0	"Chromosome"	"S50_LN:i:22509_dp:f:0.9628751377830018"	22509
1	0	"Chromosome"	"S53_LN:i:17110_dp:f:0.9869096758239138"	17110
0.5	0.5	"Plasmid"	"S54_LN:i:16364_dp:f:0.31996618901590496"	16364
1	0	"Chromosome"	"S51_LN:i:21112_dp:f:0.9245876513434359"	21112
1	0	"Chromosome"	"S48_LN:i:24584_dp:f:1.0244348715114149"	24584
1	0	"Chromosome"	"S52_LN:i:19402_dp:f:1.0256099684599165"	19402
1	0	"Chromosome"	"S55_LN:i:14683_dp:f:1.0634686955977308"	14683
1	0	"Chromosome"	"S57_LN:i:13837_dp:f:0.9472747040224138"	13837
1	0	"Chromosome"	"S56_LN:i:14530_dp:f:1.002878027525454"	14530
1	0	"Chromosome"	"S58_LN:i:13803_dp:f:0.8994352172015027"	13803
1	0	"Chromosome"	"S63_LN:i:10413_dp:f:0.8658263687346808"	10413
1	0	"Chromosome"	"S64_LN:i:10293_dp:f:0.9526957230406276"	10293
0	1	"Plasmid"	"S62_LN:i:11419_dp:f:0.9268385215635131"	11419
1	0	"Chromosome"	"S60_LN:i:12127_dp:f:0.9780621624676316"	12127
1	0	"Chromosome"	"S61_LN:i:12107_dp:f:0.9548552954893135"	12107
1	0	"Chromosome"	"S59_LN:i:12709_dp:f:1.0215978371633303"	12709
0.5	0.5	"Plasmid"	"S71_LN:i:5386_dp:f:0.8128810655179509"	5386
1	0	"Chromosome"	"S66_LN:i:9116_dp:f:0.8827933767758901"	9116
0	1	"Plasmid"	"S72_LN:i:5218_dp:f:3.191655104749991"	5218
1	0	"Chromosome"	"S69_LN:i:8009_dp:f:0.913181889389455"	8009
0	1	"Plasmid"	"S70_LN:i:5534_dp:f:0.8325372079275782"	5534
1	0	"Chromosome"	"S68_LN:i:8969_dp:f:0.8801283509893696"	8969
1	0	"Chromosome"	"S67_LN:i:9025_dp:f:0.9980814993510774"	9025
1	0	"Chromosome"	"S65_LN:i:9800_dp:f:1.0210423347269293"	9800
0	1	"Plasmid"	"S74_LN:i:3642_dp:f:0.8719387963973336"	3642
1	0	"Chromosome"	"S73_LN:i:4220_dp:f:0.9018075307304888"	4220
1	0	"Chromosome"	"S76_LN:i:3369_dp:f:0.9908982180027328"	3369
1	0	"Chromosome"	"S78_LN:i:3314_dp:f:1.0579408232066538"	3314
1	0	"Chromosome"	"S79_LN:i:3155_dp:f:6.411316279500569"	3155
1	0	"Chromosome"	"S77_LN:i:3343_dp:f:1.08957437684318"	3343
1	0	"Chromosome"	"S81_LN:i:2617_dp:f:0.9480760884511448"	2617
1	0	"Chromosome"	"S75_LN:i:3492_dp:f:0.9732550573099762"	3492
1	0	"Chromosome"	"S83_LN:i:2326_dp:f:0.8720354898818439"	2326
1	0	"Chromosome"	"S85_LN:i:1883_dp:f:1.0817205247289916"	1883
1	0	"Chromosome"	"S84_LN:i:1981_dp:f:1.7880916358180623"	1981
1	0	"Chromosome"	"S82_LN:i:2370_dp:f:1.7193630742870092"	2370
1	0	"Chromosome"	"S87_LN:i:1558_dp:f:0.9282525138275108"	1558
1	0	"Chromosome"	"S86_LN:i:1695_dp:f:2.7000838224791406"	1695
1	0	"Chromosome"	"S88_LN:i:1489_dp:f:1.0825739961533873"	1489
1	0	"Chromosome"	"S89_LN:i:1488_dp:f:0.8213244178386241"	1488
1	0	"Chromosome"	"S91_LN:i:1346_dp:f:0.9872742012573421"	1346
0.5	0.5	"Plasmid"	"S90_LN:i:1379_dp:f:3.0065858110018673"	1379
1	0	"Chromosome"	"S92_LN:i:1311_dp:f:1.712195959900675"	1311
1	0	"Chromosome"	"S93_LN:i:1298_dp:f:6.027240809619334"	1298
1	0	"Chromosome"	"S97_LN:i:1114_dp:f:1.677479136299776"	1114
1	0	"Chromosome"	"S96_LN:i:1144_dp:f:1.6769690065374643"	1144
1	0	"Chromosome"	"S94_LN:i:1265_dp:f:0.8899581903139768"	1265
1	0	"Chromosome"	"S95_LN:i:1215_dp:f:1.7940340509950234"	1215
1	0	"Chromosome"	"S98_LN:i:1096_dp:f:2.21434885883055"	1096
1	0	"Chromosome"	"S101_LN:i:1016_dp:f:1.851770307275192"	1016
1	0	"Chromosome"	"S99_LN:i:1096_dp:f:3.976559478257771"	1096
1	0	"Chromosome"	"S100_LN:i:1082_dp:f:1.924983754832691"	1082
0.5	0.5	"Plasmid"	"S80_LN:i:2875_dp:f:0.31134783817206513"	2875
