"Prob_Chromosome"	"Prob_Plasmid"	"Prediction"	"Contig_name"	"Contig_length"
1	0	"Chromosome"	"S7_LN:i:181219_dp:f:0.9594228347723465"	181219
1	0	"Chromosome"	"S8_LN:i:173058_dp:f:1.0320342171439458"	173058
1	0	"Chromosome"	"S6_LN:i:201227_dp:f:1.063833147237903"	201227
1	0	"Chromosome"	"S5_LN:i:230152_dp:f:1.0562401923426454"	230152
1	0	"Chromosome"	"S4_LN:i:253587_dp:f:1.0"	253587
1	0	"Chromosome"	"S2_LN:i:360653_dp:f:0.9439997702361204"	360653
1	0	"Chromosome"	"S3_LN:i:310374_dp:f:0.9888649605777797"	310374
1	0	"Chromosome"	"S12_LN:i:132089_dp:f:1.0770652184857787"	132089
1	0	"Chromosome"	"S9_LN:i:156829_dp:f:0.9511953563564276"	156829
1	0	"Chromosome"	"S1_LN:i:419105_dp:f:1.0272233659669137"	419105
1	0	"Chromosome"	"S10_LN:i:150595_dp:f:1.1045689065826716"	150595
1	0	"Chromosome"	"S11_LN:i:141820_dp:f:1.0536979600000969"	141820
1	0	"Chromosome"	"S13_LN:i:131058_dp:f:1.075340172459171"	131058
1	0	"Chromosome"	"S20_LN:i:74050_dp:f:1.0159993744636218"	74050
1	0	"Chromosome"	"S19_LN:i:74106_dp:f:1.10334942845883"	74106
1	0	"Chromosome"	"S18_LN:i:92831_dp:f:1.023918640814095"	92831
1	0	"Chromosome"	"S14_LN:i:127934_dp:f:1.098638168921232"	127934
1	0	"Chromosome"	"S16_LN:i:119051_dp:f:1.0226503085094167"	119051
1	0	"Chromosome"	"S15_LN:i:125360_dp:f:1.0817366733444627"	125360
1	0	"Chromosome"	"S17_LN:i:96576_dp:f:1.070653837560251"	96576
1	0	"Chromosome"	"S21_LN:i:72292_dp:f:1.0645670066121269"	72292
1	0	"Chromosome"	"S28_LN:i:41210_dp:f:1.012841753059316"	41210
1	0	"Chromosome"	"S26_LN:i:44941_dp:f:0.9009140719202581"	44941
1	0	"Chromosome"	"S27_LN:i:44394_dp:f:1.0480526427795789"	44394
1	0	"Chromosome"	"S23_LN:i:69081_dp:f:0.9920984252719536"	69081
1	0	"Chromosome"	"S25_LN:i:49884_dp:f:0.9879398180081435"	49884
1	0	"Chromosome"	"S29_LN:i:40125_dp:f:1.0516311472300006"	40125
1	0	"Chromosome"	"S22_LN:i:71387_dp:f:0.8732716247938849"	71387
1	0	"Chromosome"	"S24_LN:i:68891_dp:f:1.0686464201126327"	68891
1	0	"Chromosome"	"S33_LN:i:32038_dp:f:1.1351369769573765"	32038
1	0	"Chromosome"	"S30_LN:i:39529_dp:f:0.9436169295702758"	39529
1	0	"Chromosome"	"S34_LN:i:30882_dp:f:1.1788107229545122"	30882
1	0	"Chromosome"	"S36_LN:i:27716_dp:f:0.9217034544497994"	27716
1	0	"Chromosome"	"S35_LN:i:27856_dp:f:0.9576315065759503"	27856
1	0	"Chromosome"	"S31_LN:i:38704_dp:f:1.1109409030561699"	38704
1	0	"Chromosome"	"S32_LN:i:33423_dp:f:0.8022251323192254"	33423
1	0	"Chromosome"	"S37_LN:i:26415_dp:f:0.9653637748947869"	26415
1	0	"Chromosome"	"S41_LN:i:22661_dp:f:1.0623606700659087"	22661
0	1	"Plasmid"	"S43_LN:i:20072_dp:f:2.5989547177676835"	20072
1	0	"Chromosome"	"S42_LN:i:22197_dp:f:1.0415731994029709"	22197
0	1	"Plasmid"	"S45_LN:i:16733_dp:f:0.9980210906077344"	16733
1	0	"Chromosome"	"S44_LN:i:17205_dp:f:1.1387502773799798"	17205
1	0	"Chromosome"	"S40_LN:i:23662_dp:f:0.9284928326457765"	23662
1	0	"Chromosome"	"S39_LN:i:24891_dp:f:1.1082664990795212"	24891
1	0	"Chromosome"	"S38_LN:i:25555_dp:f:0.9451257322077339"	25555
1	0	"Chromosome"	"S49_LN:i:10361_dp:f:0.8947888761822931"	10361
0	1	"Plasmid"	"S47_LN:i:13340_dp:f:2.407074632722578"	13340
1	0	"Chromosome"	"S51_LN:i:9729_dp:f:0.9148742244566231"	9729
1	0	"Chromosome"	"S48_LN:i:10631_dp:f:1.2306661533800507"	10631
1	0	"Chromosome"	"S50_LN:i:9846_dp:f:1.2551005736338408"	9846
1	0	"Chromosome"	"S46_LN:i:15251_dp:f:0.9108539938489729"	15251
1	0	"Chromosome"	"S52_LN:i:9702_dp:f:0.8547369277926647"	9702
0.5	0.5	"Plasmid"	"S58_LN:i:5402_dp:f:2.213786368110711"	5402
0	1	"Plasmid"	"S57_LN:i:5466_dp:f:2.148277660981611"	5466
1	0	"Chromosome"	"S55_LN:i:8219_dp:f:1.015466066130956"	8219
1	0	"Chromosome"	"S54_LN:i:9251_dp:f:0.7739462460435513"	9251
0	1	"Plasmid"	"S53_LN:i:9689_dp:f:2.1361969582882114"	9689
0	1	"Plasmid"	"S59_LN:i:5167_dp:f:2.25011591222357"	5167
0	1	"Plasmid"	"S60_LN:i:5101_dp:f:13.404688160324206"	5101
0	1	"Plasmid"	"S56_LN:i:7306_dp:f:2.262891472212485"	7306
1	0	"Chromosome"	"S64_LN:i:3489_dp:f:2.0117931154703275"	3489
1	0	"Chromosome"	"S62_LN:i:4113_dp:f:0.9464942038365046"	4113
1	0	"Chromosome"	"S66_LN:i:3065_dp:f:0.9579710115987848"	3065
1	0	"Chromosome"	"S65_LN:i:3112_dp:f:0.8777841398089417"	3112
0	1	"Plasmid"	"S61_LN:i:4581_dp:f:2.3149863533086146"	4581
1	0	"Chromosome"	"S67_LN:i:2857_dp:f:0.5929342658547213"	2857
0.5	0.5	"Plasmid"	"S63_LN:i:4078_dp:f:1.1729146113215556"	4078
1	0	"Chromosome"	"S69_LN:i:2435_dp:f:0.7342762461153526"	2435
0	1	"Plasmid"	"S71_LN:i:1617_dp:f:1.906674695939922"	1617
1	0	"Chromosome"	"S72_LN:i:1560_dp:f:0.6877327033747038"	1560
0	1	"Plasmid"	"S73_LN:i:1542_dp:f:2.0110683055980263"	1542
0	1	"Plasmid"	"S74_LN:i:1523_dp:f:1.6967059430628282"	1523
0.5	0.5	"Plasmid"	"S75_LN:i:1443_dp:f:2.554127216538479"	1443
1	0	"Chromosome"	"S70_LN:i:1870_dp:f:0.6170139048358627"	1870
0.5	0.5	"Plasmid"	"S76_LN:i:1343_dp:f:3.097140030250828"	1343
1	0	"Chromosome"	"S68_LN:i:2812_dp:f:7.73270724092285"	2812
1	0	"Chromosome"	"S77_LN:i:1334_dp:f:0.7641338668602439"	1334
0.5	0.5	"Plasmid"	"S79_LN:i:1283_dp:f:7.900140063347364"	1283
1	0	"Chromosome"	"S82_LN:i:1086_dp:f:0.6465355893755789"	1086
1	0	"Chromosome"	"S80_LN:i:1256_dp:f:1.8548925537341794"	1256
1	0	"Chromosome"	"S84_LN:i:1018_dp:f:1.4866734188130308"	1018
1	0	"Chromosome"	"S83_LN:i:1031_dp:f:2.1442702611231654"	1031
0.5	0.5	"Plasmid"	"S78_LN:i:1331_dp:f:5.5323801587843455"	1331
1	0	"Chromosome"	"S81_LN:i:1133_dp:f:2.2245984835838852"	1133
