"Prob_Chromosome"	"Prob_Plasmid"	"Prediction"	"Contig_name"	"Contig_length"
1	0	"Chromosome"	"S6_LN:i:119301_dp:f:0.9192548895681663"	119301
1	0	"Chromosome"	"S7_LN:i:108401_dp:f:1.0560251316424867"	108401
1	0	"Chromosome"	"S4_LN:i:141750_dp:f:1.0412483437957352"	141750
1	0	"Chromosome"	"S3_LN:i:157732_dp:f:1.1246671916712687"	157732
1	0	"Chromosome"	"S8_LN:i:104038_dp:f:0.9316490265070991"	104038
1	0	"Chromosome"	"S9_LN:i:102612_dp:f:0.9147381608059025"	102612
1	0	"Chromosome"	"S10_LN:i:101712_dp:f:0.9403616397876642"	101712
1	0	"Chromosome"	"S11_LN:i:98108_dp:f:1.1506758613370922"	98108
1	0	"Chromosome"	"S12_LN:i:96948_dp:f:0.94161816914876"	96948
1	0	"Chromosome"	"S14_LN:i:90189_dp:f:0.9314946148824471"	90189
1	0	"Chromosome"	"S13_LN:i:95919_dp:f:1.1210538399933783"	95919
1	0	"Chromosome"	"S5_LN:i:139573_dp:f:1.0"	139573
1	0	"Chromosome"	"S1_LN:i:221447_dp:f:1.0772617390409143"	221447
1	0	"Chromosome"	"S15_LN:i:88738_dp:f:1.0797861705227059"	88738
1	0	"Chromosome"	"S17_LN:i:80556_dp:f:1.2103723085199365"	80556
1	0	"Chromosome"	"S16_LN:i:86441_dp:f:1.130548676746555"	86441
1	0	"Chromosome"	"S18_LN:i:80544_dp:f:1.013323837417837"	80544
1	0	"Chromosome"	"S20_LN:i:70322_dp:f:1.1412522089307224"	70322
1	0	"Chromosome"	"S21_LN:i:70153_dp:f:0.9361665249087687"	70153
1	0	"Chromosome"	"S19_LN:i:71144_dp:f:0.9710996078103439"	71144
1	0	"Chromosome"	"S23_LN:i:67683_dp:f:1.009954728087146"	67683
1	0	"Chromosome"	"S24_LN:i:67138_dp:f:1.0237345420428845"	67138
1	0	"Chromosome"	"S2_LN:i:183137_dp:f:0.9913831354543411"	183137
1	0	"Chromosome"	"S25_LN:i:66681_dp:f:1.0567812638675391"	66681
1	0	"Chromosome"	"S22_LN:i:68010_dp:f:1.0962310436703127"	68010
1	0	"Chromosome"	"S32_LN:i:53615_dp:f:1.1535690449847018"	53615
1	0	"Chromosome"	"S28_LN:i:61097_dp:f:0.9688579510627723"	61097
1	0	"Chromosome"	"S30_LN:i:56082_dp:f:0.929355724538393"	56082
1	0	"Chromosome"	"S27_LN:i:64488_dp:f:1.1879729396794636"	64488
1	0	"Chromosome"	"S33_LN:i:52668_dp:f:1.0245093314446843"	52668
1	0	"Chromosome"	"S29_LN:i:60452_dp:f:1.1067902156660243"	60452
1	0	"Chromosome"	"S26_LN:i:64515_dp:f:0.9590244034656406"	64515
1	0	"Chromosome"	"S34_LN:i:49845_dp:f:0.9518293574504791"	49845
1	0	"Chromosome"	"S31_LN:i:54544_dp:f:0.9568810825322808"	54544
1	0	"Chromosome"	"S36_LN:i:47640_dp:f:0.9134757931335998"	47640
1	0	"Chromosome"	"S38_LN:i:47344_dp:f:1.1396570507051014"	47344
1	0	"Chromosome"	"S41_LN:i:45019_dp:f:1.0081028057841381"	45019
1	0	"Chromosome"	"S37_LN:i:47471_dp:f:1.126408562244585"	47471
1	0	"Chromosome"	"S39_LN:i:46977_dp:f:1.1312260730824097"	46977
1	0	"Chromosome"	"S40_LN:i:46609_dp:f:1.0587739354257488"	46609
1	0	"Chromosome"	"S35_LN:i:47919_dp:f:1.1544823350568838"	47919
1	0	"Chromosome"	"S44_LN:i:42498_dp:f:1.0585762422793017"	42498
1	0	"Chromosome"	"S43_LN:i:42869_dp:f:0.9436869887280266"	42869
1	0	"Chromosome"	"S45_LN:i:41248_dp:f:1.2393148160955403"	41248
1	0	"Chromosome"	"S47_LN:i:40282_dp:f:1.1515673183146506"	40282
1	0	"Chromosome"	"S48_LN:i:38932_dp:f:1.3244947946476873"	38932
1	0	"Chromosome"	"S46_LN:i:40300_dp:f:0.9595032912596779"	40300
1	0	"Chromosome"	"S50_LN:i:38628_dp:f:1.0186988667254053"	38628
1	0	"Chromosome"	"S42_LN:i:44809_dp:f:1.0123145874691593"	44809
1	0	"Chromosome"	"S52_LN:i:36639_dp:f:1.0232572343354769"	36639
1	0	"Chromosome"	"S53_LN:i:34349_dp:f:1.1256943113356508"	34349
1	0	"Chromosome"	"S54_LN:i:33920_dp:f:1.102055182216198"	33920
1	0	"Chromosome"	"S56_LN:i:31382_dp:f:1.0283079812485043"	31382
1	0	"Chromosome"	"S55_LN:i:32173_dp:f:1.2119778588537784"	32173
1	0	"Chromosome"	"S51_LN:i:37942_dp:f:1.0511157702340184"	37942
1	0	"Chromosome"	"S49_LN:i:38895_dp:f:0.970723486419824"	38895
1	0	"Chromosome"	"S58_LN:i:30696_dp:f:1.0274188786562748"	30696
1	0	"Chromosome"	"S61_LN:i:28222_dp:f:1.0476656225535246"	28222
1	0	"Chromosome"	"S62_LN:i:26578_dp:f:2.1653854674105415"	26578
1	0	"Chromosome"	"S63_LN:i:26304_dp:f:1.0867200160634038"	26304
1	0	"Chromosome"	"S60_LN:i:29220_dp:f:0.9959780718008382"	29220
1	0	"Chromosome"	"S59_LN:i:30661_dp:f:1.0061160899370725"	30661
1	0	"Chromosome"	"S67_LN:i:20242_dp:f:1.073048498814388"	20242
1	0	"Chromosome"	"S65_LN:i:22536_dp:f:1.0424864632155226"	22536
1	0	"Chromosome"	"S68_LN:i:19364_dp:f:0.9809817126850691"	19364
1	0	"Chromosome"	"S57_LN:i:30859_dp:f:1.0762339534606147"	30859
1	0	"Chromosome"	"S64_LN:i:25977_dp:f:0.8896034796910857"	25977
1	0	"Chromosome"	"S66_LN:i:20443_dp:f:1.0546211638991043"	20443
1	0	"Chromosome"	"S70_LN:i:18466_dp:f:1.0832157485532787"	18466
1	0	"Chromosome"	"S71_LN:i:18313_dp:f:1.0888213489637122"	18313
0	1	"Plasmid"	"S72_LN:i:18279_dp:f:0.5730875641368206"	18279
1	0	"Chromosome"	"S74_LN:i:16932_dp:f:0.8324106512116124"	16932
1	0	"Chromosome"	"S73_LN:i:18131_dp:f:1.193325787001648"	18131
1	0	"Chromosome"	"S76_LN:i:16534_dp:f:1.0324910175113706"	16534
1	0	"Chromosome"	"S69_LN:i:19275_dp:f:1.2141880961864366"	19275
0	1	"Plasmid"	"S79_LN:i:16322_dp:f:0.8399166224748849"	16322
1	0	"Chromosome"	"S77_LN:i:16528_dp:f:0.9559945265799135"	16528
1	0	"Chromosome"	"S78_LN:i:16408_dp:f:1.3181138693539807"	16408
1	0	"Chromosome"	"S81_LN:i:14516_dp:f:0.9526172737258213"	14516
1	0	"Chromosome"	"S80_LN:i:16036_dp:f:0.9168301347315561"	16036
1	0	"Chromosome"	"S82_LN:i:14376_dp:f:1.0667539198606801"	14376
0	1	"Plasmid"	"S86_LN:i:13243_dp:f:4.742118436730353"	13243
1	0	"Chromosome"	"S75_LN:i:16752_dp:f:1.0864856770616513"	16752
1	0	"Chromosome"	"S84_LN:i:14011_dp:f:0.9355849729872036"	14011
1	0	"Chromosome"	"S85_LN:i:13788_dp:f:1.0018880819778115"	13788
1	0	"Chromosome"	"S87_LN:i:13142_dp:f:1.2002718478274477"	13142
1	0	"Chromosome"	"S89_LN:i:12846_dp:f:1.0095495574116577"	12846
0	1	"Plasmid"	"S90_LN:i:12490_dp:f:1.0222510230149342"	12490
1	0	"Chromosome"	"S88_LN:i:12882_dp:f:1.3543064714149566"	12882
1	0	"Chromosome"	"S91_LN:i:11870_dp:f:0.8632665957410345"	11870
0	1	"Plasmid"	"S92_LN:i:11585_dp:f:1.2756220837969403"	11585
1	0	"Chromosome"	"S93_LN:i:11548_dp:f:1.3409516365361143"	11548
1	0	"Chromosome"	"S94_LN:i:11418_dp:f:1.3120601205946425"	11418
1	0	"Chromosome"	"S96_LN:i:10048_dp:f:1.0391988498914058"	10048
0	1	"Plasmid"	"S97_LN:i:9955_dp:f:1.0130191237884838"	9955
0	1	"Plasmid"	"S95_LN:i:11242_dp:f:0.891359442117598"	11242
1	0	"Chromosome"	"S99_LN:i:9585_dp:f:1.0108486317118284"	9585
1	0	"Chromosome"	"S83_LN:i:14164_dp:f:1.0429792679264172"	14164
1	0	"Chromosome"	"S100_LN:i:9453_dp:f:1.0389459144854685"	9453
1	0	"Chromosome"	"S102_LN:i:8403_dp:f:1.308202582177571"	8403
0	1	"Plasmid"	"S101_LN:i:8525_dp:f:1.1487028035720168"	8525
1	0	"Chromosome"	"S103_LN:i:8258_dp:f:0.9714825357278858"	8258
1	0	"Chromosome"	"S104_LN:i:8253_dp:f:1.1064196245787092"	8253
1	0	"Chromosome"	"S108_LN:i:7518_dp:f:0.8231101525792422"	7518
0	1	"Plasmid"	"S105_LN:i:8104_dp:f:1.280505061321339"	8104
1	0	"Chromosome"	"S106_LN:i:7738_dp:f:1.1622036714649846"	7738
1	0	"Chromosome"	"S107_LN:i:7701_dp:f:2.27257023090049"	7701
1	0	"Chromosome"	"S109_LN:i:6479_dp:f:0.9652379118207132"	6479
1	0	"Chromosome"	"S110_LN:i:6110_dp:f:0.9904559728915475"	6110
1	0	"Chromosome"	"S111_LN:i:5984_dp:f:0.9623850654101169"	5984
1	0	"Chromosome"	"S112_LN:i:5904_dp:f:1.131713408262662"	5904
0	1	"Plasmid"	"S113_LN:i:5826_dp:f:1.1874842067302698"	5826
1	0	"Chromosome"	"S115_LN:i:5761_dp:f:1.148562339427494"	5761
1	0	"Chromosome"	"S119_LN:i:4871_dp:f:1.085846349702099"	4871
1	0	"Chromosome"	"S118_LN:i:5132_dp:f:1.0857621797027661"	5132
0	1	"Plasmid"	"S116_LN:i:5673_dp:f:0.9992167568930911"	5673
0	1	"Plasmid"	"S122_LN:i:4161_dp:f:19.405594989520985"	4161
0	1	"Plasmid"	"S120_LN:i:4745_dp:f:0.8860922841088135"	4745
0	1	"Plasmid"	"S117_LN:i:5423_dp:f:1.2756199988782393"	5423
0	1	"Plasmid"	"S121_LN:i:4389_dp:f:1.0104586541770137"	4389
0	1	"Plasmid"	"S125_LN:i:3930_dp:f:0.9759968432300032"	3930
1	0	"Chromosome"	"S123_LN:i:4144_dp:f:1.2676867908525626"	4144
0	1	"Plasmid"	"S98_LN:i:9665_dp:f:0.9912094311238415"	9665
0	1	"Plasmid"	"S124_LN:i:3973_dp:f:1.1346442866437587"	3973
0	1	"Plasmid"	"S127_LN:i:3825_dp:f:1.177167638804837"	3825
0	1	"Plasmid"	"S126_LN:i:3826_dp:f:1.2912721362540305"	3826
1	0	"Chromosome"	"S129_LN:i:3746_dp:f:1.2950321347079763"	3746
1	0	"Chromosome"	"S128_LN:i:3793_dp:f:1.1191656972430042"	3793
0	1	"Plasmid"	"S130_LN:i:3637_dp:f:1.4042366619721887"	3637
0.5	0.5	"Plasmid"	"S131_LN:i:3477_dp:f:0.9617380807076649"	3477
1	0	"Chromosome"	"S134_LN:i:3166_dp:f:0.9934290882037174"	3166
0	1	"Plasmid"	"S132_LN:i:3471_dp:f:0.8137554388543103"	3471
0.5	0.5	"Plasmid"	"S136_LN:i:3112_dp:f:1.1502112393506718"	3112
1	0	"Chromosome"	"S135_LN:i:3158_dp:f:2.3968791101243805"	3158
0	1	"Plasmid"	"S133_LN:i:3230_dp:f:16.07529781290486"	3230
0.5	0.5	"Plasmid"	"S137_LN:i:3008_dp:f:1.5192751121648802"	3008
1	0	"Chromosome"	"S142_LN:i:2680_dp:f:1.3174569064796555"	2680
1	0	"Chromosome"	"S138_LN:i:2996_dp:f:2.4113950013594825"	2996
0	1	"Plasmid"	"S143_LN:i:2521_dp:f:0.7366972202751368"	2521
0	1	"Plasmid"	"S139_LN:i:2993_dp:f:0.9298667002455333"	2993
1	0	"Chromosome"	"S144_LN:i:2519_dp:f:1.3321595517999194"	2519
0.5	0.5	"Plasmid"	"S141_LN:i:2698_dp:f:3.6557612936388018"	2698
1	0	"Chromosome"	"S146_LN:i:2357_dp:f:1.0262007534096145"	2357
1	0	"Chromosome"	"S140_LN:i:2799_dp:f:1.4530665045092632"	2799
1	0	"Chromosome"	"S145_LN:i:2391_dp:f:1.3906577621087204"	2391
0	1	"Plasmid"	"S147_LN:i:2353_dp:f:30.475980920818575"	2353
1	0	"Chromosome"	"S149_LN:i:2320_dp:f:1.1146132853440764"	2320
1	0	"Chromosome"	"S148_LN:i:2324_dp:f:7.355928612658414"	2324
1	0	"Chromosome"	"S150_LN:i:2298_dp:f:1.0394881880623967"	2298
1	0	"Chromosome"	"S153_LN:i:2203_dp:f:2.5110641312191446"	2203
1	0	"Chromosome"	"S151_LN:i:2273_dp:f:3.0114804232736065"	2273
0	1	"Plasmid"	"S152_LN:i:2215_dp:f:1.203406496611261"	2215
0	1	"Plasmid"	"S155_LN:i:2076_dp:f:0.8530091595191043"	2076
0	1	"Plasmid"	"S156_LN:i:2076_dp:f:0.6507062318738235"	2076
1	0	"Chromosome"	"S158_LN:i:2030_dp:f:1.2537847025006816"	2030
0	1	"Plasmid"	"S157_LN:i:2042_dp:f:0.8845721192255583"	2042
1	0	"Chromosome"	"S159_LN:i:1856_dp:f:1.120237846794071"	1856
1	0	"Chromosome"	"S161_LN:i:1846_dp:f:0.9961051472294336"	1846
1	0	"Chromosome"	"S114_LN:i:5776_dp:f:0.9537093566774523"	5776
1	0	"Chromosome"	"S163_LN:i:1832_dp:f:1.1401182536833947"	1832
1	0	"Chromosome"	"S160_LN:i:1851_dp:f:1.0158382414267841"	1851
1	0	"Chromosome"	"S162_LN:i:1845_dp:f:1.8646638177299577"	1845
1	0	"Chromosome"	"S166_LN:i:1674_dp:f:1.2442901442582628"	1674
1	0	"Chromosome"	"S165_LN:i:1700_dp:f:1.2198509443509291"	1700
1	0	"Chromosome"	"S164_LN:i:1815_dp:f:1.3064211560472894"	1815
1	0	"Chromosome"	"S168_LN:i:1653_dp:f:1.130177597961026"	1653
1	0	"Chromosome"	"S167_LN:i:1660_dp:f:1.9015715420077575"	1660
0	1	"Plasmid"	"S170_LN:i:1604_dp:f:1.3809760851457635"	1604
0	1	"Plasmid"	"S174_LN:i:1401_dp:f:2.497251378534426"	1401
1	0	"Chromosome"	"S169_LN:i:1628_dp:f:6.860591691394009"	1628
0	1	"Plasmid"	"S171_LN:i:1585_dp:f:2.1103375709231"	1585
1	0	"Chromosome"	"S172_LN:i:1568_dp:f:5.65260118115122"	1568
0	1	"Plasmid"	"S178_LN:i:1310_dp:f:1.6587962754197956"	1310
0	1	"Plasmid"	"S176_LN:i:1357_dp:f:0.8837877885314152"	1357
1	0	"Chromosome"	"S179_LN:i:1233_dp:f:1.0727305367663673"	1233
0	1	"Plasmid"	"S154_LN:i:2116_dp:f:0.9233851241164126"	2116
0.5	0.5	"Plasmid"	"S182_LN:i:1109_dp:f:2.5559548177874487"	1109
1	0	"Chromosome"	"S184_LN:i:1031_dp:f:2.132679084283887"	1031
1	0	"Chromosome"	"S180_LN:i:1230_dp:f:23.934633396200525"	1230
1	0	"Chromosome"	"S181_LN:i:1134_dp:f:1.150292553039558"	1134
0.5	0.5	"Plasmid"	"S177_LN:i:1343_dp:f:4.1024943855267955"	1343
1	0	"Chromosome"	"S173_LN:i:1544_dp:f:2.1323140234997777"	1544
0.5	0.5	"Plasmid"	"S175_LN:i:1388_dp:f:23.07404832901585"	1388
0.5	0.5	"Plasmid"	"S185_LN:i:1014_dp:f:7.953634484880212"	1014
0.5	0.5	"Plasmid"	"S186_LN:i:1009_dp:f:1.0022606785596953"	1009
1	0	"Chromosome"	"S183_LN:i:1100_dp:f:1.9530512505960271"	1100
