"Prob_Chromosome"	"Prob_Plasmid"	"Prediction"	"Contig_name"	"Contig_length"
1	0	"Chromosome"	"S7_LN:i:235833_dp:f:0.9452260018776981"	235833
1	0	"Chromosome"	"S8_LN:i:212665_dp:f:0.9228914756735183"	212665
1	0	"Chromosome"	"S6_LN:i:264222_dp:f:0.9811300411710857"	264222
1	0	"Chromosome"	"S5_LN:i:326745_dp:f:0.9333666042236904"	326745
1	0	"Chromosome"	"S9_LN:i:205800_dp:f:1.040896957148956"	205800
1	0	"Chromosome"	"S10_LN:i:163748_dp:f:0.970897502330715"	163748
1	0	"Chromosome"	"S11_LN:i:135219_dp:f:1.0505819228876476"	135219
1	0	"Chromosome"	"S12_LN:i:131588_dp:f:1.0448177357397144"	131588
1	0	"Chromosome"	"S4_LN:i:447969_dp:f:1.0"	447969
1	0	"Chromosome"	"S14_LN:i:96714_dp:f:1.0689724342587519"	96714
1	0	"Chromosome"	"S13_LN:i:113421_dp:f:0.9026118328168079"	113421
0	1	"Plasmid"	"S15_LN:i:87277_dp:f:1.4756558061992122"	87277
1	0	"Chromosome"	"S19_LN:i:65567_dp:f:1.072847539891493"	65567
1	0	"Chromosome"	"S20_LN:i:53816_dp:f:0.9865770613667911"	53816
1	0	"Chromosome"	"S16_LN:i:79603_dp:f:1.0416079361934527"	79603
1	0	"Chromosome"	"S18_LN:i:74595_dp:f:1.0349025563056333"	74595
1	0	"Chromosome"	"S17_LN:i:75608_dp:f:0.9180529842793588"	75608
1	0	"Chromosome"	"S21_LN:i:32318_dp:f:0.9119088282644205"	32318
1	0	"Chromosome"	"S25_LN:i:18246_dp:f:1.0535915909274987"	18246
1	0	"Chromosome"	"S24_LN:i:26139_dp:f:1.0442743574623838"	26139
1	0	"Chromosome"	"S27_LN:i:4138_dp:f:1.0361860463785812"	4138
1	0	"Chromosome"	"S23_LN:i:29798_dp:f:1.0074336200759404"	29798
0.5	0.5	"Plasmid"	"S26_LN:i:6651_dp:f:0.9986194387643925"	6651
0	1	"Plasmid"	"S30_LN:i:2719_dp:f:82.12072342405315"	2719
1	0	"Chromosome"	"S28_LN:i:3776_dp:f:1.7181660605817053"	3776
0.5	0.5	"Plasmid"	"S31_LN:i:2532_dp:f:2.3449733413815905"	2532
1	0	"Chromosome"	"S33_LN:i:2190_dp:f:0.9712850728584854"	2190
1	0	"Chromosome"	"S29_LN:i:2832_dp:f:6.94599832278446"	2832
1	0	"Chromosome"	"S32_LN:i:2190_dp:f:1.0718513297262493"	2190
1	0	"Chromosome"	"S22_LN:i:29983_dp:f:1.0409122980659269"	29983
1	0	"Chromosome"	"S37_LN:i:1480_dp:f:0.854175265428689"	1480
1	0	"Chromosome"	"S34_LN:i:1917_dp:f:1.9735800853941712"	1917
1	0	"Chromosome"	"S35_LN:i:1816_dp:f:1.0128830935591113"	1816
1	0	"Chromosome"	"S39_LN:i:1470_dp:f:0.9819483593543571"	1470
1	0	"Chromosome"	"S36_LN:i:1493_dp:f:6.994467825027664"	1493
1	0	"Chromosome"	"S38_LN:i:1470_dp:f:1.081732729160746"	1470
1	0	"Chromosome"	"S40_LN:i:1409_dp:f:1.7536419060914699"	1409
1	0	"Chromosome"	"S41_LN:i:1393_dp:f:2.1834623685781347"	1393
1	0	"Chromosome"	"S43_LN:i:1201_dp:f:2.052695242999536"	1201
1	0	"Chromosome"	"S42_LN:i:1276_dp:f:1.7525306640341518"	1276
1	0	"Chromosome"	"S44_LN:i:1183_dp:f:0.9898483319493553"	1183
1	0	"Chromosome"	"S45_LN:i:1163_dp:f:0.8969883123831183"	1163
1	0	"Chromosome"	"S46_LN:i:1158_dp:f:0.9703981979581671"	1158
1	0	"Chromosome"	"S47_LN:i:1098_dp:f:1.0777700253929894"	1098
1	0	"Chromosome"	"S48_LN:i:1098_dp:f:0.994839526769532"	1098
1	0	"Chromosome"	"S49_LN:i:1039_dp:f:2.0536086521894683"	1039
1	0	"Chromosome"	"S51_LN:i:1003_dp:f:0.8660358886519549"	1003
1	0	"Chromosome"	"S50_LN:i:1034_dp:f:1.8375559223951201"	1034
1	0	"Chromosome"	"S3_LN:i:592954_dp:f:1.0374510473985024"	592954
1	0	"Chromosome"	"S1_LN:i:727345_dp:f:1.0254044577608794"	727345
1	0	"Chromosome"	"S2_LN:i:676992_dp:f:0.9842847800857665"	676992
