"Prob_Chromosome"	"Prob_Plasmid"	"Prediction"	"Contig_name"	"Contig_length"
1	0	"Chromosome"	"S8_LN:i:147302_dp:f:1.116076087631108"	147302
1	0	"Chromosome"	"S5_LN:i:230249_dp:f:1.1006097674955753"	230249
1	0	"Chromosome"	"S7_LN:i:179994_dp:f:0.9852524856495876"	179994
1	0	"Chromosome"	"S6_LN:i:206427_dp:f:0.941297947479271"	206427
1	0	"Chromosome"	"S4_LN:i:264085_dp:f:1.1621906422354065"	264085
1	0	"Chromosome"	"S9_LN:i:125664_dp:f:1.1784549588985047"	125664
1	0	"Chromosome"	"S2_LN:i:343855_dp:f:0.8888468213108195"	343855
1	0	"Chromosome"	"S3_LN:i:273947_dp:f:1.067869842362139"	273947
1	0	"Chromosome"	"S12_LN:i:113192_dp:f:0.7805169835603927"	113192
1	0	"Chromosome"	"S11_LN:i:118955_dp:f:0.9336695105191583"	118955
1	0	"Chromosome"	"S10_LN:i:123231_dp:f:1.0"	123231
1	0	"Chromosome"	"S13_LN:i:107999_dp:f:0.8178282849015174"	107999
1	0	"Chromosome"	"S1_LN:i:347732_dp:f:0.7681287172671029"	347732
1	0	"Chromosome"	"S14_LN:i:106193_dp:f:0.7400523566649007"	106193
1	0	"Chromosome"	"S16_LN:i:94926_dp:f:1.1778096812160312"	94926
1	0	"Chromosome"	"S18_LN:i:90923_dp:f:0.9004710083563362"	90923
1	0	"Chromosome"	"S20_LN:i:84973_dp:f:1.1138837490250975"	84973
1	0	"Chromosome"	"S15_LN:i:104180_dp:f:1.0783177506925863"	104180
1	0	"Chromosome"	"S17_LN:i:92059_dp:f:0.8526610210440555"	92059
1	0	"Chromosome"	"S19_LN:i:88119_dp:f:1.1908251285586609"	88119
1	0	"Chromosome"	"S21_LN:i:79100_dp:f:1.070459568950042"	79100
1	0	"Chromosome"	"S23_LN:i:73096_dp:f:1.2625635981447791"	73096
1	0	"Chromosome"	"S22_LN:i:78723_dp:f:0.7647000746130228"	78723
1	0	"Chromosome"	"S25_LN:i:63530_dp:f:0.9373992305936647"	63530
1	0	"Chromosome"	"S26_LN:i:60264_dp:f:0.7646649793433977"	60264
0	1	"Plasmid"	"S24_LN:i:68243_dp:f:0.487680287939411"	68243
1	0	"Chromosome"	"S28_LN:i:54540_dp:f:0.9103393286923999"	54540
1	0	"Chromosome"	"S30_LN:i:43164_dp:f:1.271611135469839"	43164
1	0	"Chromosome"	"S29_LN:i:54255_dp:f:1.195690011070178"	54255
1	0	"Chromosome"	"S31_LN:i:42706_dp:f:1.0822384516315273"	42706
1	0	"Chromosome"	"S27_LN:i:55233_dp:f:1.1341409936803357"	55233
1	0	"Chromosome"	"S32_LN:i:42589_dp:f:1.1788849411573232"	42589
1	0	"Chromosome"	"S35_LN:i:39529_dp:f:1.270589315394103"	39529
1	0	"Chromosome"	"S33_LN:i:41169_dp:f:1.2354315060563659"	41169
1	0	"Chromosome"	"S38_LN:i:33320_dp:f:0.9626468139306991"	33320
1	0	"Chromosome"	"S34_LN:i:40491_dp:f:0.9124118333265687"	40491
1	0	"Chromosome"	"S37_LN:i:35897_dp:f:0.8746860778948022"	35897
1	0	"Chromosome"	"S39_LN:i:32506_dp:f:0.7583485553209649"	32506
1	0	"Chromosome"	"S36_LN:i:37678_dp:f:1.1250381037830348"	37678
1	0	"Chromosome"	"S41_LN:i:30719_dp:f:1.1667933891042497"	30719
1	0	"Chromosome"	"S45_LN:i:19923_dp:f:0.9051276956432559"	19923
1	0	"Chromosome"	"S44_LN:i:23191_dp:f:0.8781697757847748"	23191
1	0	"Chromosome"	"S40_LN:i:31257_dp:f:0.8054548404556736"	31257
1	0	"Chromosome"	"S46_LN:i:15857_dp:f:1.1071943471991332"	15857
1	0	"Chromosome"	"S43_LN:i:25533_dp:f:0.7348475460376385"	25533
1	0	"Chromosome"	"S47_LN:i:12705_dp:f:0.8438605706461837"	12705
1	0	"Chromosome"	"S42_LN:i:28678_dp:f:0.8292442457692043"	28678
1	0	"Chromosome"	"S48_LN:i:12244_dp:f:0.6901520997306061"	12244
1	0	"Chromosome"	"S51_LN:i:11315_dp:f:1.427949780939815"	11315
1	0	"Chromosome"	"S53_LN:i:10469_dp:f:1.262720729896974"	10469
1	0	"Chromosome"	"S55_LN:i:9056_dp:f:1.085586441820399"	9056
1	0	"Chromosome"	"S52_LN:i:10934_dp:f:0.69549040612701"	10934
1	0	"Chromosome"	"S54_LN:i:10392_dp:f:1.0132725373262061"	10392
1	0	"Chromosome"	"S50_LN:i:11709_dp:f:0.9298047127801405"	11709
1	0	"Chromosome"	"S49_LN:i:11874_dp:f:0.8301517961107268"	11874
1	0	"Chromosome"	"S56_LN:i:8785_dp:f:1.1570787518522674"	8785
1	0	"Chromosome"	"S58_LN:i:7214_dp:f:0.880408106292433"	7214
1	0	"Chromosome"	"S63_LN:i:2857_dp:f:0.7886847930894421"	2857
1	0	"Chromosome"	"S57_LN:i:8480_dp:f:1.086945303998316"	8480
1	0	"Chromosome"	"S64_LN:i:2814_dp:f:9.476775569958528"	2814
1	0	"Chromosome"	"S61_LN:i:4461_dp:f:0.9491998773482265"	4461
1	0	"Chromosome"	"S62_LN:i:4316_dp:f:1.405787683289369"	4316
1	0	"Chromosome"	"S65_LN:i:2718_dp:f:0.8840500447222699"	2718
0.5	0.5	"Plasmid"	"S60_LN:i:5587_dp:f:1.8611944218330663"	5587
1	0	"Chromosome"	"S66_LN:i:2541_dp:f:2.990091150529"	2541
0.5	0.5	"Plasmid"	"S59_LN:i:6083_dp:f:0.5465629484328626"	6083
1	0	"Chromosome"	"S70_LN:i:1876_dp:f:0.985029742262024"	1876
1	0	"Chromosome"	"S68_LN:i:2405_dp:f:1.2405146689731825"	2405
0	1	"Plasmid"	"S67_LN:i:2497_dp:f:0.38632794556356986"	2497
0.5	0.5	"Plasmid"	"S71_LN:i:1858_dp:f:2.7254303902428796"	1858
0	1	"Plasmid"	"S69_LN:i:2003_dp:f:0.46971668258626037"	2003
1	0	"Chromosome"	"S74_LN:i:1475_dp:f:0.8812611734738436"	1475
1	0	"Chromosome"	"S72_LN:i:1844_dp:f:1.4882324705827177"	1844
0.5	0.5	"Plasmid"	"S75_LN:i:1343_dp:f:2.4496783075782074"	1343
0.5	0.5	"Plasmid"	"S76_LN:i:1258_dp:f:2.552351098298841"	1258
1	0	"Chromosome"	"S73_LN:i:1702_dp:f:9.55790293705213"	1702
1	0	"Chromosome"	"S77_LN:i:1247_dp:f:2.275194625241073"	1247
1	0	"Chromosome"	"S78_LN:i:1223_dp:f:2.6897305604032424"	1223
1	0	"Chromosome"	"S79_LN:i:1191_dp:f:1.3007760000581052"	1191
1	0	"Chromosome"	"S81_LN:i:1031_dp:f:2.3672886989746735"	1031
1	0	"Chromosome"	"S80_LN:i:1133_dp:f:1.8136951044550402"	1133
