"Prob_Chromosome"	"Prob_Plasmid"	"Prediction"	"Contig_name"	"Contig_length"
1	0	"Chromosome"	"S8_LN:i:209635_dp:f:1.0259503167829758"	209635
1	0	"Chromosome"	"S2_LN:i:295943_dp:f:0.9757623287218571"	295943
1	0	"Chromosome"	"S3_LN:i:286772_dp:f:0.9770153085725303"	286772
1	0	"Chromosome"	"S5_LN:i:272282_dp:f:1.0141697599913353"	272282
1	0	"Chromosome"	"S4_LN:i:280185_dp:f:1.0142962006186937"	280185
1	0	"Chromosome"	"S7_LN:i:219575_dp:f:1.0184656023699288"	219575
1	0	"Chromosome"	"S6_LN:i:266054_dp:f:0.9913775652923208"	266054
1	0	"Chromosome"	"S1_LN:i:318826_dp:f:1.0"	318826
1	0	"Chromosome"	"S16_LN:i:101808_dp:f:1.0210836725081065"	101808
1	0	"Chromosome"	"S15_LN:i:114297_dp:f:0.9791457653879863"	114297
1	0	"Chromosome"	"S14_LN:i:135030_dp:f:0.9983185793676113"	135030
1	0	"Chromosome"	"S10_LN:i:198504_dp:f:0.9762942442175518"	198504
1	0	"Chromosome"	"S9_LN:i:206269_dp:f:0.9964621881053146"	206269
1	0	"Chromosome"	"S11_LN:i:192560_dp:f:1.025154233378396"	192560
1	0	"Chromosome"	"S12_LN:i:192328_dp:f:0.9994419915556654"	192328
1	0	"Chromosome"	"S13_LN:i:167955_dp:f:1.0084093890110946"	167955
1	0	"Chromosome"	"S18_LN:i:97429_dp:f:0.9764478844144326"	97429
0	1	"Plasmid"	"S17_LN:i:98077_dp:f:1.0756316939228965"	98077
1	0	"Chromosome"	"S19_LN:i:95770_dp:f:1.0092333582100461"	95770
1	0	"Chromosome"	"S20_LN:i:91799_dp:f:1.030684417523491"	91799
1	0	"Chromosome"	"S22_LN:i:71222_dp:f:0.9394228902362382"	71222
1	0	"Chromosome"	"S21_LN:i:90508_dp:f:0.9892527230535173"	90508
1	0	"Chromosome"	"S23_LN:i:69876_dp:f:1.0064152713581531"	69876
1	0	"Chromosome"	"S24_LN:i:68811_dp:f:1.0340356152441565"	68811
1	0	"Chromosome"	"S28_LN:i:51050_dp:f:0.9558610386584239"	51050
1	0	"Chromosome"	"S27_LN:i:52420_dp:f:0.9928221836516927"	52420
1	0	"Chromosome"	"S29_LN:i:46942_dp:f:0.9463178684685254"	46942
1	0	"Chromosome"	"S26_LN:i:56671_dp:f:0.963587522444607"	56671
0	1	"Plasmid"	"S25_LN:i:56860_dp:f:1.6040549825773223"	56860
1	0	"Chromosome"	"S31_LN:i:42699_dp:f:0.9515752322167514"	42699
1	0	"Chromosome"	"S30_LN:i:45759_dp:f:0.9974273124971518"	45759
1	0	"Chromosome"	"S33_LN:i:40587_dp:f:1.0206205023239228"	40587
1	0	"Chromosome"	"S32_LN:i:42005_dp:f:1.0096425331951728"	42005
1	0	"Chromosome"	"S34_LN:i:37906_dp:f:1.0388941161814262"	37906
1	0	"Chromosome"	"S37_LN:i:30785_dp:f:1.0442492535631032"	30785
1	0	"Chromosome"	"S36_LN:i:32876_dp:f:0.9966814113461266"	32876
0	1	"Plasmid"	"S35_LN:i:36088_dp:f:1.5593356860485317"	36088
1	0	"Chromosome"	"S38_LN:i:28967_dp:f:0.9459485728478496"	28967
1	0	"Chromosome"	"S39_LN:i:26405_dp:f:0.9932887360567074"	26405
1	0	"Chromosome"	"S40_LN:i:26056_dp:f:1.021888791438695"	26056
0	1	"Plasmid"	"S42_LN:i:21075_dp:f:1.489200866775378"	21075
1	0	"Chromosome"	"S47_LN:i:12162_dp:f:1.2481090312899892"	12162
1	0	"Chromosome"	"S46_LN:i:12511_dp:f:1.0043665790567358"	12511
1	0	"Chromosome"	"S43_LN:i:20080_dp:f:0.9199613848645641"	20080
1	0	"Chromosome"	"S41_LN:i:25098_dp:f:1.0060383919794125"	25098
1	0	"Chromosome"	"S50_LN:i:4505_dp:f:0.9892253285801005"	4505
1	0	"Chromosome"	"S51_LN:i:3032_dp:f:7.10857036993754"	3032
1	0	"Chromosome"	"S49_LN:i:7393_dp:f:1.0448232159983153"	7393
1	0	"Chromosome"	"S52_LN:i:2750_dp:f:1.001817928686364"	2750
1	0	"Chromosome"	"S53_LN:i:2673_dp:f:0.8216459056798637"	2673
1	0	"Chromosome"	"S45_LN:i:18784_dp:f:1.024344650620101"	18784
1	0	"Chromosome"	"S56_LN:i:1689_dp:f:0.8972390799628607"	1689
1	0	"Chromosome"	"S55_LN:i:1702_dp:f:7.204982915420581"	1702
1	0	"Chromosome"	"S54_LN:i:2226_dp:f:1.1542621697842703"	2226
0	1	"Plasmid"	"S48_LN:i:10249_dp:f:1.4191798744697368"	10249
1	0	"Chromosome"	"S44_LN:i:19488_dp:f:0.9862370808449128"	19488
1	0	"Chromosome"	"S59_LN:i:1451_dp:f:0.9555309723572948"	1451
1	0	"Chromosome"	"S60_LN:i:1341_dp:f:0.9250253979270492"	1341
1	0	"Chromosome"	"S58_LN:i:1534_dp:f:0.8894936944136848"	1534
1	0	"Chromosome"	"S57_LN:i:1591_dp:f:1.0460185722386193"	1591
1	0	"Chromosome"	"S63_LN:i:1190_dp:f:2.1048264347596506"	1190
1	0	"Chromosome"	"S61_LN:i:1310_dp:f:3.700103591826204"	1310
1	0	"Chromosome"	"S62_LN:i:1265_dp:f:1.9571736161004931"	1265
1	0	"Chromosome"	"S64_LN:i:1190_dp:f:1.0276124148467618"	1190
1	0	"Chromosome"	"S68_LN:i:1086_dp:f:0.8880514664650928"	1086
1	0	"Chromosome"	"S66_LN:i:1160_dp:f:12.083219517094365"	1160
1	0	"Chromosome"	"S67_LN:i:1151_dp:f:2.0634239205827427"	1151
0.5	0.5	"Plasmid"	"S65_LN:i:1188_dp:f:3.7318697517439245"	1188
