"Prob_Chromosome"	"Prob_Plasmid"	"Prediction"	"Contig_name"	"Contig_length"
1	0	"Chromosome"	"S6_LN:i:165031_dp:f:1.0184987533025647"	165031
1	0	"Chromosome"	"S5_LN:i:179403_dp:f:0.901702246934106"	179403
1	0	"Chromosome"	"S8_LN:i:146599_dp:f:1.0"	146599
1	0	"Chromosome"	"S1_LN:i:336403_dp:f:0.9806740651058634"	336403
1	0	"Chromosome"	"S7_LN:i:155149_dp:f:1.0241055869580484"	155149
1	0	"Chromosome"	"S2_LN:i:282379_dp:f:0.9303968498724705"	282379
1	0	"Chromosome"	"S12_LN:i:122397_dp:f:1.0929985823965662"	122397
1	0	"Chromosome"	"S11_LN:i:126222_dp:f:1.0756404938094175"	126222
1	0	"Chromosome"	"S4_LN:i:215625_dp:f:1.0577906127868484"	215625
1	0	"Chromosome"	"S3_LN:i:221844_dp:f:1.065008570131357"	221844
1	0	"Chromosome"	"S10_LN:i:129490_dp:f:0.9825640902568612"	129490
1	0	"Chromosome"	"S14_LN:i:110638_dp:f:1.1086568329955366"	110638
1	0	"Chromosome"	"S15_LN:i:107219_dp:f:0.9363011411054367"	107219
1	0	"Chromosome"	"S16_LN:i:101324_dp:f:1.0283965729273672"	101324
1	0	"Chromosome"	"S20_LN:i:84041_dp:f:1.0419962975725992"	84041
1	0	"Chromosome"	"S18_LN:i:92458_dp:f:1.083617677416826"	92458
1	0	"Chromosome"	"S13_LN:i:111663_dp:f:1.0553601292501564"	111663
1	0	"Chromosome"	"S19_LN:i:88483_dp:f:1.1191514671705585"	88483
1	0	"Chromosome"	"S21_LN:i:78389_dp:f:1.0231650773067493"	78389
1	0	"Chromosome"	"S22_LN:i:71239_dp:f:1.0639030068544721"	71239
1	0	"Chromosome"	"S23_LN:i:70444_dp:f:1.081183657541299"	70444
1	0	"Chromosome"	"S17_LN:i:96842_dp:f:0.9575757062294525"	96842
1	0	"Chromosome"	"S26_LN:i:67190_dp:f:0.8468863761450659"	67190
1	0	"Chromosome"	"S27_LN:i:51736_dp:f:0.9824952311036567"	51736
1	0	"Chromosome"	"S25_LN:i:67589_dp:f:0.995402996238778"	67589
1	0	"Chromosome"	"S24_LN:i:67985_dp:f:0.950306099451087"	67985
1	0	"Chromosome"	"S30_LN:i:46267_dp:f:1.1288842211592012"	46267
1	0	"Chromosome"	"S28_LN:i:47712_dp:f:0.9552447448232161"	47712
1	0	"Chromosome"	"S29_LN:i:47465_dp:f:1.0581211283339402"	47465
1	0	"Chromosome"	"S35_LN:i:39530_dp:f:0.9686822739143004"	39530
1	0	"Chromosome"	"S31_LN:i:45925_dp:f:0.8809360528277987"	45925
1	0	"Chromosome"	"S32_LN:i:44566_dp:f:1.054751564181669"	44566
1	0	"Chromosome"	"S36_LN:i:38873_dp:f:1.050435468013281"	38873
1	0	"Chromosome"	"S34_LN:i:40502_dp:f:0.946249475339743"	40502
1	0	"Chromosome"	"S37_LN:i:38303_dp:f:0.9474660951068185"	38303
1	0	"Chromosome"	"S38_LN:i:38266_dp:f:0.9641620297860038"	38266
1	0	"Chromosome"	"S39_LN:i:37767_dp:f:1.0348439737972008"	37767
1	0	"Chromosome"	"S33_LN:i:42663_dp:f:0.9856185804276983"	42663
1	0	"Chromosome"	"S41_LN:i:36705_dp:f:0.9051932791225231"	36705
1	0	"Chromosome"	"S40_LN:i:37575_dp:f:0.9414322980037596"	37575
1	0	"Chromosome"	"S44_LN:i:31388_dp:f:0.9647821292142265"	31388
1	0	"Chromosome"	"S43_LN:i:34583_dp:f:1.1547787566899286"	34583
1	0	"Chromosome"	"S45_LN:i:30734_dp:f:1.1675681160083031"	30734
1	0	"Chromosome"	"S49_LN:i:25263_dp:f:1.0653866521531077"	25263
1	0	"Chromosome"	"S47_LN:i:26332_dp:f:1.0782916612907703"	26332
1	0	"Chromosome"	"S48_LN:i:25341_dp:f:0.7375690056483092"	25341
1	0	"Chromosome"	"S50_LN:i:25249_dp:f:0.9713725357299761"	25249
1	0	"Chromosome"	"S52_LN:i:21927_dp:f:1.0399860526113789"	21927
1	0	"Chromosome"	"S46_LN:i:29371_dp:f:1.0562374551078637"	29371
1	0	"Chromosome"	"S53_LN:i:20587_dp:f:0.8518215712864793"	20587
1	0	"Chromosome"	"S54_LN:i:19537_dp:f:0.9567300233055311"	19537
1	0	"Chromosome"	"S42_LN:i:35191_dp:f:1.0875000612443881"	35191
1	0	"Chromosome"	"S51_LN:i:22351_dp:f:1.0314904352597822"	22351
1	0	"Chromosome"	"S55_LN:i:18975_dp:f:1.0411353035516846"	18975
1	0	"Chromosome"	"S58_LN:i:16899_dp:f:1.0628094883072214"	16899
1	0	"Chromosome"	"S57_LN:i:17847_dp:f:0.8110936247041897"	17847
0	1	"Plasmid"	"S56_LN:i:18111_dp:f:0.9096601385593034"	18111
1	0	"Chromosome"	"S59_LN:i:16677_dp:f:1.0216511160360673"	16677
1	0	"Chromosome"	"S61_LN:i:13460_dp:f:1.0412733075725829"	13460
0	1	"Plasmid"	"S64_LN:i:12310_dp:f:0.9598599177528699"	12310
1	0	"Chromosome"	"S65_LN:i:9387_dp:f:1.038058283425962"	9387
1	0	"Chromosome"	"S63_LN:i:12379_dp:f:0.820592833426697"	12379
0	1	"Plasmid"	"S67_LN:i:8118_dp:f:1.1722475955453284"	8118
1	0	"Chromosome"	"S68_LN:i:7337_dp:f:1.1202006856105085"	7337
1	0	"Chromosome"	"S60_LN:i:14572_dp:f:1.0223582845691908"	14572
1	0	"Chromosome"	"S62_LN:i:12427_dp:f:0.9407299269476941"	12427
1	0	"Chromosome"	"S70_LN:i:6186_dp:f:0.6134624759717852"	6186
1	0	"Chromosome"	"S72_LN:i:5919_dp:f:0.9391380832303068"	5919
0	1	"Plasmid"	"S71_LN:i:6019_dp:f:0.8179387977260794"	6019
1	0	"Chromosome"	"S74_LN:i:4749_dp:f:0.9857723162300894"	4749
1	0	"Chromosome"	"S73_LN:i:5670_dp:f:0.9659774155194912"	5670
1	0	"Chromosome"	"S76_LN:i:4113_dp:f:0.9166436319718569"	4113
1	0	"Chromosome"	"S75_LN:i:4260_dp:f:0.8350745793327139"	4260
1	0	"Chromosome"	"S77_LN:i:4012_dp:f:0.8172085706213122"	4012
1	0	"Chromosome"	"S69_LN:i:7036_dp:f:0.8489554391281112"	7036
1	0	"Chromosome"	"S66_LN:i:8454_dp:f:1.0669997272583258"	8454
1	0	"Chromosome"	"S80_LN:i:3083_dp:f:1.9416846248822068"	3083
0	1	"Plasmid"	"S78_LN:i:3633_dp:f:10.280614334289835"	3633
1	0	"Chromosome"	"S84_LN:i:1979_dp:f:0.6453365052482357"	1979
1	0	"Chromosome"	"S81_LN:i:2812_dp:f:7.642508851855542"	2812
1	0	"Chromosome"	"S82_LN:i:2764_dp:f:0.6275908417592002"	2764
0.5	0.5	"Plasmid"	"S87_LN:i:1647_dp:f:1.3904222555573158"	1647
1	0	"Chromosome"	"S79_LN:i:3236_dp:f:0.992677825121958"	3236
1	0	"Chromosome"	"S85_LN:i:1886_dp:f:0.695686741488255"	1886
1	0	"Chromosome"	"S86_LN:i:1750_dp:f:0.621912874550262"	1750
0	1	"Plasmid"	"S83_LN:i:2520_dp:f:1.1257103328265021"	2520
1	0	"Chromosome"	"S92_LN:i:1377_dp:f:0.7818186031053355"	1377
0.5	0.5	"Plasmid"	"S89_LN:i:1443_dp:f:1.8754930173231794"	1443
1	0	"Chromosome"	"S91_LN:i:1381_dp:f:0.8637028601945774"	1381
1	0	"Chromosome"	"S90_LN:i:1431_dp:f:0.7681443644547371"	1431
0.5	0.5	"Plasmid"	"S93_LN:i:1343_dp:f:2.039968597960807"	1343
1	0	"Chromosome"	"S88_LN:i:1638_dp:f:0.6848498532584465"	1638
0	1	"Plasmid"	"S96_LN:i:1161_dp:f:0.866087729582987"	1161
0.5	0.5	"Plasmid"	"S95_LN:i:1283_dp:f:7.933514623526665"	1283
1	0	"Chromosome"	"S94_LN:i:1331_dp:f:8.284185188330577"	1331
1	0	"Chromosome"	"S98_LN:i:1131_dp:f:6.425374019477349"	1131
1	0	"Chromosome"	"S99_LN:i:1119_dp:f:2.0520780424987057"	1119
1	0	"Chromosome"	"S100_LN:i:1102_dp:f:0.8497576151272005"	1102
1	0	"Chromosome"	"S102_LN:i:1044_dp:f:0.8665373525439286"	1044
1	0	"Chromosome"	"S105_LN:i:1002_dp:f:0.9515753893918188"	1002
1	0	"Chromosome"	"S101_LN:i:1096_dp:f:2.4065862827269595"	1096
1	0	"Chromosome"	"S104_LN:i:1013_dp:f:0.7797915159374229"	1013
1	0	"Chromosome"	"S97_LN:i:1133_dp:f:2.091400512166402"	1133
1	0	"Chromosome"	"S103_LN:i:1031_dp:f:2.108776157478103"	1031
1	0	"Chromosome"	"S9_LN:i:137565_dp:f:50.66972840972005"	137565
