"Prob_Chromosome"	"Prob_Plasmid"	"Prediction"	"Contig_name"	"Contig_length"
1	0	"Chromosome"	"S6_LN:i:204497_dp:f:1.0144104516697996"	204497
1	0	"Chromosome"	"S5_LN:i:210088_dp:f:1.1089950898951986"	210088
1	0	"Chromosome"	"S7_LN:i:199103_dp:f:0.9111010222425698"	199103
1	0	"Chromosome"	"S4_LN:i:224974_dp:f:1.0638027424648115"	224974
1	0	"Chromosome"	"S8_LN:i:184660_dp:f:1.1435365321180866"	184660
1	0	"Chromosome"	"S3_LN:i:260409_dp:f:0.9394616531941389"	260409
1	0	"Chromosome"	"S2_LN:i:269195_dp:f:1.0930399766644294"	269195
1	0	"Chromosome"	"S12_LN:i:141884_dp:f:1.0464335877418205"	141884
1	0	"Chromosome"	"S10_LN:i:146177_dp:f:1.0"	146177
1	0	"Chromosome"	"S11_LN:i:144863_dp:f:1.0882980429170455"	144863
1	0	"Chromosome"	"S9_LN:i:179483_dp:f:1.1073419401392535"	179483
1	0	"Chromosome"	"S13_LN:i:135249_dp:f:0.9547728339382447"	135249
1	0	"Chromosome"	"S14_LN:i:127486_dp:f:1.0489630322866492"	127486
1	0	"Chromosome"	"S15_LN:i:126807_dp:f:0.9690524729479609"	126807
1	0	"Chromosome"	"S16_LN:i:119799_dp:f:1.0725924842252734"	119799
1	0	"Chromosome"	"S17_LN:i:114301_dp:f:0.9431567573302481"	114301
0	1	"Plasmid"	"S20_LN:i:101837_dp:f:1.9717285658867976"	101837
1	0	"Chromosome"	"S18_LN:i:108967_dp:f:0.9649778730012601"	108967
1	0	"Chromosome"	"S19_LN:i:104761_dp:f:1.1313891713395634"	104761
1	0	"Chromosome"	"S21_LN:i:93901_dp:f:0.9864246112239599"	93901
1	0	"Chromosome"	"S22_LN:i:90730_dp:f:1.0805537430768817"	90730
1	0	"Chromosome"	"S25_LN:i:65146_dp:f:1.109255297606616"	65146
1	0	"Chromosome"	"S26_LN:i:63866_dp:f:1.1376911588361496"	63866
1	0	"Chromosome"	"S24_LN:i:73038_dp:f:0.9451904002444096"	73038
1	0	"Chromosome"	"S27_LN:i:63388_dp:f:0.9475235245056254"	63388
1	0	"Chromosome"	"S28_LN:i:62312_dp:f:1.0854337983929083"	62312
1	0	"Chromosome"	"S29_LN:i:54987_dp:f:1.131835486485207"	54987
1	0	"Chromosome"	"S23_LN:i:88138_dp:f:1.112251462599032"	88138
1	0	"Chromosome"	"S32_LN:i:34823_dp:f:1.1253880962131924"	34823
1	0	"Chromosome"	"S34_LN:i:30799_dp:f:1.1155249280795088"	30799
1	0	"Chromosome"	"S35_LN:i:26137_dp:f:1.130896581367079"	26137
1	0	"Chromosome"	"S36_LN:i:25167_dp:f:0.9727848993566418"	25167
1	0	"Chromosome"	"S39_LN:i:7417_dp:f:1.044263870231518"	7417
1	0	"Chromosome"	"S33_LN:i:33017_dp:f:1.0513204044403128"	33017
0	1	"Plasmid"	"S40_LN:i:4932_dp:f:2.0243194007620775"	4932
1	0	"Chromosome"	"S30_LN:i:45156_dp:f:1.1055068119380187"	45156
1	0	"Chromosome"	"S38_LN:i:10966_dp:f:1.0576188938802835"	10966
1	0	"Chromosome"	"S42_LN:i:2889_dp:f:1.116600421486185"	2889
1	0	"Chromosome"	"S31_LN:i:43223_dp:f:0.9338072537899558"	43223
1	0	"Chromosome"	"S43_LN:i:2573_dp:f:7.444167218568826"	2573
1	0	"Chromosome"	"S46_LN:i:1892_dp:f:1.0171662541612523"	1892
1	0	"Chromosome"	"S45_LN:i:2284_dp:f:1.9582109008073514"	2284
1	0	"Chromosome"	"S41_LN:i:4443_dp:f:1.118660458827536"	4443
1	0	"Chromosome"	"S47_LN:i:1834_dp:f:0.7335723022980033"	1834
1	0	"Chromosome"	"S44_LN:i:2528_dp:f:1.6735896162607093"	2528
1	0	"Chromosome"	"S48_LN:i:1796_dp:f:0.8145875149591261"	1796
1	0	"Chromosome"	"S51_LN:i:1697_dp:f:0.8860589332117641"	1697
1	0	"Chromosome"	"S52_LN:i:1611_dp:f:2.7028837122089997"	1611
1	0	"Chromosome"	"S50_LN:i:1698_dp:f:7.170995868337407"	1698
1	0	"Chromosome"	"S53_LN:i:1468_dp:f:0.9271812917700798"	1468
1	0	"Chromosome"	"S57_LN:i:1106_dp:f:1.1447633547984273"	1106
1	0	"Chromosome"	"S49_LN:i:1714_dp:f:1.1131049089119138"	1714
0.5	0.5	"Plasmid"	"S56_LN:i:1147_dp:f:10.62318509092749"	1147
1	0	"Chromosome"	"S55_LN:i:1151_dp:f:2.0045130066989887"	1151
0.5	0.5	"Plasmid"	"S54_LN:i:1258_dp:f:7.021145324032065"	1258
1	0	"Chromosome"	"S37_LN:i:24193_dp:f:0.9145002005287944"	24193
1	0	"Chromosome"	"S1_LN:i:724893_dp:f:0.9947273610937322"	724893
