"Prob_Chromosome"	"Prob_Plasmid"	"Prediction"	"Contig_name"	"Contig_length"
1	0	"Chromosome"	"S6_LN:i:203083_dp:f:1.1837473546717356"	203083
1	0	"Chromosome"	"S8_LN:i:187822_dp:f:0.7856214841167533"	187822
1	0	"Chromosome"	"S7_LN:i:196469_dp:f:1.0866109519935299"	196469
1	0	"Chromosome"	"S4_LN:i:271960_dp:f:1.0945583249594613"	271960
1	0	"Chromosome"	"S5_LN:i:267097_dp:f:0.9210572553485845"	267097
1	0	"Chromosome"	"S3_LN:i:285725_dp:f:1.0110312098831942"	285725
1	0	"Chromosome"	"S2_LN:i:348397_dp:f:0.9020036531359081"	348397
1	0	"Chromosome"	"S1_LN:i:449812_dp:f:1.0"	449812
1	0	"Chromosome"	"S9_LN:i:161514_dp:f:0.9632353204617361"	161514
1	0	"Chromosome"	"S10_LN:i:149222_dp:f:0.8156074495544133"	149222
1	0	"Chromosome"	"S11_LN:i:144205_dp:f:0.8944634129942103"	144205
1	0	"Chromosome"	"S14_LN:i:116874_dp:f:1.240602965575398"	116874
1	0	"Chromosome"	"S13_LN:i:132910_dp:f:1.1649827159334767"	132910
1	0	"Chromosome"	"S12_LN:i:144022_dp:f:1.175867981713701"	144022
1	0	"Chromosome"	"S17_LN:i:100508_dp:f:1.2365280102634677"	100508
1	0	"Chromosome"	"S15_LN:i:114246_dp:f:1.200184383628858"	114246
1	0	"Chromosome"	"S18_LN:i:99009_dp:f:1.0914531375020846"	99009
1	0	"Chromosome"	"S19_LN:i:97363_dp:f:0.8255106636076899"	97363
1	0	"Chromosome"	"S16_LN:i:101489_dp:f:0.831698225616568"	101489
1	0	"Chromosome"	"S20_LN:i:95925_dp:f:0.8351373442955196"	95925
1	0	"Chromosome"	"S21_LN:i:89954_dp:f:1.100981254737608"	89954
1	0	"Chromosome"	"S22_LN:i:87668_dp:f:1.313309901656971"	87668
1	0	"Chromosome"	"S23_LN:i:78790_dp:f:0.8005625574846841"	78790
1	0	"Chromosome"	"S27_LN:i:64401_dp:f:1.1553396567491214"	64401
1	0	"Chromosome"	"S25_LN:i:68884_dp:f:1.2179268640173133"	68884
1	0	"Chromosome"	"S24_LN:i:78309_dp:f:0.9869480283494898"	78309
1	0	"Chromosome"	"S26_LN:i:68549_dp:f:1.2636881639551847"	68549
1	0	"Chromosome"	"S29_LN:i:56308_dp:f:1.2145093883516278"	56308
0	1	"Plasmid"	"S28_LN:i:62140_dp:f:2.0841081072422956"	62140
1	0	"Chromosome"	"S30_LN:i:53101_dp:f:1.2236141506992777"	53101
1	0	"Chromosome"	"S34_LN:i:47839_dp:f:1.1596503454217604"	47839
1	0	"Chromosome"	"S32_LN:i:51032_dp:f:1.1327912357991825"	51032
1	0	"Chromosome"	"S33_LN:i:49940_dp:f:0.8855966404778893"	49940
1	0	"Chromosome"	"S31_LN:i:53042_dp:f:1.2080614521189643"	53042
1	0	"Chromosome"	"S36_LN:i:29791_dp:f:1.2876473452321646"	29791
1	0	"Chromosome"	"S37_LN:i:29787_dp:f:0.8578387454438278"	29787
1	0	"Chromosome"	"S35_LN:i:46803_dp:f:1.1275429924030926"	46803
1	0	"Chromosome"	"S38_LN:i:26646_dp:f:1.3439006979680976"	26646
1	0	"Chromosome"	"S41_LN:i:22481_dp:f:1.0780806800351757"	22481
1	0	"Chromosome"	"S44_LN:i:18183_dp:f:0.7716211691775121"	18183
1	0	"Chromosome"	"S40_LN:i:23087_dp:f:0.905395537400772"	23087
1	0	"Chromosome"	"S42_LN:i:22297_dp:f:0.7237001421980387"	22297
0	1	"Plasmid"	"S39_LN:i:25568_dp:f:0.9554855903185049"	25568
1	0	"Chromosome"	"S45_LN:i:17871_dp:f:0.9636360456901292"	17871
0	1	"Plasmid"	"S43_LN:i:21720_dp:f:0.8870019008561347"	21720
1	0	"Chromosome"	"S49_LN:i:14217_dp:f:1.0947671507901637"	14217
1	0	"Chromosome"	"S48_LN:i:14576_dp:f:1.2237410840473517"	14576
0	1	"Plasmid"	"S46_LN:i:17327_dp:f:0.8757144844915745"	17327
1	0	"Chromosome"	"S47_LN:i:14819_dp:f:1.2733329048601654"	14819
0	1	"Plasmid"	"S50_LN:i:14094_dp:f:0.6175153104211328"	14094
1	0	"Chromosome"	"S53_LN:i:13150_dp:f:1.2475212717551585"	13150
1	0	"Chromosome"	"S52_LN:i:13639_dp:f:1.31650640234698"	13639
1	0	"Chromosome"	"S51_LN:i:13854_dp:f:0.7816937251859379"	13854
0	1	"Plasmid"	"S55_LN:i:12125_dp:f:0.8490273547261891"	12125
1	0	"Chromosome"	"S58_LN:i:10522_dp:f:0.6386607537369478"	10522
0	1	"Plasmid"	"S57_LN:i:11012_dp:f:0.8477073285509585"	11012
1	0	"Chromosome"	"S56_LN:i:11276_dp:f:0.7420900087588398"	11276
1	0	"Chromosome"	"S54_LN:i:12448_dp:f:1.123713876732364"	12448
1	0	"Chromosome"	"S60_LN:i:10180_dp:f:0.5796594135518458"	10180
1	0	"Chromosome"	"S61_LN:i:9985_dp:f:1.0474076313118539"	9985
0	1	"Plasmid"	"S59_LN:i:10391_dp:f:0.6668515828171729"	10391
1	0	"Chromosome"	"S63_LN:i:9098_dp:f:1.3647558445092807"	9098
1	0	"Chromosome"	"S66_LN:i:7958_dp:f:1.2406788894410932"	7958
1	0	"Chromosome"	"S65_LN:i:8495_dp:f:0.7163658251263538"	8495
1	0	"Chromosome"	"S67_LN:i:7125_dp:f:1.0454142542863782"	7125
0	1	"Plasmid"	"S64_LN:i:8771_dp:f:0.7174129521296762"	8771
1	0	"Chromosome"	"S69_LN:i:5789_dp:f:1.1852299229665229"	5789
1	0	"Chromosome"	"S62_LN:i:9581_dp:f:1.196991855134538"	9581
0	1	"Plasmid"	"S73_LN:i:5030_dp:f:0.9785685179412902"	5030
1	0	"Chromosome"	"S70_LN:i:5653_dp:f:1.411587742420942"	5653
0	1	"Plasmid"	"S68_LN:i:6619_dp:f:0.7608278130853804"	6619
0	1	"Plasmid"	"S74_LN:i:4997_dp:f:0.9058510053293334"	4997
1	0	"Chromosome"	"S71_LN:i:5540_dp:f:1.2394221052232122"	5540
1	0	"Chromosome"	"S72_LN:i:5045_dp:f:0.8817737239049056"	5045
1	0	"Chromosome"	"S76_LN:i:4472_dp:f:0.8553106068532746"	4472
1	0	"Chromosome"	"S78_LN:i:3835_dp:f:0.7296571944118032"	3835
0.5	0.5	"Plasmid"	"S75_LN:i:4831_dp:f:0.7640322951779439"	4831
1	0	"Chromosome"	"S77_LN:i:4235_dp:f:1.3877891289045439"	4235
1	0	"Chromosome"	"S81_LN:i:3131_dp:f:0.9273193467309924"	3131
1	0	"Chromosome"	"S80_LN:i:3253_dp:f:0.9041357824157682"	3253
1	0	"Chromosome"	"S83_LN:i:2781_dp:f:1.4941224229733565"	2781
0.5	0.5	"Plasmid"	"S79_LN:i:3675_dp:f:0.9054279288023831"	3675
1	0	"Chromosome"	"S84_LN:i:2608_dp:f:0.657757653000238"	2608
1	0	"Chromosome"	"S86_LN:i:2523_dp:f:1.6465277697043"	2523
1	0	"Chromosome"	"S85_LN:i:2570_dp:f:0.5822884547173689"	2570
1	0	"Chromosome"	"S82_LN:i:3128_dp:f:9.202914802058922"	3128
1	0	"Chromosome"	"S88_LN:i:2464_dp:f:2.716920061749857"	2464
1	0	"Chromosome"	"S87_LN:i:2522_dp:f:1.0517104963276704"	2522
1	0	"Chromosome"	"S89_LN:i:2430_dp:f:1.344981880922627"	2430
1	0	"Chromosome"	"S90_LN:i:2361_dp:f:2.729236691137164"	2361
1	0	"Chromosome"	"S91_LN:i:2355_dp:f:1.1358125506681085"	2355
0.5	0.5	"Plasmid"	"S95_LN:i:2249_dp:f:2.8372445402391504"	2249
1	0	"Chromosome"	"S92_LN:i:2351_dp:f:0.6756930091047122"	2351
0.5	0.5	"Plasmid"	"S94_LN:i:2306_dp:f:7.834495365726343"	2306
0.5	0.5	"Plasmid"	"S96_LN:i:2117_dp:f:3.549249883138696"	2117
0	1	"Plasmid"	"S98_LN:i:2005_dp:f:0.8669240695350509"	2005
1	0	"Chromosome"	"S93_LN:i:2334_dp:f:0.6817440963745832"	2334
0	1	"Plasmid"	"S101_LN:i:1882_dp:f:0.6576278570148479"	1882
0.5	0.5	"Plasmid"	"S100_LN:i:1913_dp:f:2.02582018794471"	1913
1	0	"Chromosome"	"S102_LN:i:1810_dp:f:1.5537258191423533"	1810
0.5	0.5	"Plasmid"	"S99_LN:i:1916_dp:f:0.7810020992991684"	1916
1	0	"Chromosome"	"S103_LN:i:1732_dp:f:9.269257803311659"	1732
1	0	"Chromosome"	"S104_LN:i:1721_dp:f:2.4523984224290643"	1721
0.5	0.5	"Plasmid"	"S97_LN:i:2058_dp:f:1.6227261583380914"	2058
1	0	"Chromosome"	"S106_LN:i:1662_dp:f:1.8150007140000828"	1662
1	0	"Chromosome"	"S108_LN:i:1614_dp:f:2.390727094837125"	1614
1	0	"Chromosome"	"S109_LN:i:1570_dp:f:0.8031809233801502"	1570
0	1	"Plasmid"	"S105_LN:i:1695_dp:f:1.9058319073439203"	1695
1	0	"Chromosome"	"S107_LN:i:1649_dp:f:0.9492119513897479"	1649
0	1	"Plasmid"	"S110_LN:i:1558_dp:f:0.8555541250494079"	1558
0	1	"Plasmid"	"S111_LN:i:1555_dp:f:1.0126578724376885"	1555
1	0	"Chromosome"	"S112_LN:i:1490_dp:f:0.8633229430172495"	1490
1	0	"Chromosome"	"S115_LN:i:1369_dp:f:3.863141721741189"	1369
0.5	0.5	"Plasmid"	"S113_LN:i:1443_dp:f:2.645593025509728"	1443
1	0	"Chromosome"	"S114_LN:i:1369_dp:f:8.670168813309926"	1369
1	0	"Chromosome"	"S117_LN:i:1226_dp:f:0.3260777324907474"	1226
1	0	"Chromosome"	"S116_LN:i:1300_dp:f:2.1971640487029216"	1300
1	0	"Chromosome"	"S120_LN:i:1150_dp:f:1.4519294417294406"	1150
1	0	"Chromosome"	"S119_LN:i:1198_dp:f:2.13319702622073"	1198
1	0	"Chromosome"	"S118_LN:i:1206_dp:f:2.4587125521945756"	1206
1	0	"Chromosome"	"S123_LN:i:1094_dp:f:1.5597559574770359"	1094
1	0	"Chromosome"	"S121_LN:i:1145_dp:f:0.9754413972325522"	1145
1	0	"Chromosome"	"S122_LN:i:1114_dp:f:1.4546612872079774"	1114
1	0	"Chromosome"	"S124_LN:i:1035_dp:f:2.0767848777341578"	1035
