"Prob_Chromosome"	"Prob_Plasmid"	"Prediction"	"Contig_name"	"Contig_length"
1	0	"Chromosome"	"S8_LN:i:138539_dp:f:1.0460259826565255"	138539
1	0	"Chromosome"	"S7_LN:i:147435_dp:f:1.0611457019187869"	147435
1	0	"Chromosome"	"S6_LN:i:204574_dp:f:1.0148983593755156"	204574
1	0	"Chromosome"	"S5_LN:i:225669_dp:f:1.0344551076379187"	225669
1	0	"Chromosome"	"S4_LN:i:248924_dp:f:1.0"	248924
1	0	"Chromosome"	"S9_LN:i:132239_dp:f:1.009699348191459"	132239
1	0	"Chromosome"	"S3_LN:i:294244_dp:f:1.0449154983764346"	294244
1	0	"Chromosome"	"S10_LN:i:125911_dp:f:0.9248422730542489"	125911
1	0	"Chromosome"	"S11_LN:i:123539_dp:f:1.0539572708171132"	123539
1	0	"Chromosome"	"S13_LN:i:111995_dp:f:0.9241505649660667"	111995
1	0	"Chromosome"	"S12_LN:i:119116_dp:f:0.9892096300496411"	119116
1	0	"Chromosome"	"S15_LN:i:99842_dp:f:1.0146081108979226"	99842
1	0	"Chromosome"	"S14_LN:i:105357_dp:f:1.007145010447836"	105357
1	0	"Chromosome"	"S16_LN:i:96837_dp:f:1.016275891555271"	96837
1	0	"Chromosome"	"S17_LN:i:95538_dp:f:0.9290059115897162"	95538
1	0	"Chromosome"	"S20_LN:i:80931_dp:f:1.0541292806799607"	80931
1	0	"Chromosome"	"S18_LN:i:92022_dp:f:1.011179714250017"	92022
1	0	"Chromosome"	"S19_LN:i:88137_dp:f:1.0763562219264917"	88137
1	0	"Chromosome"	"S21_LN:i:78154_dp:f:1.01747868131128"	78154
1	0	"Chromosome"	"S2_LN:i:450563_dp:f:0.9806066145673633"	450563
1	0	"Chromosome"	"S22_LN:i:77829_dp:f:0.9441376639853366"	77829
1	0	"Chromosome"	"S24_LN:i:63581_dp:f:1.052974274270729"	63581
1	0	"Chromosome"	"S25_LN:i:60791_dp:f:0.9189610936577843"	60791
1	0	"Chromosome"	"S26_LN:i:59658_dp:f:1.0273784626012186"	59658
1	0	"Chromosome"	"S27_LN:i:53293_dp:f:1.0570204298954786"	53293
1	0	"Chromosome"	"S23_LN:i:67092_dp:f:0.8847315378686966"	67092
1	0	"Chromosome"	"S29_LN:i:41668_dp:f:1.0020614475867315"	41668
1	0	"Chromosome"	"S30_LN:i:41169_dp:f:1.01882685769631"	41169
1	0	"Chromosome"	"S31_LN:i:39529_dp:f:0.9814603744895687"	39529
1	0	"Chromosome"	"S32_LN:i:37754_dp:f:0.938999859465041"	37754
0	1	"Plasmid"	"S28_LN:i:52509_dp:f:1.0752224899273015"	52509
1	0	"Chromosome"	"S33_LN:i:34610_dp:f:1.0221949142841833"	34610
1	0	"Chromosome"	"S34_LN:i:30883_dp:f:1.0974964026505716"	30883
0	1	"Plasmid"	"S40_LN:i:10797_dp:f:1.112356334120651"	10797
1	0	"Chromosome"	"S38_LN:i:15862_dp:f:0.9134894477130806"	15862
1	0	"Chromosome"	"S39_LN:i:13717_dp:f:1.0437934585664086"	13717
0	1	"Plasmid"	"S37_LN:i:24551_dp:f:1.0707549436755528"	24551
1	0	"Chromosome"	"S41_LN:i:10521_dp:f:1.0072905125386462"	10521
1	0	"Chromosome"	"S35_LN:i:26558_dp:f:0.9369378973232524"	26558
1	0	"Chromosome"	"S45_LN:i:5585_dp:f:1.0051004822672998"	5585
1	0	"Chromosome"	"S46_LN:i:4113_dp:f:0.9833063850352205"	4113
1	0	"Chromosome"	"S43_LN:i:7536_dp:f:0.9406955484027798"	7536
1	0	"Chromosome"	"S44_LN:i:6146_dp:f:0.99305793167345"	6146
1	0	"Chromosome"	"S42_LN:i:8616_dp:f:0.9578325905005918"	8616
1	0	"Chromosome"	"S48_LN:i:3710_dp:f:1.0050601392984535"	3710
1	0	"Chromosome"	"S51_LN:i:2936_dp:f:7.480139192529678"	2936
1	0	"Chromosome"	"S52_LN:i:2716_dp:f:0.7350933626545686"	2716
1	0	"Chromosome"	"S50_LN:i:3065_dp:f:0.9627104856040912"	3065
1	0	"Chromosome"	"S49_LN:i:3339_dp:f:0.8097872649829432"	3339
0.5	0.5	"Plasmid"	"S47_LN:i:4078_dp:f:1.1195451140087989"	4078
1	0	"Chromosome"	"S57_LN:i:1385_dp:f:0.8514986394295648"	1385
1	0	"Chromosome"	"S54_LN:i:1732_dp:f:7.443458307269007"	1732
1	0	"Chromosome"	"S56_LN:i:1413_dp:f:3.360301843800006"	1413
1	0	"Chromosome"	"S36_LN:i:26161_dp:f:1.0080889429091127"	26161
1	0	"Chromosome"	"S53_LN:i:1755_dp:f:0.8600125753952624"	1755
0.5	0.5	"Plasmid"	"S58_LN:i:1343_dp:f:3.949662625916103"	1343
1	0	"Chromosome"	"S61_LN:i:1042_dp:f:1.9419239194959437"	1042
0.5	0.5	"Plasmid"	"S55_LN:i:1444_dp:f:2.0378982147110167"	1444
1	0	"Chromosome"	"S63_LN:i:1005_dp:f:1.0102072394289372"	1005
0.5	0.5	"Plasmid"	"S60_LN:i:1073_dp:f:4.364378812158838"	1073
1	0	"Chromosome"	"S59_LN:i:1133_dp:f:2.0263246075316954"	1133
1	0	"Chromosome"	"S62_LN:i:1031_dp:f:2.0740062763189333"	1031
1	0	"Chromosome"	"S64_LN:i:1005_dp:f:1.0412755108782583"	1005
1	0	"Chromosome"	"S1_LN:i:700791_dp:f:0.962936549581956"	700791
