"Prob_Chromosome"	"Prob_Plasmid"	"Prediction"	"Contig_name"	"Contig_length"
1	0	"Chromosome"	"S1_LN:i:260601_dp:f:0.972545336318128"	260601
1	0	"Chromosome"	"S5_LN:i:158672_dp:f:1.0"	158672
1	0	"Chromosome"	"S4_LN:i:165522_dp:f:1.0358537198447846"	165522
1	0	"Chromosome"	"S6_LN:i:141816_dp:f:0.9700891029708283"	141816
1	0	"Chromosome"	"S3_LN:i:168383_dp:f:1.0073838326920548"	168383
1	0	"Chromosome"	"S9_LN:i:130484_dp:f:1.0236919673005842"	130484
1	0	"Chromosome"	"S7_LN:i:135176_dp:f:1.014782306062521"	135176
1	0	"Chromosome"	"S11_LN:i:97813_dp:f:1.0150830702256288"	97813
1	0	"Chromosome"	"S2_LN:i:260462_dp:f:0.9885779048969187"	260462
1	0	"Chromosome"	"S12_LN:i:95379_dp:f:1.027265217122977"	95379
1	0	"Chromosome"	"S10_LN:i:125620_dp:f:0.9185543686778709"	125620
1	0	"Chromosome"	"S8_LN:i:131178_dp:f:1.0278095508168532"	131178
1	0	"Chromosome"	"S14_LN:i:89865_dp:f:1.0355374743182726"	89865
1	0	"Chromosome"	"S16_LN:i:85047_dp:f:1.049514975606609"	85047
1	0	"Chromosome"	"S17_LN:i:83646_dp:f:1.0074471957939424"	83646
1	0	"Chromosome"	"S15_LN:i:87426_dp:f:1.036099226486956"	87426
1	0	"Chromosome"	"S21_LN:i:67341_dp:f:0.964169817216158"	67341
1	0	"Chromosome"	"S18_LN:i:80948_dp:f:1.0505414198583247"	80948
1	0	"Chromosome"	"S13_LN:i:91639_dp:f:0.9670223917641011"	91639
1	0	"Chromosome"	"S19_LN:i:73854_dp:f:1.0155925367911547"	73854
1	0	"Chromosome"	"S25_LN:i:62864_dp:f:0.9300277449800681"	62864
1	0	"Chromosome"	"S23_LN:i:65506_dp:f:0.95908898941803"	65506
1	0	"Chromosome"	"S22_LN:i:66025_dp:f:0.9805539764103685"	66025
1	0	"Chromosome"	"S24_LN:i:64811_dp:f:0.9119750557685382"	64811
1	0	"Chromosome"	"S26_LN:i:60393_dp:f:0.9358570553565645"	60393
1	0	"Chromosome"	"S28_LN:i:59239_dp:f:0.9424600225573067"	59239
1	0	"Chromosome"	"S29_LN:i:54340_dp:f:0.9306075126124812"	54340
1	0	"Chromosome"	"S20_LN:i:69797_dp:f:1.0119973694884068"	69797
1	0	"Chromosome"	"S33_LN:i:45803_dp:f:1.040269282571671"	45803
1	0	"Chromosome"	"S30_LN:i:53604_dp:f:1.0101711441950254"	53604
1	0	"Chromosome"	"S34_LN:i:44425_dp:f:1.0462204742970755"	44425
1	0	"Chromosome"	"S31_LN:i:52595_dp:f:0.9364577223629135"	52595
1	0	"Chromosome"	"S35_LN:i:41172_dp:f:1.0143933877130047"	41172
1	0	"Chromosome"	"S36_LN:i:37606_dp:f:0.9379165936607942"	37606
1	0	"Chromosome"	"S32_LN:i:50241_dp:f:1.0806322232974768"	50241
1	0	"Chromosome"	"S41_LN:i:32447_dp:f:1.050559469317633"	32447
1	0	"Chromosome"	"S27_LN:i:60068_dp:f:1.030982360771787"	60068
1	0	"Chromosome"	"S39_LN:i:35279_dp:f:0.9789556062606374"	35279
1	0	"Chromosome"	"S37_LN:i:37177_dp:f:0.9262854046374858"	37177
1	0	"Chromosome"	"S38_LN:i:36004_dp:f:0.9718079684068073"	36004
1	0	"Chromosome"	"S40_LN:i:33658_dp:f:1.0466447101195306"	33658
1	0	"Chromosome"	"S42_LN:i:32425_dp:f:0.9328635628338048"	32425
1	0	"Chromosome"	"S44_LN:i:30201_dp:f:0.9522537541751366"	30201
1	0	"Chromosome"	"S47_LN:i:29072_dp:f:1.0337793619844913"	29072
1	0	"Chromosome"	"S46_LN:i:29463_dp:f:1.0195081294952013"	29463
1	0	"Chromosome"	"S48_LN:i:29057_dp:f:0.951208361368524"	29057
1	0	"Chromosome"	"S43_LN:i:32205_dp:f:0.9831808377198037"	32205
1	0	"Chromosome"	"S49_LN:i:27873_dp:f:0.96424533995379"	27873
1	0	"Chromosome"	"S51_LN:i:25009_dp:f:0.9716032495393897"	25009
1	0	"Chromosome"	"S50_LN:i:25109_dp:f:0.9185404990933498"	25109
1	0	"Chromosome"	"S52_LN:i:24289_dp:f:0.9633924555028964"	24289
1	0	"Chromosome"	"S53_LN:i:23297_dp:f:0.9049532461146896"	23297
1	0	"Chromosome"	"S57_LN:i:20352_dp:f:1.0461033428058801"	20352
1	0	"Chromosome"	"S54_LN:i:23054_dp:f:0.9451563267865017"	23054
1	0	"Chromosome"	"S56_LN:i:20818_dp:f:0.9619730080240311"	20818
1	0	"Chromosome"	"S61_LN:i:16405_dp:f:1.0152224278781805"	16405
0	1	"Plasmid"	"S59_LN:i:17644_dp:f:5.38877081396099"	17644
1	0	"Chromosome"	"S58_LN:i:20117_dp:f:0.9548896402142261"	20117
1	0	"Chromosome"	"S60_LN:i:16463_dp:f:0.9978451684333973"	16463
1	0	"Chromosome"	"S62_LN:i:16047_dp:f:1.0335963024682437"	16047
1	0	"Chromosome"	"S45_LN:i:29792_dp:f:1.0743070479323897"	29792
1	0	"Chromosome"	"S63_LN:i:16025_dp:f:0.941071829142191"	16025
1	0	"Chromosome"	"S64_LN:i:15927_dp:f:1.0099292814402945"	15927
1	0	"Chromosome"	"S67_LN:i:14182_dp:f:0.8596754174626217"	14182
1	0	"Chromosome"	"S65_LN:i:15390_dp:f:0.8821972477960375"	15390
1	0	"Chromosome"	"S66_LN:i:15368_dp:f:0.9765834753511627"	15368
1	0	"Chromosome"	"S68_LN:i:14167_dp:f:0.9845748259613288"	14167
1	0	"Chromosome"	"S70_LN:i:14024_dp:f:0.9515293058767946"	14024
1	0	"Chromosome"	"S71_LN:i:13461_dp:f:1.0238193853467168"	13461
1	0	"Chromosome"	"S55_LN:i:22654_dp:f:0.9221008974376406"	22654
1	0	"Chromosome"	"S74_LN:i:9708_dp:f:0.9965571970160197"	9708
1	0	"Chromosome"	"S72_LN:i:12369_dp:f:0.979001437918393"	12369
1	0	"Chromosome"	"S75_LN:i:9526_dp:f:0.9338876693517221"	9526
1	0	"Chromosome"	"S73_LN:i:12346_dp:f:0.9341132875930758"	12346
1	0	"Chromosome"	"S76_LN:i:9154_dp:f:0.8829578595138448"	9154
1	0	"Chromosome"	"S78_LN:i:8530_dp:f:1.0138150450379053"	8530
1	0	"Chromosome"	"S80_LN:i:7601_dp:f:0.9734625338424515"	7601
1	0	"Chromosome"	"S77_LN:i:8828_dp:f:1.0132853409057845"	8828
0	1	"Plasmid"	"S79_LN:i:8109_dp:f:5.7723175618711435"	8109
0	1	"Plasmid"	"S82_LN:i:7101_dp:f:8.256758219584821"	7101
0	1	"Plasmid"	"S81_LN:i:7430_dp:f:40.96407085840792"	7430
1	0	"Chromosome"	"S83_LN:i:6923_dp:f:1.0122333424195742"	6923
0	1	"Plasmid"	"S86_LN:i:4891_dp:f:5.596729508716081"	4891
1	0	"Chromosome"	"S84_LN:i:6172_dp:f:0.8578252528863682"	6172
1	0	"Chromosome"	"S87_LN:i:4689_dp:f:0.9493595708736301"	4689
1	0	"Chromosome"	"S85_LN:i:5769_dp:f:1.0055748262063733"	5769
1	0	"Chromosome"	"S88_LN:i:4285_dp:f:0.9721756073937708"	4285
1	0	"Chromosome"	"S89_LN:i:4217_dp:f:0.9934663696052072"	4217
1	0	"Chromosome"	"S90_LN:i:4198_dp:f:0.968686171923708"	4198
0	1	"Plasmid"	"S91_LN:i:3858_dp:f:8.50182817324062"	3858
0	1	"Plasmid"	"S69_LN:i:14051_dp:f:8.510482318996017"	14051
1	0	"Chromosome"	"S95_LN:i:3155_dp:f:2.848314590554903"	3155
1	0	"Chromosome"	"S94_LN:i:3517_dp:f:1.002463835076079"	3517
1	0	"Chromosome"	"S96_LN:i:3111_dp:f:8.450052634234723"	3111
0	1	"Plasmid"	"S98_LN:i:2715_dp:f:8.40339601688581"	2715
1	0	"Chromosome"	"S93_LN:i:3620_dp:f:0.9359438827555528"	3620
1	0	"Chromosome"	"S97_LN:i:2862_dp:f:7.207661611445549"	2862
1	0	"Chromosome"	"S99_LN:i:2656_dp:f:1.0602775832006766"	2656
0	1	"Plasmid"	"S101_LN:i:2460_dp:f:92.46459186986858"	2460
0	1	"Plasmid"	"S104_LN:i:1902_dp:f:4.8864835539472224"	1902
0	1	"Plasmid"	"S103_LN:i:2158_dp:f:4.626729433252322"	2158
0.5	0.5	"Plasmid"	"S100_LN:i:2532_dp:f:2.044986545143812"	2532
1	0	"Chromosome"	"S105_LN:i:1800_dp:f:0.9749655788170605"	1800
1	0	"Chromosome"	"S102_LN:i:2427_dp:f:0.9371290672520275"	2427
1	0	"Chromosome"	"S106_LN:i:1738_dp:f:1.0718696109485373"	1738
1	0	"Chromosome"	"S112_LN:i:1458_dp:f:0.9573482615634772"	1458
1	0	"Chromosome"	"S109_LN:i:1509_dp:f:9.010363234504833"	1509
1	0	"Chromosome"	"S110_LN:i:1495_dp:f:1.0206044916524484"	1495
0	1	"Plasmid"	"S107_LN:i:1552_dp:f:57.11201982065277"	1552
1	0	"Chromosome"	"S111_LN:i:1472_dp:f:6.6909779792808814"	1472
0	1	"Plasmid"	"S113_LN:i:1353_dp:f:8.581003076467958"	1353
0.5	0.5	"Plasmid"	"S108_LN:i:1551_dp:f:19.820382388306403"	1551
1	0	"Chromosome"	"S117_LN:i:1143_dp:f:1.1583499853323251"	1143
0.5	0.5	"Plasmid"	"S114_LN:i:1343_dp:f:2.9355370827077247"	1343
1	0	"Chromosome"	"S115_LN:i:1232_dp:f:0.9047481472586549"	1232
0.5	0.5	"Plasmid"	"S92_LN:i:3701_dp:f:5.377265752998022"	3701
0	1	"Plasmid"	"S121_LN:i:1040_dp:f:8.020218155406656"	1040
0.5	0.5	"Plasmid"	"S116_LN:i:1213_dp:f:10.809993884558542"	1213
1	0	"Chromosome"	"S120_LN:i:1071_dp:f:12.931185721887708"	1071
0.5	0.5	"Plasmid"	"S118_LN:i:1128_dp:f:5.823866469574708"	1128
0.5	0.5	"Plasmid"	"S119_LN:i:1086_dp:f:10.695748406909434"	1086
1	0	"Chromosome"	"S122_LN:i:1031_dp:f:2.1569818252001007"	1031
