"Prob_Chromosome"	"Prob_Plasmid"	"Prediction"	"Contig_name"	"Contig_length"
1	0	"Chromosome"	"S2_LN:i:239236_dp:f:1.0"	239236
1	0	"Chromosome"	"S4_LN:i:225953_dp:f:1.0450058429156082"	225953
1	0	"Chromosome"	"S8_LN:i:178532_dp:f:1.0325849554315432"	178532
1	0	"Chromosome"	"S5_LN:i:212355_dp:f:0.9509852982955591"	212355
1	0	"Chromosome"	"S6_LN:i:205829_dp:f:0.8968531809543467"	205829
1	0	"Chromosome"	"S7_LN:i:199296_dp:f:1.0306763514769364"	199296
1	0	"Chromosome"	"S3_LN:i:236390_dp:f:0.9768045002705676"	236390
1	0	"Chromosome"	"S1_LN:i:288251_dp:f:1.0301668440175908"	288251
1	0	"Chromosome"	"S10_LN:i:128324_dp:f:1.0465024734828923"	128324
0	1	"Plasmid"	"S15_LN:i:90917_dp:f:0.7244137039111239"	90917
1	0	"Chromosome"	"S14_LN:i:95601_dp:f:0.8957033745033478"	95601
1	0	"Chromosome"	"S9_LN:i:159521_dp:f:0.9591481783447982"	159521
1	0	"Chromosome"	"S11_LN:i:123584_dp:f:0.8959278181811857"	123584
1	0	"Chromosome"	"S13_LN:i:104444_dp:f:0.928198408270964"	104444
1	0	"Chromosome"	"S12_LN:i:107014_dp:f:0.9596014159248081"	107014
1	0	"Chromosome"	"S16_LN:i:90353_dp:f:0.9371993236961338"	90353
1	0	"Chromosome"	"S17_LN:i:89501_dp:f:0.9858884818973705"	89501
1	0	"Chromosome"	"S19_LN:i:87476_dp:f:1.049081389433789"	87476
1	0	"Chromosome"	"S20_LN:i:86698_dp:f:1.0107247590417598"	86698
1	0	"Chromosome"	"S22_LN:i:84806_dp:f:1.0140414678636391"	84806
1	0	"Chromosome"	"S18_LN:i:88701_dp:f:0.8841965906264397"	88701
1	0	"Chromosome"	"S21_LN:i:86578_dp:f:1.088078763976705"	86578
1	0	"Chromosome"	"S23_LN:i:83383_dp:f:0.9471305938468042"	83383
1	0	"Chromosome"	"S24_LN:i:82191_dp:f:1.0184760812700646"	82191
1	0	"Chromosome"	"S25_LN:i:81538_dp:f:1.0608576170244206"	81538
1	0	"Chromosome"	"S26_LN:i:72359_dp:f:0.815599706546874"	72359
1	0	"Chromosome"	"S30_LN:i:62959_dp:f:0.9129860957904664"	62959
1	0	"Chromosome"	"S27_LN:i:68787_dp:f:1.0657026062109825"	68787
1	0	"Chromosome"	"S31_LN:i:53378_dp:f:1.0265566499628085"	53378
1	0	"Chromosome"	"S29_LN:i:66399_dp:f:1.0521238233668453"	66399
1	0	"Chromosome"	"S28_LN:i:68734_dp:f:0.9067361046868153"	68734
0	1	"Plasmid"	"S33_LN:i:50339_dp:f:0.6773802123922437"	50339
1	0	"Chromosome"	"S32_LN:i:52258_dp:f:1.0462485887403128"	52258
0	1	"Plasmid"	"S36_LN:i:46016_dp:f:0.6969008148145418"	46016
1	0	"Chromosome"	"S38_LN:i:41169_dp:f:0.9970749976674395"	41169
1	0	"Chromosome"	"S39_LN:i:40981_dp:f:1.0602752144073382"	40981
1	0	"Chromosome"	"S34_LN:i:49930_dp:f:0.9246600328746836"	49930
1	0	"Chromosome"	"S37_LN:i:44141_dp:f:1.0232195341721335"	44141
1	0	"Chromosome"	"S35_LN:i:47367_dp:f:1.0408000178591141"	47367
1	0	"Chromosome"	"S41_LN:i:37621_dp:f:0.8910385774916249"	37621
1	0	"Chromosome"	"S40_LN:i:40107_dp:f:1.031283875241055"	40107
1	0	"Chromosome"	"S43_LN:i:32511_dp:f:1.0576710244636838"	32511
1	0	"Chromosome"	"S42_LN:i:35736_dp:f:0.9109818272506742"	35736
1	0	"Chromosome"	"S45_LN:i:31017_dp:f:1.0576078394817896"	31017
1	0	"Chromosome"	"S44_LN:i:32232_dp:f:0.9186099057407761"	32232
1	0	"Chromosome"	"S47_LN:i:29915_dp:f:0.7274503335150339"	29915
1	0	"Chromosome"	"S46_LN:i:30856_dp:f:1.1371450946900705"	30856
1	0	"Chromosome"	"S50_LN:i:24177_dp:f:1.0065738799977613"	24177
1	0	"Chromosome"	"S53_LN:i:19725_dp:f:0.9447674755239652"	19725
1	0	"Chromosome"	"S49_LN:i:27008_dp:f:1.0091483047513388"	27008
1	0	"Chromosome"	"S51_LN:i:22357_dp:f:0.9317015669631961"	22357
1	0	"Chromosome"	"S54_LN:i:17671_dp:f:1.0034431291115837"	17671
1	0	"Chromosome"	"S52_LN:i:21123_dp:f:0.871927167926264"	21123
1	0	"Chromosome"	"S48_LN:i:27418_dp:f:0.7991188090736243"	27418
1	0	"Chromosome"	"S55_LN:i:16550_dp:f:0.67211313872036"	16550
1	0	"Chromosome"	"S56_LN:i:15159_dp:f:0.9562343388757203"	15159
1	0	"Chromosome"	"S58_LN:i:14423_dp:f:0.932769065760067"	14423
1	0	"Chromosome"	"S61_LN:i:10208_dp:f:1.0730062177104376"	10208
1	0	"Chromosome"	"S60_LN:i:13659_dp:f:0.8971566449928234"	13659
1	0	"Chromosome"	"S57_LN:i:15003_dp:f:0.7650759476877664"	15003
1	0	"Chromosome"	"S59_LN:i:13983_dp:f:1.048996012653376"	13983
1	0	"Chromosome"	"S62_LN:i:8880_dp:f:0.9958839937822455"	8880
0	1	"Plasmid"	"S64_LN:i:8065_dp:f:1.0975422010732816"	8065
0	1	"Plasmid"	"S65_LN:i:7044_dp:f:0.7288210550037743"	7044
0	1	"Plasmid"	"S69_LN:i:5569_dp:f:7.88400663939864"	5569
1	0	"Chromosome"	"S63_LN:i:8163_dp:f:0.9772450845936828"	8163
0	1	"Plasmid"	"S67_LN:i:6084_dp:f:0.92830389096641"	6084
1	0	"Chromosome"	"S70_LN:i:5404_dp:f:0.753512919875763"	5404
0.5	0.5	"Plasmid"	"S71_LN:i:5368_dp:f:0.8445666177316961"	5368
1	0	"Chromosome"	"S66_LN:i:6169_dp:f:0.887272935721857"	6169
1	0	"Chromosome"	"S68_LN:i:5652_dp:f:1.1377876881575009"	5652
1	0	"Chromosome"	"S74_LN:i:3252_dp:f:0.9527817529521807"	3252
0.5	0.5	"Plasmid"	"S72_LN:i:4386_dp:f:0.8842961895316971"	4386
0	1	"Plasmid"	"S77_LN:i:2445_dp:f:0.9223633578533627"	2445
1	0	"Chromosome"	"S75_LN:i:3065_dp:f:0.9534878396209289"	3065
1	0	"Chromosome"	"S78_LN:i:2302_dp:f:0.671754679530395"	2302
1	0	"Chromosome"	"S79_LN:i:1996_dp:f:0.8204860505832986"	1996
1	0	"Chromosome"	"S73_LN:i:4366_dp:f:0.9490221364511165"	4366
1	0	"Chromosome"	"S81_LN:i:1802_dp:f:1.0164187606470547"	1802
1	0	"Chromosome"	"S76_LN:i:2939_dp:f:7.329496735361877"	2939
1	0	"Chromosome"	"S82_LN:i:1714_dp:f:1.0668453077093207"	1714
0.5	0.5	"Plasmid"	"S85_LN:i:1443_dp:f:1.879328793202511"	1443
1	0	"Chromosome"	"S83_LN:i:1643_dp:f:0.709131172154506"	1643
0.5	0.5	"Plasmid"	"S87_LN:i:1343_dp:f:4.850219361965538"	1343
1	0	"Chromosome"	"S86_LN:i:1428_dp:f:1.1274006935729601"	1428
0	1	"Plasmid"	"S84_LN:i:1560_dp:f:0.8936848614023111"	1560
1	0	"Chromosome"	"S80_LN:i:1917_dp:f:0.6984379395566739"	1917
1	0	"Chromosome"	"S88_LN:i:1333_dp:f:3.092526634451279"	1333
1	0	"Chromosome"	"S89_LN:i:1308_dp:f:2.0630978438598264"	1308
1	0	"Chromosome"	"S93_LN:i:1092_dp:f:2.3379958419438465"	1092
0.5	0.5	"Plasmid"	"S90_LN:i:1283_dp:f:7.764257537054689"	1283
1	0	"Chromosome"	"S91_LN:i:1229_dp:f:9.46633990711059"	1229
1	0	"Chromosome"	"S92_LN:i:1133_dp:f:2.0611134391462356"	1133
1	0	"Chromosome"	"S98_LN:i:1024_dp:f:1.1789765908668508"	1024
0.5	0.5	"Plasmid"	"S95_LN:i:1047_dp:f:1.082315280907"	1047
0.5	0.5	"Plasmid"	"S96_LN:i:1040_dp:f:0.7546504697065878"	1040
1	0	"Chromosome"	"S97_LN:i:1031_dp:f:2.015554337257128"	1031
0.5	0.5	"Plasmid"	"S94_LN:i:1084_dp:f:1.809564119172952"	1084
