"Prob_Chromosome"	"Prob_Plasmid"	"Prediction"	"Contig_name"	"Contig_length"
1	0	"Chromosome"	"S5_LN:i:239504_dp:f:1.0074460732983537"	239504
1	0	"Chromosome"	"S4_LN:i:244971_dp:f:0.9957789298328279"	244971
1	0	"Chromosome"	"S3_LN:i:334749_dp:f:1.0"	334749
1	0	"Chromosome"	"S7_LN:i:216166_dp:f:1.0087865944950358"	216166
1	0	"Chromosome"	"S8_LN:i:187201_dp:f:1.00438434038708"	187201
1	0	"Chromosome"	"S6_LN:i:235838_dp:f:0.9859857274424759"	235838
1	0	"Chromosome"	"S2_LN:i:394188_dp:f:1.0051852604562863"	394188
1	0	"Chromosome"	"S11_LN:i:157955_dp:f:0.9972333175734491"	157955
1	0	"Chromosome"	"S10_LN:i:160512_dp:f:0.9909813851399414"	160512
1	0	"Chromosome"	"S9_LN:i:177053_dp:f:1.0050241705579313"	177053
1	0	"Chromosome"	"S16_LN:i:111267_dp:f:1.0135897517332808"	111267
1	0	"Chromosome"	"S12_LN:i:148516_dp:f:0.9984290358990463"	148516
1	0	"Chromosome"	"S15_LN:i:118867_dp:f:0.9865080409145356"	118867
1	0	"Chromosome"	"S17_LN:i:106753_dp:f:0.9738847756084366"	106753
1	0	"Chromosome"	"S13_LN:i:142804_dp:f:0.9721806206887913"	142804
1	0	"Chromosome"	"S18_LN:i:104235_dp:f:1.0038342124762545"	104235
1	0	"Chromosome"	"S14_LN:i:119805_dp:f:1.0036480630552027"	119805
0	1	"Plasmid"	"S19_LN:i:93851_dp:f:1.2491927640510831"	93851
1	0	"Chromosome"	"S25_LN:i:63156_dp:f:1.0022414758110185"	63156
1	0	"Chromosome"	"S23_LN:i:75663_dp:f:1.0400065344782008"	75663
1	0	"Chromosome"	"S21_LN:i:87803_dp:f:1.0163233567199177"	87803
1	0	"Chromosome"	"S26_LN:i:48400_dp:f:1.0034836896256454"	48400
1	0	"Chromosome"	"S22_LN:i:78045_dp:f:0.9976030049584911"	78045
1	0	"Chromosome"	"S24_LN:i:71940_dp:f:0.9959412013196798"	71940
1	0	"Chromosome"	"S20_LN:i:88243_dp:f:1.0060672670360646"	88243
1	0	"Chromosome"	"S32_LN:i:30868_dp:f:1.0216257843307852"	30868
1	0	"Chromosome"	"S30_LN:i:38798_dp:f:0.991092368604206"	38798
1	0	"Chromosome"	"S31_LN:i:32363_dp:f:0.9829599251313957"	32363
1	0	"Chromosome"	"S33_LN:i:26055_dp:f:1.004595057002288"	26055
1	0	"Chromosome"	"S28_LN:i:40993_dp:f:1.0468324516952299"	40993
0	1	"Plasmid"	"S38_LN:i:6811_dp:f:18.519569451183134"	6811
1	0	"Chromosome"	"S29_LN:i:39445_dp:f:0.9938945452109974"	39445
1	0	"Chromosome"	"S37_LN:i:10960_dp:f:0.9590858314298734"	10960
1	0	"Chromosome"	"S27_LN:i:43673_dp:f:0.9914807539782718"	43673
1	0	"Chromosome"	"S36_LN:i:11712_dp:f:1.0248318770174576"	11712
1	0	"Chromosome"	"S35_LN:i:15093_dp:f:1.0331677665839791"	15093
1	0	"Chromosome"	"S39_LN:i:6380_dp:f:2.061984965013514"	6380
1	0	"Chromosome"	"S42_LN:i:3172_dp:f:0.915322156696757"	3172
1	0	"Chromosome"	"S40_LN:i:5535_dp:f:1.0129255512996895"	5535
1	0	"Chromosome"	"S43_LN:i:2879_dp:f:0.9360847343600119"	2879
1	0	"Chromosome"	"S41_LN:i:4448_dp:f:1.0062829069366745"	4448
1	0	"Chromosome"	"S45_LN:i:1953_dp:f:0.9588098320502342"	1953
1	0	"Chromosome"	"S46_LN:i:1875_dp:f:1.8879420996968799"	1875
1	0	"Chromosome"	"S47_LN:i:1861_dp:f:1.0487241872107986"	1861
1	0	"Chromosome"	"S49_LN:i:1689_dp:f:0.991976922681091"	1689
1	0	"Chromosome"	"S48_LN:i:1858_dp:f:0.9661048609618751"	1858
1	0	"Chromosome"	"S44_LN:i:2559_dp:f:6.845451818690091"	2559
1	0	"Chromosome"	"S50_LN:i:1689_dp:f:0.9593404637508675"	1689
1	0	"Chromosome"	"S55_LN:i:1454_dp:f:1.0366302843192123"	1454
1	0	"Chromosome"	"S51_LN:i:1603_dp:f:1.9716156982817996"	1603
1	0	"Chromosome"	"S54_LN:i:1454_dp:f:1.0407096693705014"	1454
1	0	"Chromosome"	"S53_LN:i:1493_dp:f:6.88373331666231"	1493
1	0	"Chromosome"	"S52_LN:i:1591_dp:f:1.904914633791925"	1591
0.5	0.5	"Plasmid"	"S56_LN:i:1293_dp:f:6.147730950274673"	1293
1	0	"Chromosome"	"S59_LN:i:1178_dp:f:1.807047154160026"	1178
1	0	"Chromosome"	"S58_LN:i:1201_dp:f:1.837532642242016"	1201
1	0	"Chromosome"	"S60_LN:i:1151_dp:f:2.1072046029385803"	1151
0.5	0.5	"Plasmid"	"S57_LN:i:1213_dp:f:3.097816397043389"	1213
1	0	"Chromosome"	"S34_LN:i:25757_dp:f:1.055255877198212"	25757
1	0	"Chromosome"	"S1_LN:i:754852_dp:f:0.9926161613025359"	754852
