"Prob_Chromosome"	"Prob_Plasmid"	"Prediction"	"Contig_name"	"Contig_length"
1	0	"Chromosome"	"S8_LN:i:209196_dp:f:1.0359477915545146"	209196
1	0	"Chromosome"	"S7_LN:i:225781_dp:f:1.0"	225781
1	0	"Chromosome"	"S5_LN:i:242599_dp:f:1.0644965852111359"	242599
1	0	"Chromosome"	"S2_LN:i:332775_dp:f:0.9016940476119585"	332775
1	0	"Chromosome"	"S6_LN:i:226783_dp:f:1.1175900234260527"	226783
1	0	"Chromosome"	"S4_LN:i:276430_dp:f:1.1507525987299834"	276430
1	0	"Chromosome"	"S3_LN:i:307923_dp:f:0.9975122226163314"	307923
1	0	"Chromosome"	"S1_LN:i:400005_dp:f:0.9520334750848085"	400005
1	0	"Chromosome"	"S12_LN:i:165545_dp:f:1.0900606311860925"	165545
1	0	"Chromosome"	"S13_LN:i:158936_dp:f:1.129739115465644"	158936
1	0	"Chromosome"	"S14_LN:i:144301_dp:f:0.8307337374805714"	144301
1	0	"Chromosome"	"S10_LN:i:208999_dp:f:0.9659119795412623"	208999
1	0	"Chromosome"	"S11_LN:i:199498_dp:f:0.812941468784888"	199498
1	0	"Chromosome"	"S9_LN:i:209159_dp:f:1.0694245206503283"	209159
1	0	"Chromosome"	"S16_LN:i:136542_dp:f:0.7615914862342258"	136542
1	0	"Chromosome"	"S15_LN:i:138727_dp:f:1.05804305592784"	138727
1	0	"Chromosome"	"S17_LN:i:111618_dp:f:0.7833834886293174"	111618
1	0	"Chromosome"	"S18_LN:i:108987_dp:f:1.2061041023734675"	108987
1	0	"Chromosome"	"S20_LN:i:99231_dp:f:1.0463443057757729"	99231
1	0	"Chromosome"	"S19_LN:i:108248_dp:f:1.147527232061317"	108248
1	0	"Chromosome"	"S22_LN:i:95911_dp:f:0.809369834225146"	95911
1	0	"Chromosome"	"S21_LN:i:96312_dp:f:0.8934955321489176"	96312
1	0	"Chromosome"	"S23_LN:i:95326_dp:f:0.9124635420072998"	95326
1	0	"Chromosome"	"S25_LN:i:82481_dp:f:1.1690260533079524"	82481
1	0	"Chromosome"	"S26_LN:i:75314_dp:f:0.8051082749556046"	75314
1	0	"Chromosome"	"S29_LN:i:50626_dp:f:0.7523671523730487"	50626
1	0	"Chromosome"	"S31_LN:i:41392_dp:f:1.1141519484467075"	41392
1	0	"Chromosome"	"S30_LN:i:43751_dp:f:1.005398699608951"	43751
1	0	"Chromosome"	"S28_LN:i:60881_dp:f:1.166088888155212"	60881
1	0	"Chromosome"	"S24_LN:i:90455_dp:f:0.8744894853765222"	90455
1	0	"Chromosome"	"S32_LN:i:34738_dp:f:1.0491796091635273"	34738
1	0	"Chromosome"	"S33_LN:i:33555_dp:f:0.8213610022128707"	33555
1	0	"Chromosome"	"S27_LN:i:69145_dp:f:1.185408623287126"	69145
1	0	"Chromosome"	"S34_LN:i:29791_dp:f:1.239670314067493"	29791
1	0	"Chromosome"	"S35_LN:i:23397_dp:f:0.8531162922258423"	23397
0	1	"Plasmid"	"S39_LN:i:14735_dp:f:1.0737592246146623"	14735
0	1	"Plasmid"	"S41_LN:i:11416_dp:f:1.2079077046693099"	11416
1	0	"Chromosome"	"S40_LN:i:12707_dp:f:1.169341259903627"	12707
1	0	"Chromosome"	"S38_LN:i:20484_dp:f:0.9009743576908799"	20484
1	0	"Chromosome"	"S37_LN:i:21955_dp:f:1.0472221682991325"	21955
1	0	"Chromosome"	"S43_LN:i:10638_dp:f:0.9771899041449449"	10638
0	1	"Plasmid"	"S42_LN:i:11262_dp:f:1.2276074741372085"	11262
0	1	"Plasmid"	"S36_LN:i:23248_dp:f:1.0527257271351527"	23248
1	0	"Chromosome"	"S44_LN:i:10522_dp:f:1.00295541563092"	10522
0	1	"Plasmid"	"S48_LN:i:7141_dp:f:1.1142503170718023"	7141
1	0	"Chromosome"	"S49_LN:i:7140_dp:f:0.8028569410124838"	7140
0	1	"Plasmid"	"S45_LN:i:9248_dp:f:1.1705420048310031"	9248
0	1	"Plasmid"	"S46_LN:i:8122_dp:f:0.9212231906163689"	8122
1	0	"Chromosome"	"S50_LN:i:6721_dp:f:0.9576456622848141"	6721
0	1	"Plasmid"	"S47_LN:i:7707_dp:f:1.2680302985047243"	7707
0	1	"Plasmid"	"S52_LN:i:6004_dp:f:0.8092053378727484"	6004
1	0	"Chromosome"	"S51_LN:i:6598_dp:f:0.9386192708718434"	6598
1	0	"Chromosome"	"S54_LN:i:4887_dp:f:1.032691979902399"	4887
0	1	"Plasmid"	"S57_LN:i:4273_dp:f:1.160337857499395"	4273
1	0	"Chromosome"	"S53_LN:i:5600_dp:f:1.0571834955568902"	5600
1	0	"Chromosome"	"S55_LN:i:4873_dp:f:0.9420619540989127"	4873
1	0	"Chromosome"	"S58_LN:i:4211_dp:f:0.8098609027945162"	4211
0	1	"Plasmid"	"S56_LN:i:4662_dp:f:2.2985507619623053"	4662
1	0	"Chromosome"	"S59_LN:i:4115_dp:f:1.1303712500652927"	4115
1	0	"Chromosome"	"S61_LN:i:3993_dp:f:1.2960817364425465"	3993
0	1	"Plasmid"	"S60_LN:i:4074_dp:f:37.83877198389911"	4074
1	0	"Chromosome"	"S63_LN:i:3169_dp:f:7.980416801225619"	3169
0	1	"Plasmid"	"S66_LN:i:2565_dp:f:0.9996344579290898"	2565
1	0	"Chromosome"	"S62_LN:i:3680_dp:f:0.7060551326392491"	3680
0.5	0.5	"Plasmid"	"S64_LN:i:2600_dp:f:0.8935915309648409"	2600
0.5	0.5	"Plasmid"	"S65_LN:i:2581_dp:f:3.8224982213045244"	2581
0	1	"Plasmid"	"S67_LN:i:2456_dp:f:1.03895363666919"	2456
1	0	"Chromosome"	"S68_LN:i:2258_dp:f:0.7887237992480319"	2258
1	0	"Chromosome"	"S73_LN:i:1670_dp:f:0.9087941792883407"	1670
1	0	"Chromosome"	"S71_LN:i:1983_dp:f:1.1041554305604886"	1983
0.5	0.5	"Plasmid"	"S69_LN:i:2248_dp:f:1.336733279621095"	2248
0.5	0.5	"Plasmid"	"S70_LN:i:2186_dp:f:0.6623963613677943"	2186
1	0	"Chromosome"	"S74_LN:i:1613_dp:f:1.078591722245014"	1613
1	0	"Chromosome"	"S76_LN:i:1562_dp:f:0.8190359071138766"	1562
0.5	0.5	"Plasmid"	"S72_LN:i:1864_dp:f:4.855649222517528"	1864
1	0	"Chromosome"	"S75_LN:i:1577_dp:f:8.135075952245325"	1577
1	0	"Chromosome"	"S79_LN:i:1259_dp:f:0.7842645501964575"	1259
0	1	"Plasmid"	"S80_LN:i:1245_dp:f:1.8288755773892162"	1245
1	0	"Chromosome"	"S81_LN:i:1066_dp:f:1.4438463042515435"	1066
1	0	"Chromosome"	"S82_LN:i:1030_dp:f:2.0796359373312465"	1030
1	0	"Chromosome"	"S77_LN:i:1536_dp:f:1.681319977210623"	1536
1	0	"Chromosome"	"S78_LN:i:1433_dp:f:1.572205063921937"	1433
