"Prob_Chromosome"	"Prob_Plasmid"	"Prediction"	"Contig_name"	"Contig_length"
1	0	"Chromosome"	"S8_LN:i:221789_dp:f:1.0647246977841867"	221789
1	0	"Chromosome"	"S7_LN:i:302827_dp:f:1.0861127820735434"	302827
1	0	"Chromosome"	"S6_LN:i:326066_dp:f:1.0302796062807575"	326066
1	0	"Chromosome"	"S5_LN:i:421206_dp:f:1.0526939327567357"	421206
1	0	"Chromosome"	"S10_LN:i:129826_dp:f:1.0708242247912636"	129826
1	0	"Chromosome"	"S9_LN:i:216763_dp:f:0.962787685658705"	216763
1	0	"Chromosome"	"S11_LN:i:93729_dp:f:1.0395893681699357"	93729
1	0	"Chromosome"	"S4_LN:i:491140_dp:f:0.9652047009389281"	491140
1	0	"Chromosome"	"S16_LN:i:30619_dp:f:1.0235813481937284"	30619
1	0	"Chromosome"	"S15_LN:i:45181_dp:f:0.9633795912924158"	45181
1	0	"Chromosome"	"S12_LN:i:90787_dp:f:1.0632476858959743"	90787
1	0	"Chromosome"	"S14_LN:i:57856_dp:f:1.1113803658292951"	57856
1	0	"Chromosome"	"S13_LN:i:76023_dp:f:1.0657774311270196"	76023
1	0	"Chromosome"	"S20_LN:i:9659_dp:f:0.9549196341562118"	9659
1	0	"Chromosome"	"S19_LN:i:14542_dp:f:0.9452490043189917"	14542
1	0	"Chromosome"	"S21_LN:i:5497_dp:f:0.9495141743007781"	5497
1	0	"Chromosome"	"S23_LN:i:4884_dp:f:1.1268021313477121"	4884
1	0	"Chromosome"	"S22_LN:i:5369_dp:f:1.1657906948990195"	5369
1	0	"Chromosome"	"S26_LN:i:1646_dp:f:2.050093161365565"	1646
1	0	"Chromosome"	"S27_LN:i:1620_dp:f:1.0509702493378892"	1620
1	0	"Chromosome"	"S25_LN:i:1732_dp:f:7.208958891484257"	1732
1	0	"Chromosome"	"S24_LN:i:4225_dp:f:1.1034621876624717"	4225
1	0	"Chromosome"	"S18_LN:i:26059_dp:f:1.0742638093454475"	26059
1	0	"Chromosome"	"S28_LN:i:1520_dp:f:1.1425874803142881"	1520
1	0	"Chromosome"	"S29_LN:i:1421_dp:f:2.0724419475079325"	1421
1	0	"Chromosome"	"S30_LN:i:1239_dp:f:7.267117638202604"	1239
1	0	"Chromosome"	"S17_LN:i:30588_dp:f:1.0591610783948846"	30588
1	0	"Chromosome"	"S1_LN:i:745249_dp:f:0.9872115022264683"	745249
1	0	"Chromosome"	"S3_LN:i:716040_dp:f:1.0"	716040
1	0	"Chromosome"	"S2_LN:i:718940_dp:f:1.0462771148208119"	718940
