GCA_013900005.1_ASM1390000v1,GCA_013900005.1_ASM1390000v1_bin_1,CP057943.1,792
GCA_014170975.1_ASM1417097v1,GCA_014170975.1_ASM1417097v1_bin_1,CP059948.1,1
GCA_014169475.1_ASM1416947v1,GCA_014169475.1_ASM1416947v1_bin_5,AP022181.1,5
GCA_014169115.1_ASM1416911v1,GCA_014169115.1_ASM1416911v1_bin_1,AP022072.1,2356
GCA_013592195.1_ASM1359219v1,GCA_013592195.1_ASM1359219v1_bin_2,CP055625.1,873
