"Prob_Chromosome"	"Prob_Plasmid"	"Prediction"	"Contig_name"	"Contig_length"
1	0	"Chromosome"	"S1_LN:i:484326_dp:f:0.9419443367487886"	484326
1	0	"Chromosome"	"S10_LN:i:203098_dp:f:1.0332861715104533"	203098
1	0	"Chromosome"	"S100_LN:i:1073_dp:f:1.0172347121568617"	1073
1	0	"Chromosome"	"S101_LN:i:1043_dp:f:2.0954043721808313"	1043
0.5	0.5	"Plasmid"	"S102_LN:i:1037_dp:f:2.1748761506838816"	1037
1	0	"Chromosome"	"S103_LN:i:1020_dp:f:1.1129321135979966"	1020
1	0	"Chromosome"	"S11_LN:i:154483_dp:f:1.007992269687698"	154483
1	0	"Chromosome"	"S12_LN:i:147671_dp:f:1.0425981962522075"	147671
1	0	"Chromosome"	"S13_LN:i:142153_dp:f:0.9926637197085602"	142153
1	0	"Chromosome"	"S14_LN:i:130510_dp:f:1.0611459679056077"	130510
1	0	"Chromosome"	"S15_LN:i:126008_dp:f:1.0590883239073665"	126008
1	0	"Chromosome"	"S16_LN:i:110426_dp:f:1.0746771720390735"	110426
1	0	"Chromosome"	"S17_LN:i:108581_dp:f:0.9984433626586091"	108581
1	0	"Chromosome"	"S18_LN:i:103499_dp:f:1.0596556614243295"	103499
1	0	"Chromosome"	"S19_LN:i:100879_dp:f:1.05466872947015"	100879
1	0	"Chromosome"	"S2_LN:i:347629_dp:f:1.0253661768647548"	347629
1	0	"Chromosome"	"S20_LN:i:97526_dp:f:1.003368359634119"	97526
1	0	"Chromosome"	"S21_LN:i:77953_dp:f:0.9681054903948796"	77953
1	0	"Chromosome"	"S22_LN:i:69302_dp:f:1.033050775154874"	69302
1	0	"Chromosome"	"S23_LN:i:67807_dp:f:1.0305214716519513"	67807
1	0	"Chromosome"	"S24_LN:i:48272_dp:f:1.0281421853424968"	48272
1	0	"Chromosome"	"S25_LN:i:45086_dp:f:1.018016055740272"	45086
1	0	"Chromosome"	"S26_LN:i:41386_dp:f:1.0637162583594495"	41386
1	0	"Chromosome"	"S27_LN:i:38266_dp:f:1.012186931205446"	38266
1	0	"Chromosome"	"S28_LN:i:31696_dp:f:0.9347824264652989"	31696
1	0	"Chromosome"	"S29_LN:i:29791_dp:f:1.1052087356441964"	29791
1	0	"Chromosome"	"S3_LN:i:333826_dp:f:0.9543388013897527"	333826
1	0	"Chromosome"	"S30_LN:i:27904_dp:f:0.93892634743982"	27904
0.33	0.67	"Plasmid"	"S31_LN:i:20965_dp:f:1.0489744872358129"	20965
1	0	"Chromosome"	"S32_LN:i:20247_dp:f:1.0429642307746123"	20247
0	1	"Plasmid"	"S33_LN:i:19916_dp:f:1.0897722574312376"	19916
0	1	"Plasmid"	"S34_LN:i:19661_dp:f:1.072513562054634"	19661
0	1	"Plasmid"	"S35_LN:i:19432_dp:f:1.050329334883897"	19432
1	0	"Chromosome"	"S36_LN:i:18868_dp:f:0.9890617562431228"	18868
1	0	"Chromosome"	"S37_LN:i:15656_dp:f:1.0587330623901878"	15656
0.67	0.33	"Chromosome"	"S38_LN:i:13721_dp:f:0.8890397797551952"	13721
0.67	0.33	"Chromosome"	"S39_LN:i:12925_dp:f:1.9031606511402481"	12925
1	0	"Chromosome"	"S4_LN:i:315606_dp:f:1.003191537239673"	315606
1	0	"Chromosome"	"S40_LN:i:11962_dp:f:0.9760646731984098"	11962
1	0	"Chromosome"	"S41_LN:i:11898_dp:f:1.0228653940239043"	11898
0.67	0.33	"Chromosome"	"S42_LN:i:11634_dp:f:0.881596809506397"	11634
0	1	"Plasmid"	"S43_LN:i:11011_dp:f:1.0925285370097926"	11011
0	1	"Plasmid"	"S44_LN:i:10731_dp:f:1.0847039299551582"	10731
0	1	"Plasmid"	"S45_LN:i:10692_dp:f:1.0000063771237835"	10692
1	0	"Chromosome"	"S46_LN:i:10387_dp:f:0.9452310320501858"	10387
1	0	"Chromosome"	"S47_LN:i:9293_dp:f:1.002475425637519"	9293
1	0	"Chromosome"	"S48_LN:i:9283_dp:f:0.9759274102525081"	9283
1	0	"Chromosome"	"S49_LN:i:8962_dp:f:0.9814538562627361"	8962
1	0	"Chromosome"	"S5_LN:i:300547_dp:f:1.0405916887378837"	300547
0	1	"Plasmid"	"S50_LN:i:8872_dp:f:1.0697971244991635"	8872
1	0	"Chromosome"	"S51_LN:i:8669_dp:f:0.993844961100164"	8669
1	0	"Chromosome"	"S52_LN:i:8636_dp:f:0.9372148236707418"	8636
0.67	0.33	"Chromosome"	"S53_LN:i:8503_dp:f:0.9742599087844843"	8503
1	0	"Chromosome"	"S54_LN:i:8328_dp:f:0.9560390805004766"	8328
1	0	"Chromosome"	"S55_LN:i:8066_dp:f:0.9348511176869093"	8066
0.67	0.33	"Chromosome"	"S56_LN:i:7807_dp:f:0.9882793363393129"	7807
1	0	"Chromosome"	"S57_LN:i:7648_dp:f:1.0096213462021626"	7648
1	0	"Chromosome"	"S58_LN:i:7421_dp:f:1.9916127820344907"	7421
1	0	"Chromosome"	"S59_LN:i:7157_dp:f:1.0502365046130133"	7157
1	0	"Chromosome"	"S6_LN:i:265933_dp:f:1.0"	265933
0.67	0.33	"Chromosome"	"S60_LN:i:7059_dp:f:0.9577760366460932"	7059
1	0	"Chromosome"	"S61_LN:i:6723_dp:f:1.0533950823476441"	6723
1	0	"Chromosome"	"S62_LN:i:5418_dp:f:1.0332071694721263"	5418
1	0	"Chromosome"	"S63_LN:i:5062_dp:f:0.9692745223008018"	5062
0	1	"Plasmid"	"S64_LN:i:4991_dp:f:1.0642762069759293"	4991
0	1	"Plasmid"	"S65_LN:i:4774_dp:f:1.0730844389387921"	4774
1	0	"Chromosome"	"S66_LN:i:4754_dp:f:2.0399263052145926"	4754
1	0	"Chromosome"	"S67_LN:i:4677_dp:f:0.964992933775365"	4677
1	0	"Chromosome"	"S68_LN:i:4640_dp:f:0.9515936060851876"	4640
1	0	"Chromosome"	"S69_LN:i:4391_dp:f:1.0685410168552951"	4391
1	0	"Chromosome"	"S7_LN:i:256342_dp:f:0.980070839721495"	256342
1	0	"Chromosome"	"S70_LN:i:4280_dp:f:0.9650239526007582"	4280
1	0	"Chromosome"	"S71_LN:i:4275_dp:f:0.8596063197172865"	4275
0	1	"Plasmid"	"S72_LN:i:4213_dp:f:1.0197730462133443"	4213
1	0	"Chromosome"	"S73_LN:i:4209_dp:f:1.0572470687210003"	4209
1	0	"Chromosome"	"S74_LN:i:4121_dp:f:1.774341017127716"	4121
1	0	"Chromosome"	"S75_LN:i:3973_dp:f:0.9537866476661303"	3973
1	0	"Chromosome"	"S76_LN:i:3912_dp:f:1.0636631983178682"	3912
1	0	"Chromosome"	"S77_LN:i:3354_dp:f:0.9968321173252088"	3354
1	0	"Chromosome"	"S78_LN:i:3182_dp:f:0.8402991131092489"	3182
1	0	"Chromosome"	"S79_LN:i:3143_dp:f:7.130045961107469"	3143
1	0	"Chromosome"	"S8_LN:i:241366_dp:f:0.9810796689557447"	241366
1	0	"Chromosome"	"S80_LN:i:3022_dp:f:1.1522970461781774"	3022
1	0	"Chromosome"	"S81_LN:i:2701_dp:f:0.9900519345531263"	2701
1	0	"Chromosome"	"S82_LN:i:2582_dp:f:4.1806332075285715"	2582
1	0	"Chromosome"	"S83_LN:i:2450_dp:f:0.9609496515551946"	2450
1	0	"Chromosome"	"S84_LN:i:2348_dp:f:1.0021580682193745"	2348
0.5	0.5	"Plasmid"	"S85_LN:i:2125_dp:f:10.559405632250959"	2125
1	0	"Chromosome"	"S86_LN:i:2099_dp:f:1.03843331528339"	2099
1	0	"Chromosome"	"S87_LN:i:2026_dp:f:0.9890683096448981"	2026
1	0	"Chromosome"	"S88_LN:i:1673_dp:f:6.764946213604423"	1673
0	1	"Plasmid"	"S89_LN:i:1669_dp:f:2.1359465961080226"	1669
1	0	"Chromosome"	"S9_LN:i:241231_dp:f:1.0230915652198356"	241231
1	0	"Chromosome"	"S90_LN:i:1634_dp:f:3.0789699050526758"	1634
1	0	"Chromosome"	"S91_LN:i:1426_dp:f:0.735789756011244"	1426
1	0	"Chromosome"	"S92_LN:i:1354_dp:f:2.0741887338883203"	1354
1	0	"Chromosome"	"S93_LN:i:1213_dp:f:2.2124785205469073"	1213
1	0	"Chromosome"	"S94_LN:i:1185_dp:f:2.046199166119864"	1185
1	0	"Chromosome"	"S95_LN:i:1138_dp:f:1.067413875705028"	1138
1	0	"Chromosome"	"S96_LN:i:1131_dp:f:0.66825589131697"	1131
1	0	"Chromosome"	"S97_LN:i:1114_dp:f:1.9338817329580034"	1114
1	0	"Chromosome"	"S98_LN:i:1097_dp:f:3.003331025598765"	1097
1	0	"Chromosome"	"S99_LN:i:1093_dp:f:2.1016145762970853"	1093
