"Prob_Chromosome"	"Prob_Plasmid"	"Prediction"	"Contig_name"	"Contig_length"
1	0	"Chromosome"	"S1_LN:i:280078_dp:f:1.0"	280078
1	0	"Chromosome"	"S10_LN:i:131110_dp:f:1.2664476865165941"	131110
1	0	"Chromosome"	"S100_LN:i:5728_dp:f:1.201269772001873"	5728
0	1	"Plasmid"	"S101_LN:i:5451_dp:f:1.199155132412345"	5451
1	0	"Chromosome"	"S102_LN:i:5181_dp:f:1.2860983012946665"	5181
1	0	"Chromosome"	"S103_LN:i:4967_dp:f:1.5666394448844994"	4967
1	0	"Chromosome"	"S104_LN:i:4880_dp:f:1.3943191372396542"	4880
1	0	"Chromosome"	"S105_LN:i:4715_dp:f:1.0471936000857058"	4715
1	0	"Chromosome"	"S106_LN:i:4700_dp:f:0.9955776078706906"	4700
1	0	"Chromosome"	"S107_LN:i:4693_dp:f:1.1387225591145322"	4693
1	0	"Chromosome"	"S108_LN:i:4493_dp:f:1.0468217684336512"	4493
1	0	"Chromosome"	"S109_LN:i:4418_dp:f:0.993160824558139"	4418
1	0	"Chromosome"	"S11_LN:i:125565_dp:f:1.2681112573123208"	125565
1	0	"Chromosome"	"S110_LN:i:4331_dp:f:1.0334100705705098"	4331
1	0	"Chromosome"	"S111_LN:i:4316_dp:f:1.5935910308447867"	4316
1	0	"Chromosome"	"S112_LN:i:4226_dp:f:0.8028758139113026"	4226
0	1	"Plasmid"	"S113_LN:i:4073_dp:f:55.316769476200626"	4073
1	0	"Chromosome"	"S114_LN:i:3950_dp:f:1.364253671851507"	3950
1	0	"Chromosome"	"S115_LN:i:3803_dp:f:1.2813568478445292"	3803
1	0	"Chromosome"	"S116_LN:i:3423_dp:f:0.672741839943089"	3423
1	0	"Chromosome"	"S117_LN:i:3388_dp:f:1.2854744193972376"	3388
1	0	"Chromosome"	"S118_LN:i:3135_dp:f:1.1682465890010805"	3135
1	0	"Chromosome"	"S119_LN:i:3068_dp:f:0.9729690387558529"	3068
1	0	"Chromosome"	"S12_LN:i:121281_dp:f:0.9257559191872998"	121281
1	0	"Chromosome"	"S120_LN:i:3007_dp:f:0.7949434733015361"	3007
1	0	"Chromosome"	"S121_LN:i:2987_dp:f:11.300038683623507"	2987
1	0	"Chromosome"	"S122_LN:i:2789_dp:f:1.0200721220117275"	2789
0	1	"Plasmid"	"S123_LN:i:2733_dp:f:1.0429919464907769"	2733
1	0	"Chromosome"	"S124_LN:i:2716_dp:f:1.3881010816817327"	2716
1	0	"Chromosome"	"S125_LN:i:2716_dp:f:0.7646294576074552"	2716
1	0	"Chromosome"	"S126_LN:i:2674_dp:f:1.1492028445552256"	2674
0	1	"Plasmid"	"S127_LN:i:2595_dp:f:1.079859791795341"	2595
1	0	"Chromosome"	"S128_LN:i:2557_dp:f:1.4254683306075049"	2557
1	0	"Chromosome"	"S129_LN:i:2475_dp:f:3.7317759155034187"	2475
1	0	"Chromosome"	"S13_LN:i:119021_dp:f:1.0175669472686533"	119021
1	0	"Chromosome"	"S130_LN:i:2441_dp:f:3.052857253013211"	2441
1	0	"Chromosome"	"S131_LN:i:2312_dp:f:1.3760278896194096"	2312
1	0	"Chromosome"	"S132_LN:i:2272_dp:f:5.665306872329681"	2272
1	0	"Chromosome"	"S133_LN:i:2171_dp:f:1.6633074333366964"	2171
0	1	"Plasmid"	"S134_LN:i:2125_dp:f:0.45441064819343624"	2125
0.5	0.5	"Plasmid"	"S135_LN:i:2125_dp:f:5.341613095396989"	2125
1	0	"Chromosome"	"S136_LN:i:2119_dp:f:1.123869465422365"	2119
0.5	0.5	"Plasmid"	"S137_LN:i:1966_dp:f:1.3300404972009856"	1966
1	0	"Chromosome"	"S138_LN:i:1921_dp:f:1.3337956394033903"	1921
1	0	"Chromosome"	"S139_LN:i:1912_dp:f:3.06973957551015"	1912
1	0	"Chromosome"	"S14_LN:i:116925_dp:f:1.0610460850890566"	116925
0.67	0.33	"Chromosome"	"S140_LN:i:1892_dp:f:0.9775799373285533"	1892
1	0	"Chromosome"	"S141_LN:i:1844_dp:f:1.1665180157249557"	1844
1	0	"Chromosome"	"S142_LN:i:1817_dp:f:1.1100780060975535"	1817
1	0	"Chromosome"	"S143_LN:i:1763_dp:f:1.4429227426300733"	1763
1	0	"Chromosome"	"S144_LN:i:1758_dp:f:1.0301731323114798"	1758
0.5	0.5	"Plasmid"	"S145_LN:i:1448_dp:f:1.3771539131947221"	1448
1	0	"Chromosome"	"S146_LN:i:1420_dp:f:1.8810966215666676"	1420
1	0	"Chromosome"	"S147_LN:i:1415_dp:f:1.6152584393484248"	1415
0.5	0.5	"Plasmid"	"S148_LN:i:1358_dp:f:1.7450252373994348"	1358
1	0	"Chromosome"	"S149_LN:i:1344_dp:f:2.7621755941420734"	1344
1	0	"Chromosome"	"S15_LN:i:105004_dp:f:1.2673639212340897"	105004
1	0	"Chromosome"	"S150_LN:i:1338_dp:f:2.8203831875283214"	1338
1	0	"Chromosome"	"S151_LN:i:1318_dp:f:1.7369722149201197"	1318
1	0	"Chromosome"	"S152_LN:i:1283_dp:f:11.112789346768144"	1283
0.33	0.67	"Plasmid"	"S153_LN:i:1256_dp:f:0.9183617434150497"	1256
1	0	"Chromosome"	"S154_LN:i:1191_dp:f:1.155669767287616"	1191
1	0	"Chromosome"	"S155_LN:i:1158_dp:f:1.4793691758072938"	1158
1	0	"Chromosome"	"S156_LN:i:1141_dp:f:2.5301332999828996"	1141
1	0	"Chromosome"	"S157_LN:i:1133_dp:f:2.2170023234828298"	1133
1	0	"Chromosome"	"S158_LN:i:1112_dp:f:2.9511454542772064"	1112
1	0	"Chromosome"	"S159_LN:i:1108_dp:f:1.4300414145471734"	1108
1	0	"Chromosome"	"S16_LN:i:99086_dp:f:1.0135262101505653"	99086
0.5	0.5	"Plasmid"	"S160_LN:i:1106_dp:f:5.057181959407004"	1106
0.67	0.33	"Chromosome"	"S161_LN:i:1058_dp:f:2.8176081863131253"	1058
1	0	"Chromosome"	"S162_LN:i:1031_dp:f:2.5564783046372836"	1031
1	0	"Chromosome"	"S163_LN:i:1015_dp:f:3.315588562146645"	1015
1	0	"Chromosome"	"S164_LN:i:1005_dp:f:1.1424744203053887"	1005
0.67	0.33	"Chromosome"	"S165_LN:i:1003_dp:f:1.4789903903695691"	1003
1	0	"Chromosome"	"S17_LN:i:90602_dp:f:1.2602161151499058"	90602
1	0	"Chromosome"	"S18_LN:i:88119_dp:f:1.2907624795772887"	88119
1	0	"Chromosome"	"S19_LN:i:87861_dp:f:1.1717033670036878"	87861
1	0	"Chromosome"	"S2_LN:i:262847_dp:f:1.1604204761285393"	262847
1	0	"Chromosome"	"S20_LN:i:74890_dp:f:0.9125867281294221"	74890
1	0	"Chromosome"	"S21_LN:i:72130_dp:f:1.1413987871910225"	72130
1	0	"Chromosome"	"S22_LN:i:68854_dp:f:1.0004776671076576"	68854
0	1	"Plasmid"	"S23_LN:i:63838_dp:f:0.5227619175308286"	63838
1	0	"Chromosome"	"S24_LN:i:60511_dp:f:1.1823383302539396"	60511
1	0	"Chromosome"	"S25_LN:i:60449_dp:f:1.3224801306770382"	60449
1	0	"Chromosome"	"S26_LN:i:57517_dp:f:1.0127329399106557"	57517
1	0	"Chromosome"	"S27_LN:i:55556_dp:f:1.0778413330788403"	55556
1	0	"Chromosome"	"S28_LN:i:55405_dp:f:1.2253762288042365"	55405
1	0	"Chromosome"	"S29_LN:i:55142_dp:f:1.1154687902673128"	55142
1	0	"Chromosome"	"S3_LN:i:233406_dp:f:0.9666394288052829"	233406
0	1	"Plasmid"	"S30_LN:i:55035_dp:f:0.9212768487203983"	55035
1	0	"Chromosome"	"S31_LN:i:52327_dp:f:1.0880155540094134"	52327
1	0	"Chromosome"	"S32_LN:i:50261_dp:f:0.9750865360566733"	50261
1	0	"Chromosome"	"S33_LN:i:50151_dp:f:1.1962402096394873"	50151
1	0	"Chromosome"	"S34_LN:i:47636_dp:f:0.8267630016779156"	47636
1	0	"Chromosome"	"S35_LN:i:45666_dp:f:0.8680686080655262"	45666
1	0	"Chromosome"	"S36_LN:i:45534_dp:f:1.052573006858913"	45534
1	0	"Chromosome"	"S37_LN:i:43418_dp:f:1.1294129148398375"	43418
1	0	"Chromosome"	"S38_LN:i:41169_dp:f:1.3470952867622519"	41169
1	0	"Chromosome"	"S39_LN:i:40030_dp:f:0.9818889697583354"	40030
1	0	"Chromosome"	"S4_LN:i:208886_dp:f:1.1033691210060426"	208886
1	0	"Chromosome"	"S40_LN:i:39527_dp:f:1.2945298643600982"	39527
1	0	"Chromosome"	"S41_LN:i:37280_dp:f:1.160643633884158"	37280
1	0	"Chromosome"	"S42_LN:i:35604_dp:f:0.8857215059758724"	35604
1	0	"Chromosome"	"S43_LN:i:34870_dp:f:0.872355698487126"	34870
1	0	"Chromosome"	"S44_LN:i:34091_dp:f:1.1795260512269898"	34091
1	0	"Chromosome"	"S45_LN:i:32053_dp:f:0.9076172832706222"	32053
1	0	"Chromosome"	"S46_LN:i:30733_dp:f:1.289858585380841"	30733
1	0	"Chromosome"	"S47_LN:i:30437_dp:f:1.372111243296305"	30437
1	0	"Chromosome"	"S48_LN:i:29333_dp:f:0.8643826883302993"	29333
1	0	"Chromosome"	"S49_LN:i:28960_dp:f:0.8688831098574267"	28960
1	0	"Chromosome"	"S5_LN:i:170178_dp:f:0.8830182952521701"	170178
0.67	0.33	"Chromosome"	"S50_LN:i:28123_dp:f:1.0524082047833279"	28123
1	0	"Chromosome"	"S51_LN:i:27690_dp:f:0.8845132043149715"	27690
1	0	"Chromosome"	"S52_LN:i:27134_dp:f:1.4396527268941401"	27134
0.33	0.67	"Plasmid"	"S53_LN:i:26569_dp:f:0.9821044527628598"	26569
1	0	"Chromosome"	"S54_LN:i:25955_dp:f:1.073528223031906"	25955
1	0	"Chromosome"	"S55_LN:i:25502_dp:f:0.8384689163280944"	25502
0.67	0.33	"Chromosome"	"S56_LN:i:24928_dp:f:1.408233654579577"	24928
1	0	"Chromosome"	"S57_LN:i:24796_dp:f:1.423812247989651"	24796
1	0	"Chromosome"	"S58_LN:i:23931_dp:f:1.194107601103292"	23931
1	0	"Chromosome"	"S59_LN:i:23693_dp:f:1.0914237904534674"	23693
1	0	"Chromosome"	"S6_LN:i:169874_dp:f:0.8650415350373644"	169874
1	0	"Chromosome"	"S60_LN:i:23402_dp:f:1.399326597476827"	23402
0	1	"Plasmid"	"S61_LN:i:21490_dp:f:0.9863387690533661"	21490
0	1	"Plasmid"	"S62_LN:i:21382_dp:f:0.4868664144310739"	21382
1	0	"Chromosome"	"S63_LN:i:19339_dp:f:1.10684096989788"	19339
1	0	"Chromosome"	"S64_LN:i:19118_dp:f:0.8132610515120302"	19118
1	0	"Chromosome"	"S65_LN:i:18991_dp:f:1.23403467136973"	18991
0.67	0.33	"Chromosome"	"S66_LN:i:18900_dp:f:1.1889309704781708"	18900
1	0	"Chromosome"	"S67_LN:i:18800_dp:f:0.9239548397284667"	18800
1	0	"Chromosome"	"S68_LN:i:18319_dp:f:0.8831675078221438"	18319
1	0	"Chromosome"	"S69_LN:i:18301_dp:f:1.371855085817375"	18301
1	0	"Chromosome"	"S7_LN:i:152022_dp:f:1.2330048255060782"	152022
1	0	"Chromosome"	"S70_LN:i:17997_dp:f:1.4269887508954664"	17997
1	0	"Chromosome"	"S71_LN:i:17900_dp:f:0.676730227787366"	17900
1	0	"Chromosome"	"S72_LN:i:16926_dp:f:1.3685988959484883"	16926
0.33	0.67	"Plasmid"	"S73_LN:i:16888_dp:f:0.8789066001380559"	16888
0	1	"Plasmid"	"S74_LN:i:15502_dp:f:0.944534617388942"	15502
1	0	"Chromosome"	"S75_LN:i:14858_dp:f:0.9700334638560675"	14858
1	0	"Chromosome"	"S76_LN:i:14100_dp:f:1.2146821879096756"	14100
1	0	"Chromosome"	"S77_LN:i:12455_dp:f:1.243998760650235"	12455
1	0	"Chromosome"	"S78_LN:i:12209_dp:f:0.8278961440307375"	12209
0.33	0.67	"Plasmid"	"S79_LN:i:12134_dp:f:1.0507071716915628"	12134
1	0	"Chromosome"	"S8_LN:i:147301_dp:f:1.216143609217758"	147301
0.67	0.33	"Chromosome"	"S80_LN:i:11071_dp:f:1.3636203282010708"	11071
0	1	"Plasmid"	"S81_LN:i:10597_dp:f:1.0685695862053877"	10597
0.67	0.33	"Chromosome"	"S82_LN:i:10161_dp:f:1.44827537215453"	10161
1	0	"Chromosome"	"S83_LN:i:9705_dp:f:1.404380726430503"	9705
0.67	0.33	"Chromosome"	"S84_LN:i:9586_dp:f:0.9992305000415542"	9586
1	0	"Chromosome"	"S85_LN:i:9417_dp:f:1.0009640494268746"	9417
1	0	"Chromosome"	"S86_LN:i:8695_dp:f:1.2861453617737426"	8695
1	0	"Chromosome"	"S87_LN:i:8304_dp:f:1.131930963149807"	8304
1	0	"Chromosome"	"S88_LN:i:8137_dp:f:1.2294193654680838"	8137
1	0	"Chromosome"	"S89_LN:i:7912_dp:f:1.289787725325458"	7912
1	0	"Chromosome"	"S9_LN:i:137052_dp:f:0.9961972900353894"	137052
1	0	"Chromosome"	"S90_LN:i:7809_dp:f:1.2018666671561689"	7809
1	0	"Chromosome"	"S91_LN:i:7688_dp:f:0.8765956906608451"	7688
1	0	"Chromosome"	"S92_LN:i:7490_dp:f:2.8381171039182176"	7490
0.67	0.33	"Chromosome"	"S93_LN:i:7083_dp:f:1.522752865195546"	7083
1	0	"Chromosome"	"S94_LN:i:7035_dp:f:0.9146489877757549"	7035
0	1	"Plasmid"	"S95_LN:i:6972_dp:f:0.6246526902910898"	6972
1	0	"Chromosome"	"S96_LN:i:6686_dp:f:1.3031954076222265"	6686
1	0	"Chromosome"	"S97_LN:i:6187_dp:f:1.5434475611947418"	6187
1	0	"Chromosome"	"S98_LN:i:6098_dp:f:1.2896082102032087"	6098
1	0	"Chromosome"	"S99_LN:i:6025_dp:f:1.233802160282682"	6025
