"Prob_Chromosome"	"Prob_Plasmid"	"Prediction"	"Contig_name"	"Contig_length"
1	0	"Chromosome"	"S1_LN:i:395844_dp:f:1.0016394135211617"	395844
1	0	"Chromosome"	"S10_LN:i:125394_dp:f:1.034913327857963"	125394
1	0	"Chromosome"	"S11_LN:i:124024_dp:f:0.9507302903918394"	124024
1	0	"Chromosome"	"S12_LN:i:123226_dp:f:0.9953347663743934"	123226
1	0	"Chromosome"	"S13_LN:i:118983_dp:f:0.9956112263359376"	118983
1	0	"Chromosome"	"S14_LN:i:112067_dp:f:1.0070825560888685"	112067
1	0	"Chromosome"	"S15_LN:i:108069_dp:f:1.0035742815217403"	108069
1	0	"Chromosome"	"S16_LN:i:104417_dp:f:0.9707545310524585"	104417
1	0	"Chromosome"	"S17_LN:i:101844_dp:f:1.0519865477561794"	101844
1	0	"Chromosome"	"S18_LN:i:96881_dp:f:0.9918103156161734"	96881
1	0	"Chromosome"	"S19_LN:i:94807_dp:f:1.0132127972385763"	94807
1	0	"Chromosome"	"S2_LN:i:352221_dp:f:0.9949888262604816"	352221
1	0	"Chromosome"	"S20_LN:i:81926_dp:f:1.045882973058117"	81926
1	0	"Chromosome"	"S21_LN:i:79722_dp:f:0.9244882080612581"	79722
1	0	"Chromosome"	"S22_LN:i:76178_dp:f:1.0109974308030005"	76178
1	0	"Chromosome"	"S23_LN:i:72898_dp:f:0.9534598754562161"	72898
0	1	"Plasmid"	"S24_LN:i:72182_dp:f:1.2337561727327475"	72182
1	0	"Chromosome"	"S25_LN:i:63566_dp:f:1.0314000118241908"	63566
1	0	"Chromosome"	"S26_LN:i:60654_dp:f:1.011764788923572"	60654
1	0	"Chromosome"	"S27_LN:i:60275_dp:f:0.9755668239332876"	60275
1	0	"Chromosome"	"S28_LN:i:55284_dp:f:1.0270357431182864"	55284
1	0	"Chromosome"	"S29_LN:i:55056_dp:f:1.0598053935472835"	55056
1	0	"Chromosome"	"S3_LN:i:342837_dp:f:0.9921986548957638"	342837
1	0	"Chromosome"	"S30_LN:i:54451_dp:f:1.0183358130985967"	54451
1	0	"Chromosome"	"S31_LN:i:52892_dp:f:1.0051040429077585"	52892
1	0	"Chromosome"	"S32_LN:i:51356_dp:f:0.8728796519745634"	51356
1	0	"Chromosome"	"S33_LN:i:48139_dp:f:0.9200174757447991"	48139
1	0	"Chromosome"	"S34_LN:i:41296_dp:f:0.9563425391858549"	41296
1	0	"Chromosome"	"S35_LN:i:41277_dp:f:1.0497448537507823"	41277
1	0	"Chromosome"	"S36_LN:i:38284_dp:f:1.0781900982333854"	38284
1	0	"Chromosome"	"S37_LN:i:37313_dp:f:0.9766813397918287"	37313
1	0	"Chromosome"	"S38_LN:i:33999_dp:f:0.963733775400729"	33999
1	0	"Chromosome"	"S39_LN:i:33321_dp:f:1.056466652951484"	33321
1	0	"Chromosome"	"S4_LN:i:270612_dp:f:0.9994243337699085"	270612
1	0	"Chromosome"	"S40_LN:i:30712_dp:f:1.103112295479159"	30712
1	0	"Chromosome"	"S41_LN:i:28958_dp:f:0.9967483701726711"	28958
1	0	"Chromosome"	"S42_LN:i:27157_dp:f:0.9267231019488561"	27157
1	0	"Chromosome"	"S43_LN:i:26795_dp:f:1.0447924920986924"	26795
1	0	"Chromosome"	"S44_LN:i:26139_dp:f:1.0099102326590652"	26139
1	0	"Chromosome"	"S45_LN:i:25166_dp:f:0.9309477337530645"	25166
1	0	"Chromosome"	"S46_LN:i:25089_dp:f:0.9020451227267873"	25089
1	0	"Chromosome"	"S47_LN:i:24414_dp:f:1.054185698278429"	24414
1	0	"Chromosome"	"S48_LN:i:23859_dp:f:1.065137741092234"	23859
1	0	"Chromosome"	"S49_LN:i:23351_dp:f:1.0617225577929033"	23351
1	0	"Chromosome"	"S5_LN:i:214282_dp:f:1.0197722793618877"	214282
0	1	"Plasmid"	"S50_LN:i:19143_dp:f:1.2266829001709916"	19143
1	0	"Chromosome"	"S51_LN:i:17437_dp:f:0.9830625468855386"	17437
1	0	"Chromosome"	"S52_LN:i:16723_dp:f:1.0466238341679548"	16723
1	0	"Chromosome"	"S53_LN:i:16472_dp:f:1.0348045259731822"	16472
1	0	"Chromosome"	"S54_LN:i:15263_dp:f:0.9635367120867522"	15263
1	0	"Chromosome"	"S55_LN:i:14072_dp:f:1.0480043753245212"	14072
0	1	"Plasmid"	"S56_LN:i:11310_dp:f:1.0713364001960692"	11310
1	0	"Chromosome"	"S57_LN:i:10062_dp:f:1.079941949270448"	10062
1	0	"Chromosome"	"S58_LN:i:9536_dp:f:0.9798675467107966"	9536
0.33	0.67	"Plasmid"	"S59_LN:i:8421_dp:f:1.0155380335980326"	8421
1	0	"Chromosome"	"S6_LN:i:193161_dp:f:0.9649857599832236"	193161
1	0	"Chromosome"	"S60_LN:i:8163_dp:f:0.9397715900574669"	8163
0	1	"Plasmid"	"S61_LN:i:6930_dp:f:78.83497664865013"	6930
0	1	"Plasmid"	"S62_LN:i:6230_dp:f:126.4827932197977"	6230
1	0	"Chromosome"	"S63_LN:i:4877_dp:f:0.8956328461293415"	4877
0	1	"Plasmid"	"S64_LN:i:4749_dp:f:1.1752713937708732"	4749
0	1	"Plasmid"	"S65_LN:i:4598_dp:f:0.9443739801297394"	4598
1	0	"Chromosome"	"S66_LN:i:4380_dp:f:1.039894648632403"	4380
1	0	"Chromosome"	"S67_LN:i:4161_dp:f:0.9042069739697535"	4161
1	0	"Chromosome"	"S68_LN:i:3122_dp:f:1.0078819216604582"	3122
1	0	"Chromosome"	"S69_LN:i:2938_dp:f:7.376741877342359"	2938
1	0	"Chromosome"	"S7_LN:i:184057_dp:f:1.0101492762434807"	184057
0	1	"Plasmid"	"S70_LN:i:2734_dp:f:1.1829200021301867"	2734
1	0	"Chromosome"	"S71_LN:i:2698_dp:f:1.138070411405266"	2698
1	0	"Chromosome"	"S72_LN:i:2695_dp:f:3.775629405426598"	2695
1	0	"Chromosome"	"S73_LN:i:2434_dp:f:0.800132460736664"	2434
1	0	"Chromosome"	"S74_LN:i:2143_dp:f:2.541029914946471"	2143
1	0	"Chromosome"	"S75_LN:i:1689_dp:f:0.909733945575842"	1689
1	0	"Chromosome"	"S76_LN:i:1524_dp:f:1.2005555214243175"	1524
1	0	"Chromosome"	"S77_LN:i:1524_dp:f:1.1627052450523356"	1524
0.5	0.5	"Plasmid"	"S78_LN:i:1457_dp:f:2.2753155464452606"	1457
1	0	"Chromosome"	"S79_LN:i:1452_dp:f:1.1433274886807887"	1452
1	0	"Chromosome"	"S8_LN:i:164018_dp:f:1.0351958844768439"	164018
1	0	"Chromosome"	"S80_LN:i:1452_dp:f:1.1935958353440683"	1452
1	0	"Chromosome"	"S81_LN:i:1373_dp:f:7.286122804095116"	1373
1	0	"Chromosome"	"S82_LN:i:1343_dp:f:2.0859878391252313"	1343
1	0	"Chromosome"	"S83_LN:i:1322_dp:f:1.0532487903117287"	1322
1	0	"Chromosome"	"S84_LN:i:1311_dp:f:2.29238595250163"	1311
1	0	"Chromosome"	"S85_LN:i:1264_dp:f:1.1025600790165329"	1264
1	0	"Chromosome"	"S86_LN:i:1258_dp:f:4.703627294975909"	1258
1	0	"Chromosome"	"S87_LN:i:1256_dp:f:2.3761262376217482"	1256
1	0	"Chromosome"	"S88_LN:i:1197_dp:f:2.2077920181109416"	1197
1	0	"Chromosome"	"S89_LN:i:1170_dp:f:17.060031890449626"	1170
1	0	"Chromosome"	"S9_LN:i:147415_dp:f:1.0"	147415
0	1	"Plasmid"	"S90_LN:i:1151_dp:f:1.0424426996689766"	1151
1	0	"Chromosome"	"S91_LN:i:1151_dp:f:2.263690862311626"	1151
1	0	"Chromosome"	"S92_LN:i:1131_dp:f:3.428435556486549"	1131
1	0	"Chromosome"	"S93_LN:i:1089_dp:f:2.1904816147936392"	1089
1	0	"Chromosome"	"S94_LN:i:1047_dp:f:1.3034591247185001"	1047
0	1	"Plasmid"	"S95_LN:i:1040_dp:f:2.631620146314775"	1040
