"Prob_Chromosome"	"Prob_Plasmid"	"Prediction"	"Contig_name"	"Contig_length"
1	0	"Chromosome"	"S1_LN:i:443549_dp:f:1.08883760088347"	443549
1	0	"Chromosome"	"S10_LN:i:160344_dp:f:0.9982821885054612"	160344
1	0	"Chromosome"	"S100_LN:i:1674_dp:f:1.6979564632224844"	1674
1	0	"Chromosome"	"S101_LN:i:1656_dp:f:0.6231902968877809"	1656
1	0	"Chromosome"	"S102_LN:i:1640_dp:f:2.279188395203922"	1640
1	0	"Chromosome"	"S103_LN:i:1536_dp:f:0.548134632076497"	1536
1	0	"Chromosome"	"S104_LN:i:1524_dp:f:1.1749289590799588"	1524
1	0	"Chromosome"	"S105_LN:i:1512_dp:f:2.053789281195947"	1512
1	0	"Chromosome"	"S106_LN:i:1480_dp:f:0.681585169488067"	1480
1	0	"Chromosome"	"S107_LN:i:1471_dp:f:0.3323965279762334"	1471
1	0	"Chromosome"	"S108_LN:i:1409_dp:f:1.266791782659127"	1409
1	0	"Chromosome"	"S109_LN:i:1405_dp:f:0.590570935463998"	1405
1	0	"Chromosome"	"S11_LN:i:145168_dp:f:1.3199463960480273"	145168
1	0	"Chromosome"	"S110_LN:i:1357_dp:f:1.1540650192606576"	1357
1	0	"Chromosome"	"S111_LN:i:1351_dp:f:0.42390182300035306"	1351
1	0	"Chromosome"	"S112_LN:i:1350_dp:f:1.1485364011084627"	1350
1	0	"Chromosome"	"S113_LN:i:1320_dp:f:0.5134942104718087"	1320
1	0	"Chromosome"	"S114_LN:i:1304_dp:f:1.0915971186808013"	1304
1	0	"Chromosome"	"S115_LN:i:1254_dp:f:2.0700101565830935"	1254
1	0	"Chromosome"	"S116_LN:i:1252_dp:f:0.49197774979545117"	1252
1	0	"Chromosome"	"S117_LN:i:1237_dp:f:1.8919375271333472"	1237
1	0	"Chromosome"	"S118_LN:i:1209_dp:f:0.42570508782189764"	1209
1	0	"Chromosome"	"S119_LN:i:1202_dp:f:2.4425187158641686"	1202
1	0	"Chromosome"	"S12_LN:i:141661_dp:f:1.011458196500019"	141661
1	0	"Chromosome"	"S120_LN:i:1182_dp:f:0.5084466071421966"	1182
1	0	"Chromosome"	"S121_LN:i:1172_dp:f:1.650470777995485"	1172
1	0	"Chromosome"	"S122_LN:i:1164_dp:f:1.5564109178923038"	1164
1	0	"Chromosome"	"S123_LN:i:1157_dp:f:0.5931883252031089"	1157
1	0	"Chromosome"	"S124_LN:i:1134_dp:f:2.8044251931683277"	1134
1	0	"Chromosome"	"S125_LN:i:1102_dp:f:2.2817039772689816"	1102
1	0	"Chromosome"	"S126_LN:i:1059_dp:f:1.3417068490536972"	1059
1	0	"Chromosome"	"S127_LN:i:1052_dp:f:2.9427432718004463"	1052
1	0	"Chromosome"	"S128_LN:i:1046_dp:f:1.992333641148595"	1046
1	0	"Chromosome"	"S129_LN:i:1035_dp:f:1.667134406208734"	1035
1	0	"Chromosome"	"S13_LN:i:132868_dp:f:1.0608853762713495"	132868
1	0	"Chromosome"	"S130_LN:i:1034_dp:f:2.530238813103344"	1034
1	0	"Chromosome"	"S131_LN:i:1028_dp:f:2.153539651918842"	1028
1	0	"Chromosome"	"S14_LN:i:127515_dp:f:0.9644106372934678"	127515
1	0	"Chromosome"	"S15_LN:i:123944_dp:f:1.099179642391693"	123944
1	0	"Chromosome"	"S16_LN:i:110815_dp:f:0.9456289887797211"	110815
1	0	"Chromosome"	"S17_LN:i:109078_dp:f:1.1534214870887038"	109078
1	0	"Chromosome"	"S18_LN:i:97912_dp:f:1.065520943197787"	97912
1	0	"Chromosome"	"S19_LN:i:95217_dp:f:1.0831763069780924"	95217
1	0	"Chromosome"	"S2_LN:i:236120_dp:f:0.9988988385118208"	236120
1	0	"Chromosome"	"S20_LN:i:94123_dp:f:0.9718471066953525"	94123
1	0	"Chromosome"	"S21_LN:i:92061_dp:f:1.094277044672953"	92061
1	0	"Chromosome"	"S22_LN:i:89213_dp:f:1.0428947135188902"	89213
1	0	"Chromosome"	"S23_LN:i:82820_dp:f:1.0497091159554155"	82820
1	0	"Chromosome"	"S24_LN:i:80715_dp:f:0.9260401469860997"	80715
1	0	"Chromosome"	"S25_LN:i:77463_dp:f:1.1962287977783967"	77463
1	0	"Chromosome"	"S26_LN:i:59761_dp:f:1.257671920435301"	59761
1	0	"Chromosome"	"S27_LN:i:58089_dp:f:1.004474871042828"	58089
1	0	"Chromosome"	"S28_LN:i:57871_dp:f:1.0294871737913598"	57871
1	0	"Chromosome"	"S29_LN:i:50194_dp:f:0.9667231808244423"	50194
1	0	"Chromosome"	"S3_LN:i:229726_dp:f:1.0841003176356074"	229726
1	0	"Chromosome"	"S30_LN:i:49503_dp:f:1.018943980387189"	49503
1	0	"Chromosome"	"S31_LN:i:46281_dp:f:1.1507683637649995"	46281
1	0	"Chromosome"	"S32_LN:i:44130_dp:f:0.9203811255223843"	44130
1	0	"Chromosome"	"S33_LN:i:43457_dp:f:1.2720135838219602"	43457
1	0	"Chromosome"	"S34_LN:i:43048_dp:f:0.9077921595950875"	43048
1	0	"Chromosome"	"S35_LN:i:42877_dp:f:0.9958424755539227"	42877
1	0	"Chromosome"	"S36_LN:i:42821_dp:f:1.0371551044731506"	42821
0	1	"Plasmid"	"S37_LN:i:41638_dp:f:1.6694159445804886"	41638
1	0	"Chromosome"	"S38_LN:i:40921_dp:f:1.157724952268181"	40921
1	0	"Chromosome"	"S39_LN:i:39744_dp:f:0.9516892925492036"	39744
1	0	"Chromosome"	"S4_LN:i:222680_dp:f:0.9259660222750802"	222680
0	1	"Plasmid"	"S40_LN:i:38637_dp:f:2.061020798530679"	38637
1	0	"Chromosome"	"S41_LN:i:36693_dp:f:1.165807750956759"	36693
1	0	"Chromosome"	"S42_LN:i:35426_dp:f:1.0447106470820935"	35426
1	0	"Chromosome"	"S43_LN:i:32904_dp:f:0.9444701489963729"	32904
1	0	"Chromosome"	"S44_LN:i:30627_dp:f:0.9351072835194002"	30627
1	0	"Chromosome"	"S45_LN:i:30602_dp:f:1.0118803639993224"	30602
1	0	"Chromosome"	"S46_LN:i:28183_dp:f:0.9956340878772119"	28183
1	0	"Chromosome"	"S47_LN:i:28103_dp:f:1.0551663175331032"	28103
1	0	"Chromosome"	"S48_LN:i:26070_dp:f:1.468588820707738"	26070
1	0	"Chromosome"	"S49_LN:i:20272_dp:f:0.889023678435505"	20272
1	0	"Chromosome"	"S5_LN:i:200286_dp:f:1.0"	200286
1	0	"Chromosome"	"S50_LN:i:18154_dp:f:0.8913193701936674"	18154
1	0	"Chromosome"	"S51_LN:i:17899_dp:f:1.1442248124649093"	17899
1	0	"Chromosome"	"S52_LN:i:17811_dp:f:1.170002994309935"	17811
1	0	"Chromosome"	"S53_LN:i:14927_dp:f:1.2084766545967311"	14927
1	0	"Chromosome"	"S54_LN:i:13622_dp:f:0.8928157123824038"	13622
1	0	"Chromosome"	"S55_LN:i:12311_dp:f:0.9343410960103206"	12311
1	0	"Chromosome"	"S56_LN:i:10178_dp:f:1.900585603558867"	10178
1	0	"Chromosome"	"S57_LN:i:8618_dp:f:0.6525862671888906"	8618
1	0	"Chromosome"	"S58_LN:i:8476_dp:f:1.2887182619661064"	8476
1	0	"Chromosome"	"S59_LN:i:8172_dp:f:0.6196990819803143"	8172
1	0	"Chromosome"	"S6_LN:i:196353_dp:f:0.9115472188476285"	196353
1	0	"Chromosome"	"S60_LN:i:7719_dp:f:0.7388164570228137"	7719
1	0	"Chromosome"	"S61_LN:i:7560_dp:f:0.7697703766700644"	7560
1	0	"Chromosome"	"S62_LN:i:7050_dp:f:0.8686969385175015"	7050
1	0	"Chromosome"	"S63_LN:i:7010_dp:f:0.7230805930777027"	7010
1	0	"Chromosome"	"S64_LN:i:6185_dp:f:1.1005785455404784"	6185
1	0	"Chromosome"	"S65_LN:i:6183_dp:f:0.7911383502312562"	6183
1	0	"Chromosome"	"S66_LN:i:5987_dp:f:0.5422860744160466"	5987
1	0	"Chromosome"	"S67_LN:i:5729_dp:f:1.227981908998312"	5729
1	0	"Chromosome"	"S68_LN:i:5628_dp:f:0.98190295497822"	5628
1	0	"Chromosome"	"S69_LN:i:5578_dp:f:1.0160792614591587"	5578
1	0	"Chromosome"	"S7_LN:i:183520_dp:f:1.1985928796807237"	183520
1	0	"Chromosome"	"S70_LN:i:4973_dp:f:0.867842213029104"	4973
0.67	0.33	"Chromosome"	"S71_LN:i:4928_dp:f:0.767931728348577"	4928
1	0	"Chromosome"	"S72_LN:i:4895_dp:f:1.0261317041256532"	4895
1	0	"Chromosome"	"S73_LN:i:4640_dp:f:0.9053642532606555"	4640
1	0	"Chromosome"	"S74_LN:i:4272_dp:f:0.8491170900477377"	4272
0	1	"Plasmid"	"S75_LN:i:4206_dp:f:1.6155377674805274"	4206
1	0	"Chromosome"	"S76_LN:i:4145_dp:f:1.05175614189625"	4145
1	0	"Chromosome"	"S77_LN:i:4144_dp:f:1.194890905979727"	4144
1	0	"Chromosome"	"S78_LN:i:3889_dp:f:0.8420916490588485"	3889
1	0	"Chromosome"	"S79_LN:i:3623_dp:f:2.900738136890868"	3623
1	0	"Chromosome"	"S8_LN:i:178244_dp:f:0.9846524920669271"	178244
1	0	"Chromosome"	"S80_LN:i:3462_dp:f:0.6415526423819415"	3462
0	1	"Plasmid"	"S81_LN:i:3238_dp:f:1.029562261224423"	3238
1	0	"Chromosome"	"S82_LN:i:3082_dp:f:0.5085230199490456"	3082
1	0	"Chromosome"	"S83_LN:i:3056_dp:f:1.0680153754155461"	3056
1	0	"Chromosome"	"S84_LN:i:3006_dp:f:0.6645038798584667"	3006
1	0	"Chromosome"	"S85_LN:i:2747_dp:f:1.1738690152553588"	2747
1	0	"Chromosome"	"S86_LN:i:2643_dp:f:0.7763061545907288"	2643
1	0	"Chromosome"	"S87_LN:i:2638_dp:f:0.5438172272249359"	2638
1	0	"Chromosome"	"S88_LN:i:2632_dp:f:3.2086558316014604"	2632
1	0	"Chromosome"	"S89_LN:i:2390_dp:f:0.8680313118911046"	2390
1	0	"Chromosome"	"S9_LN:i:174453_dp:f:1.082207643971728"	174453
1	0	"Chromosome"	"S90_LN:i:2315_dp:f:1.0777823268310993"	2315
1	0	"Chromosome"	"S91_LN:i:2258_dp:f:0.734003191376891"	2258
1	0	"Chromosome"	"S92_LN:i:2217_dp:f:0.6401628090072877"	2217
1	0	"Chromosome"	"S93_LN:i:1863_dp:f:1.3103767150263863"	1863
1	0	"Chromosome"	"S94_LN:i:1835_dp:f:2.2081468272067757"	1835
1	0	"Chromosome"	"S95_LN:i:1826_dp:f:0.983074560383"	1826
1	0	"Chromosome"	"S96_LN:i:1777_dp:f:0.43416944898291154"	1777
1	0	"Chromosome"	"S97_LN:i:1732_dp:f:3.8367055943135484"	1732
1	0	"Chromosome"	"S98_LN:i:1732_dp:f:1.5658698506226254"	1732
1	0	"Chromosome"	"S99_LN:i:1677_dp:f:1.3353312756527853"	1677
