"Prob_Chromosome"	"Prob_Plasmid"	"Prediction"	"Contig_name"	"Contig_length"
1	0	"Chromosome"	"S1_LN:i:617816_dp:f:1.0"	617816
1	0	"Chromosome"	"S10_LN:i:154504_dp:f:1.0351963123722465"	154504
1	0	"Chromosome"	"S11_LN:i:145164_dp:f:1.0297845358880424"	145164
0	1	"Plasmid"	"S12_LN:i:141832_dp:f:0.6950127726829756"	141832
1	0	"Chromosome"	"S13_LN:i:134800_dp:f:0.9973734095244592"	134800
1	0	"Chromosome"	"S14_LN:i:131643_dp:f:1.0032759741768784"	131643
1	0	"Chromosome"	"S15_LN:i:120633_dp:f:0.9955825714948084"	120633
1	0	"Chromosome"	"S16_LN:i:120588_dp:f:1.0170251488932025"	120588
1	0	"Chromosome"	"S17_LN:i:111702_dp:f:1.040727890858902"	111702
1	0	"Chromosome"	"S18_LN:i:94674_dp:f:1.0360444010644692"	94674
1	0	"Chromosome"	"S19_LN:i:84450_dp:f:0.9559867521301666"	84450
1	0	"Chromosome"	"S2_LN:i:465375_dp:f:0.9441773931382308"	465375
1	0	"Chromosome"	"S20_LN:i:71927_dp:f:1.0348199045868638"	71927
1	0	"Chromosome"	"S21_LN:i:70863_dp:f:0.8949757535169599"	70863
0	1	"Plasmid"	"S22_LN:i:69716_dp:f:3.2108887753588538"	69716
1	0	"Chromosome"	"S23_LN:i:60714_dp:f:1.046844600827959"	60714
1	0	"Chromosome"	"S24_LN:i:59355_dp:f:1.0551231857773757"	59355
0	1	"Plasmid"	"S25_LN:i:54303_dp:f:0.6849531370243622"	54303
1	0	"Chromosome"	"S26_LN:i:52254_dp:f:1.009194329954401"	52254
1	0	"Chromosome"	"S27_LN:i:47344_dp:f:0.9654115312618544"	47344
1	0	"Chromosome"	"S28_LN:i:47055_dp:f:1.0814343584247468"	47055
0.33	0.67	"Plasmid"	"S29_LN:i:46459_dp:f:3.962236838467568"	46459
1	0	"Chromosome"	"S3_LN:i:319631_dp:f:0.9494108779774914"	319631
1	0	"Chromosome"	"S30_LN:i:43520_dp:f:1.0261125729306533"	43520
1	0	"Chromosome"	"S31_LN:i:42005_dp:f:1.0426248882572087"	42005
1	0	"Chromosome"	"S32_LN:i:40246_dp:f:1.0220484636998617"	40246
1	0	"Chromosome"	"S33_LN:i:36769_dp:f:1.0100669475276176"	36769
1	0	"Chromosome"	"S34_LN:i:32510_dp:f:1.0794198845952996"	32510
1	0	"Chromosome"	"S35_LN:i:30771_dp:f:1.1051589974172562"	30771
1	0	"Chromosome"	"S36_LN:i:30361_dp:f:0.9564527226906456"	30361
1	0	"Chromosome"	"S37_LN:i:29579_dp:f:0.9783581671572908"	29579
1	0	"Chromosome"	"S38_LN:i:27648_dp:f:1.017372974742148"	27648
1	0	"Chromosome"	"S39_LN:i:26141_dp:f:1.0336129362581234"	26141
1	0	"Chromosome"	"S4_LN:i:261255_dp:f:1.0353345373539853"	261255
1	0	"Chromosome"	"S40_LN:i:24259_dp:f:1.01076089978015"	24259
0.5	0.5	"Plasmid"	"S41_LN:i:23562_dp:f:4.224425364905267"	23562
1	0	"Chromosome"	"S42_LN:i:12840_dp:f:0.8066310408356916"	12840
1	0	"Chromosome"	"S43_LN:i:12427_dp:f:0.9655063919069027"	12427
1	0	"Chromosome"	"S44_LN:i:9669_dp:f:0.9605085542366983"	9669
0	1	"Plasmid"	"S45_LN:i:6084_dp:f:0.8438716196267474"	6084
1	0	"Chromosome"	"S46_LN:i:5876_dp:f:0.8379761004834935"	5876
1	0	"Chromosome"	"S47_LN:i:4443_dp:f:0.9826663977964432"	4443
0	1	"Plasmid"	"S48_LN:i:4386_dp:f:0.829372366468009"	4386
0	1	"Plasmid"	"S49_LN:i:2445_dp:f:0.8406782856712436"	2445
1	0	"Chromosome"	"S5_LN:i:242587_dp:f:1.0112985500115195"	242587
1	0	"Chromosome"	"S50_LN:i:2225_dp:f:3.362651609934155"	2225
1	0	"Chromosome"	"S51_LN:i:1792_dp:f:1.5400377923733393"	1792
1	0	"Chromosome"	"S52_LN:i:1752_dp:f:0.9269153875125771"	1752
1	0	"Chromosome"	"S53_LN:i:1708_dp:f:7.454256716215532"	1708
1	0	"Chromosome"	"S54_LN:i:1687_dp:f:7.473116214837836"	1687
0	1	"Plasmid"	"S55_LN:i:1560_dp:f:0.8054784992514743"	1560
0.5	0.5	"Plasmid"	"S56_LN:i:1441_dp:f:3.861607895520442"	1441
1	0	"Chromosome"	"S57_LN:i:1400_dp:f:1.9715595520436795"	1400
1	0	"Chromosome"	"S58_LN:i:1317_dp:f:3.9631593051336473"	1317
1	0	"Chromosome"	"S59_LN:i:1282_dp:f:10.2096801386545"	1282
1	0	"Chromosome"	"S6_LN:i:236002_dp:f:0.9860867554938507"	236002
1	0	"Chromosome"	"S60_LN:i:1247_dp:f:2.0795877968922327"	1247
1	0	"Chromosome"	"S61_LN:i:1239_dp:f:6.950935184642731"	1239
1	0	"Chromosome"	"S62_LN:i:1237_dp:f:1.0206345789951823"	1237
1	0	"Chromosome"	"S63_LN:i:1237_dp:f:1.0914090857817604"	1237
1	0	"Chromosome"	"S64_LN:i:1213_dp:f:5.276988809303373"	1213
0.5	0.5	"Plasmid"	"S65_LN:i:1084_dp:f:1.4177911132074705"	1084
1	0	"Chromosome"	"S66_LN:i:1079_dp:f:2.0765108435287414"	1079
0	1	"Plasmid"	"S67_LN:i:1047_dp:f:0.8567324909189188"	1047
0	1	"Plasmid"	"S68_LN:i:1040_dp:f:0.6394096582626825"	1040
1	0	"Chromosome"	"S7_LN:i:192941_dp:f:1.0346114617354982"	192941
1	0	"Chromosome"	"S8_LN:i:184257_dp:f:1.0213154826863213"	184257
1	0	"Chromosome"	"S9_LN:i:157869_dp:f:1.0232228496738054"	157869
