"Prob_Chromosome"	"Prob_Plasmid"	"Prediction"	"Contig_name"	"Contig_length"
1	0	"Chromosome"	"S1_LN:i:632122_dp:f:0.9871969604570092"	632122
1	0	"Chromosome"	"S10_LN:i:157235_dp:f:1.0530280452260268"	157235
1	0	"Chromosome"	"S11_LN:i:134789_dp:f:0.9846799123617077"	134789
1	0	"Chromosome"	"S12_LN:i:134086_dp:f:0.9857051381534934"	134086
1	0	"Chromosome"	"S13_LN:i:122437_dp:f:0.9796110422096899"	122437
1	0	"Chromosome"	"S14_LN:i:102565_dp:f:1.0116498188114371"	102565
1	0	"Chromosome"	"S15_LN:i:92013_dp:f:1.027889322415961"	92013
1	0	"Chromosome"	"S16_LN:i:91604_dp:f:1.0156197892839616"	91604
1	0	"Chromosome"	"S17_LN:i:57360_dp:f:0.9974413168273382"	57360
1	0	"Chromosome"	"S18_LN:i:55285_dp:f:0.9914024071760639"	55285
1	0	"Chromosome"	"S19_LN:i:47008_dp:f:1.0334630537819847"	47008
1	0	"Chromosome"	"S2_LN:i:615509_dp:f:1.0156534215119022"	615509
1	0	"Chromosome"	"S20_LN:i:44010_dp:f:0.9985651093594438"	44010
1	0	"Chromosome"	"S21_LN:i:43617_dp:f:1.0052957589760567"	43617
1	0	"Chromosome"	"S22_LN:i:40768_dp:f:1.06308651262566"	40768
1	0	"Chromosome"	"S23_LN:i:37338_dp:f:0.9768122503161633"	37338
1	0	"Chromosome"	"S24_LN:i:36809_dp:f:1.0478375895660674"	36809
1	0	"Chromosome"	"S25_LN:i:36676_dp:f:0.9887579719523427"	36676
1	0	"Chromosome"	"S26_LN:i:32708_dp:f:1.0222759820104048"	32708
1	0	"Chromosome"	"S27_LN:i:30711_dp:f:1.0205447833375405"	30711
1	0	"Chromosome"	"S28_LN:i:26064_dp:f:1.0666248863899286"	26064
1	0	"Chromosome"	"S29_LN:i:25344_dp:f:1.0082045921362988"	25344
1	0	"Chromosome"	"S3_LN:i:434690_dp:f:1.0170968721622808"	434690
1	0	"Chromosome"	"S30_LN:i:24440_dp:f:0.9790598860313201"	24440
1	0	"Chromosome"	"S31_LN:i:17217_dp:f:1.0062669908597328"	17217
1	0	"Chromosome"	"S32_LN:i:16406_dp:f:0.9650313975082165"	16406
1	0	"Chromosome"	"S33_LN:i:16199_dp:f:0.9930483096563798"	16199
1	0	"Chromosome"	"S34_LN:i:15143_dp:f:0.9905560298735224"	15143
1	0	"Chromosome"	"S35_LN:i:8187_dp:f:1.0277804228827194"	8187
1	0	"Chromosome"	"S36_LN:i:7324_dp:f:1.0408765794484396"	7324
1	0	"Chromosome"	"S37_LN:i:4885_dp:f:0.9849156258308406"	4885
1	0	"Chromosome"	"S38_LN:i:4430_dp:f:1.0905458591636275"	4430
1	0	"Chromosome"	"S39_LN:i:2957_dp:f:6.952728232148276"	2957
1	0	"Chromosome"	"S4_LN:i:360349_dp:f:0.9685406909642594"	360349
1	0	"Chromosome"	"S40_LN:i:2699_dp:f:0.8930769173105078"	2699
1	0	"Chromosome"	"S41_LN:i:2673_dp:f:0.871944431113715"	2673
1	0	"Chromosome"	"S42_LN:i:2313_dp:f:0.9643815458749666"	2313
1	0	"Chromosome"	"S43_LN:i:2250_dp:f:0.9909217297014308"	2250
1	0	"Chromosome"	"S44_LN:i:2070_dp:f:0.9054231359742871"	2070
1	0	"Chromosome"	"S45_LN:i:1961_dp:f:0.9819199929818049"	1961
1	0	"Chromosome"	"S46_LN:i:1922_dp:f:0.8954019476706846"	1922
1	0	"Chromosome"	"S47_LN:i:1791_dp:f:2.639480446911528"	1791
1	0	"Chromosome"	"S48_LN:i:1735_dp:f:1.0279493944375535"	1735
1	0	"Chromosome"	"S49_LN:i:1463_dp:f:6.61188196222574"	1463
1	0	"Chromosome"	"S5_LN:i:317511_dp:f:0.9807130631659192"	317511
1	0	"Chromosome"	"S50_LN:i:1413_dp:f:0.9161301887335278"	1413
1	0	"Chromosome"	"S51_LN:i:1326_dp:f:0.9793445949970643"	1326
1	0	"Chromosome"	"S52_LN:i:1318_dp:f:0.8268898576951551"	1318
1	0	"Chromosome"	"S53_LN:i:1318_dp:f:0.7763090129103183"	1318
1	0	"Chromosome"	"S54_LN:i:1288_dp:f:8.083035843445627"	1288
1	0	"Chromosome"	"S55_LN:i:1259_dp:f:1.8652255324528715"	1259
1	0	"Chromosome"	"S56_LN:i:1186_dp:f:0.9369846519530396"	1186
1	0	"Chromosome"	"S57_LN:i:1108_dp:f:2.0517747382257823"	1108
1	0	"Chromosome"	"S58_LN:i:1107_dp:f:0.8530210351351427"	1107
1	0	"Chromosome"	"S59_LN:i:1079_dp:f:1.9380903114465868"	1079
1	0	"Chromosome"	"S6_LN:i:279971_dp:f:1.0181267578410702"	279971
1	0	"Chromosome"	"S7_LN:i:268826_dp:f:0.9760345050450369"	268826
1	0	"Chromosome"	"S8_LN:i:184479_dp:f:1.039560964483452"	184479
1	0	"Chromosome"	"S9_LN:i:167382_dp:f:1.0"	167382
