"Prob_Chromosome"	"Prob_Plasmid"	"Prediction"	"Contig_name"	"Contig_length"
1	0	"Chromosome"	"S1_LN:i:304983_dp:f:0.9945600231626083"	304983
1	0	"Chromosome"	"S10_LN:i:161364_dp:f:0.9830155974705036"	161364
1	0	"Chromosome"	"S100_LN:i:1655_dp:f:1.9372507833121586"	1655
1	0	"Chromosome"	"S101_LN:i:1643_dp:f:6.970635719433682"	1643
1	0	"Chromosome"	"S102_LN:i:1535_dp:f:0.9485019141521387"	1535
1	0	"Chromosome"	"S103_LN:i:1474_dp:f:0.9698781720705029"	1474
1	0	"Chromosome"	"S104_LN:i:1474_dp:f:0.8947518222634882"	1474
1	0	"Chromosome"	"S105_LN:i:1401_dp:f:1.8205302971283523"	1401
1	0	"Chromosome"	"S106_LN:i:1293_dp:f:10.85057856126489"	1293
1	0	"Chromosome"	"S107_LN:i:1231_dp:f:1.9759157931132614"	1231
1	0	"Chromosome"	"S108_LN:i:1220_dp:f:1.9270815122260379"	1220
1	0	"Chromosome"	"S109_LN:i:1195_dp:f:1.9828922258991366"	1195
1	0	"Chromosome"	"S11_LN:i:133574_dp:f:1.010666650163889"	133574
1	0	"Chromosome"	"S110_LN:i:1190_dp:f:7.027299054435759"	1190
1	0	"Chromosome"	"S111_LN:i:1169_dp:f:3.1784239890630506"	1169
1	0	"Chromosome"	"S112_LN:i:1151_dp:f:1.9887006213645126"	1151
1	0	"Chromosome"	"S113_LN:i:1133_dp:f:1.93860737152126"	1133
1	0	"Chromosome"	"S114_LN:i:1132_dp:f:0.9486436763264529"	1132
1	0	"Chromosome"	"S115_LN:i:1129_dp:f:1.936783199067766"	1129
1	0	"Chromosome"	"S116_LN:i:1110_dp:f:3.0546144785622182"	1110
1	0	"Chromosome"	"S117_LN:i:1093_dp:f:2.018519360478107"	1093
1	0	"Chromosome"	"S118_LN:i:1093_dp:f:1.9449687930312631"	1093
1	0	"Chromosome"	"S119_LN:i:1065_dp:f:2.0527025186515906"	1065
1	0	"Chromosome"	"S12_LN:i:131167_dp:f:1.0366095655588896"	131167
1	0	"Chromosome"	"S120_LN:i:1055_dp:f:1.965918204149108"	1055
1	0	"Chromosome"	"S121_LN:i:1050_dp:f:1.922269222421226"	1050
1	0	"Chromosome"	"S122_LN:i:1038_dp:f:2.6149716492428445"	1038
1	0	"Chromosome"	"S123_LN:i:1034_dp:f:2.095183512966567"	1034
1	0	"Chromosome"	"S124_LN:i:1034_dp:f:2.8518860903094874"	1034
1	0	"Chromosome"	"S125_LN:i:1016_dp:f:0.9931305690947925"	1016
1	0	"Chromosome"	"S126_LN:i:1016_dp:f:2.2492474558730784"	1016
1	0	"Chromosome"	"S127_LN:i:1011_dp:f:1.0086610636076772"	1011
1	0	"Chromosome"	"S128_LN:i:1003_dp:f:0.9655037714918941"	1003
1	0	"Chromosome"	"S13_LN:i:126833_dp:f:0.9789952413608582"	126833
1	0	"Chromosome"	"S14_LN:i:124810_dp:f:0.9772742279033256"	124810
1	0	"Chromosome"	"S15_LN:i:110475_dp:f:1.0321369468360857"	110475
1	0	"Chromosome"	"S16_LN:i:109601_dp:f:0.9982496408774334"	109601
1	0	"Chromosome"	"S17_LN:i:107414_dp:f:0.9996870294805653"	107414
1	0	"Chromosome"	"S18_LN:i:91805_dp:f:1.0306049334354974"	91805
1	0	"Chromosome"	"S19_LN:i:89317_dp:f:0.9777113186080314"	89317
1	0	"Chromosome"	"S2_LN:i:267542_dp:f:1.022182178587237"	267542
0	1	"Plasmid"	"S20_LN:i:82709_dp:f:1.2905999336843519"	82709
1	0	"Chromosome"	"S21_LN:i:80713_dp:f:0.9990093785860176"	80713
1	0	"Chromosome"	"S22_LN:i:79652_dp:f:1.0171519922287888"	79652
1	0	"Chromosome"	"S23_LN:i:75697_dp:f:1.013189293991604"	75697
1	0	"Chromosome"	"S24_LN:i:75303_dp:f:0.9824996544860458"	75303
1	0	"Chromosome"	"S25_LN:i:73093_dp:f:0.9832611131254533"	73093
1	0	"Chromosome"	"S26_LN:i:72681_dp:f:1.016993585526718"	72681
1	0	"Chromosome"	"S27_LN:i:60046_dp:f:0.9520601130975942"	60046
1	0	"Chromosome"	"S28_LN:i:58015_dp:f:1.0198411630944724"	58015
1	0	"Chromosome"	"S29_LN:i:56551_dp:f:0.9975786332815475"	56551
1	0	"Chromosome"	"S3_LN:i:233215_dp:f:0.9911609160059692"	233215
1	0	"Chromosome"	"S30_LN:i:56013_dp:f:0.9824668634789256"	56013
1	0	"Chromosome"	"S31_LN:i:49754_dp:f:0.9728571502756443"	49754
1	0	"Chromosome"	"S32_LN:i:47871_dp:f:0.9890491080286006"	47871
1	0	"Chromosome"	"S33_LN:i:43600_dp:f:1.009563043546721"	43600
1	0	"Chromosome"	"S34_LN:i:42022_dp:f:1.0197858155731756"	42022
1	0	"Chromosome"	"S35_LN:i:41890_dp:f:0.9551733487860552"	41890
1	0	"Chromosome"	"S36_LN:i:41870_dp:f:1.0404352473280547"	41870
1	0	"Chromosome"	"S37_LN:i:41306_dp:f:0.9794639734799033"	41306
1	0	"Chromosome"	"S38_LN:i:40601_dp:f:1.0454726551054396"	40601
1	0	"Chromosome"	"S39_LN:i:39149_dp:f:1.0097456554316855"	39149
1	0	"Chromosome"	"S4_LN:i:217534_dp:f:0.9845427698345129"	217534
1	0	"Chromosome"	"S40_LN:i:37923_dp:f:0.9784314851836083"	37923
1	0	"Chromosome"	"S41_LN:i:37519_dp:f:1.025348765493251"	37519
1	0	"Chromosome"	"S42_LN:i:36523_dp:f:0.9840865146138668"	36523
1	0	"Chromosome"	"S43_LN:i:36354_dp:f:1.0444393499134588"	36354
1	0	"Chromosome"	"S44_LN:i:31959_dp:f:0.9608712987468054"	31959
1	0	"Chromosome"	"S45_LN:i:29791_dp:f:1.039308368590137"	29791
1	0	"Chromosome"	"S46_LN:i:28157_dp:f:0.9645747416371219"	28157
1	0	"Chromosome"	"S47_LN:i:26241_dp:f:0.9946067858057415"	26241
1	0	"Chromosome"	"S48_LN:i:26211_dp:f:1.032117782320145"	26211
1	0	"Chromosome"	"S49_LN:i:24929_dp:f:1.042687462029679"	24929
1	0	"Chromosome"	"S5_LN:i:217445_dp:f:1.015570520402948"	217445
1	0	"Chromosome"	"S50_LN:i:24288_dp:f:1.0101432692298575"	24288
1	0	"Chromosome"	"S51_LN:i:23830_dp:f:0.956922959294718"	23830
1	0	"Chromosome"	"S52_LN:i:22657_dp:f:1.0268009766516806"	22657
1	0	"Chromosome"	"S53_LN:i:19166_dp:f:0.9329740946971014"	19166
0.67	0.33	"Chromosome"	"S54_LN:i:17606_dp:f:1.0005754918353442"	17606
1	0	"Chromosome"	"S55_LN:i:15967_dp:f:0.9992175188560743"	15967
1	0	"Chromosome"	"S56_LN:i:13329_dp:f:0.9657001752338419"	13329
1	0	"Chromosome"	"S57_LN:i:11809_dp:f:1.034401304265088"	11809
1	0	"Chromosome"	"S58_LN:i:10939_dp:f:0.9601817827357402"	10939
1	0	"Chromosome"	"S59_LN:i:10549_dp:f:1.0130970501567822"	10549
1	0	"Chromosome"	"S6_LN:i:217098_dp:f:1.0"	217098
1	0	"Chromosome"	"S60_LN:i:10426_dp:f:0.9782455793974667"	10426
0.67	0.33	"Chromosome"	"S61_LN:i:10010_dp:f:0.9215618107381"	10010
1	0	"Chromosome"	"S62_LN:i:8569_dp:f:0.9673225476786426"	8569
1	0	"Chromosome"	"S63_LN:i:5920_dp:f:1.0495863384151076"	5920
1	0	"Chromosome"	"S64_LN:i:5123_dp:f:0.9952715050448343"	5123
1	0	"Chromosome"	"S65_LN:i:5063_dp:f:0.9404071391614857"	5063
1	0	"Chromosome"	"S66_LN:i:4991_dp:f:0.9627822534023763"	4991
1	0	"Chromosome"	"S67_LN:i:4698_dp:f:1.0403949068102956"	4698
1	0	"Chromosome"	"S68_LN:i:4449_dp:f:1.005131648496227"	4449
1	0	"Chromosome"	"S69_LN:i:4413_dp:f:1.0726374082068346"	4413
1	0	"Chromosome"	"S7_LN:i:213109_dp:f:1.0114922770754067"	213109
1	0	"Chromosome"	"S70_LN:i:4344_dp:f:0.9649210504290782"	4344
1	0	"Chromosome"	"S71_LN:i:3761_dp:f:0.9546239160881669"	3761
1	0	"Chromosome"	"S72_LN:i:3629_dp:f:0.9371227204269934"	3629
1	0	"Chromosome"	"S73_LN:i:3621_dp:f:1.0163846554119536"	3621
1	0	"Chromosome"	"S74_LN:i:3504_dp:f:1.0204735422129156"	3504
1	0	"Chromosome"	"S75_LN:i:3486_dp:f:0.9805951290887358"	3486
1	0	"Chromosome"	"S76_LN:i:3461_dp:f:0.9954673424421014"	3461
1	0	"Chromosome"	"S77_LN:i:3394_dp:f:0.9464295071902051"	3394
1	0	"Chromosome"	"S78_LN:i:3267_dp:f:1.0071805049360858"	3267
1	0	"Chromosome"	"S79_LN:i:3265_dp:f:0.997357343011547"	3265
1	0	"Chromosome"	"S8_LN:i:200626_dp:f:1.0155664279802732"	200626
1	0	"Chromosome"	"S80_LN:i:3234_dp:f:1.8230749356029845"	3234
0.67	0.33	"Chromosome"	"S81_LN:i:3146_dp:f:0.9479695370037607"	3146
1	0	"Chromosome"	"S82_LN:i:3006_dp:f:0.9590286604836816"	3006
1	0	"Chromosome"	"S83_LN:i:2822_dp:f:0.9795673321062388"	2822
1	0	"Chromosome"	"S84_LN:i:2735_dp:f:1.8702909128602936"	2735
0.67	0.33	"Chromosome"	"S85_LN:i:2706_dp:f:1.017717539182825"	2706
1	0	"Chromosome"	"S86_LN:i:2587_dp:f:0.9794135169027787"	2587
1	0	"Chromosome"	"S87_LN:i:2514_dp:f:0.9263885452889703"	2514
1	0	"Chromosome"	"S88_LN:i:2479_dp:f:0.9482634428224421"	2479
1	0	"Chromosome"	"S89_LN:i:2392_dp:f:0.9787158586519131"	2392
1	0	"Chromosome"	"S9_LN:i:188863_dp:f:1.026081508782414"	188863
1	0	"Chromosome"	"S90_LN:i:2316_dp:f:0.9944323088585332"	2316
1	0	"Chromosome"	"S91_LN:i:2264_dp:f:0.9687833990974013"	2264
1	0	"Chromosome"	"S92_LN:i:2198_dp:f:2.0727435616584113"	2198
1	0	"Chromosome"	"S93_LN:i:2136_dp:f:1.0254764291176672"	2136
1	0	"Chromosome"	"S94_LN:i:2079_dp:f:0.9599632799889365"	2079
1	0	"Chromosome"	"S95_LN:i:1892_dp:f:2.0079535735608736"	1892
1	0	"Chromosome"	"S96_LN:i:1858_dp:f:0.9628539777175571"	1858
1	0	"Chromosome"	"S97_LN:i:1759_dp:f:2.05495739363781"	1759
1	0	"Chromosome"	"S98_LN:i:1740_dp:f:0.884463072398301"	1740
1	0	"Chromosome"	"S99_LN:i:1696_dp:f:0.8976796512417433"	1696
