"Prob_Chromosome"	"Prob_Plasmid"	"Prediction"	"Contig_name"	"Contig_length"
1	0	"Chromosome"	"S1_LN:i:211190_dp:f:1.0284750013616033"	211190
1	0	"Chromosome"	"S10_LN:i:105663_dp:f:0.9938224070023951"	105663
0	1	"Plasmid"	"S100_LN:i:9225_dp:f:4.957738776905244"	9225
1	0	"Chromosome"	"S101_LN:i:9194_dp:f:0.9417807818913273"	9194
1	0	"Chromosome"	"S102_LN:i:9149_dp:f:1.0144117335107248"	9149
1	0	"Chromosome"	"S103_LN:i:8796_dp:f:0.8854482752602851"	8796
1	0	"Chromosome"	"S104_LN:i:8604_dp:f:0.85746511762472"	8604
1	0	"Chromosome"	"S105_LN:i:8319_dp:f:0.9564543605516443"	8319
1	0	"Chromosome"	"S106_LN:i:7217_dp:f:0.9406255876600724"	7217
1	0	"Chromosome"	"S107_LN:i:7093_dp:f:0.9163062535416004"	7093
1	0	"Chromosome"	"S108_LN:i:6862_dp:f:0.8103082824579892"	6862
1	0	"Chromosome"	"S109_LN:i:5627_dp:f:0.9636462010645612"	5627
1	0	"Chromosome"	"S11_LN:i:103887_dp:f:0.9741103160805414"	103887
1	0	"Chromosome"	"S110_LN:i:5498_dp:f:0.8710258463942194"	5498
1	0	"Chromosome"	"S111_LN:i:5479_dp:f:0.9434998240045789"	5479
1	0	"Chromosome"	"S112_LN:i:5167_dp:f:0.8161078729873974"	5167
1	0	"Chromosome"	"S113_LN:i:4996_dp:f:0.8797763069276809"	4996
1	0	"Chromosome"	"S114_LN:i:4269_dp:f:1.2734992956595492"	4269
1	0	"Chromosome"	"S115_LN:i:4249_dp:f:0.9256716366964081"	4249
1	0	"Chromosome"	"S116_LN:i:4224_dp:f:1.2107578894197875"	4224
0.33	0.67	"Plasmid"	"S117_LN:i:4012_dp:f:2.7482856493621006"	4012
1	0	"Chromosome"	"S118_LN:i:3804_dp:f:0.8970496634997155"	3804
1	0	"Chromosome"	"S119_LN:i:3783_dp:f:1.0008309818682972"	3783
1	0	"Chromosome"	"S12_LN:i:100535_dp:f:0.9873038048258785"	100535
1	0	"Chromosome"	"S120_LN:i:3681_dp:f:0.8705038162055423"	3681
1	0	"Chromosome"	"S121_LN:i:3654_dp:f:0.9492500207354269"	3654
1	0	"Chromosome"	"S122_LN:i:3030_dp:f:7.1262375316340325"	3030
1	0	"Chromosome"	"S123_LN:i:2997_dp:f:1.2127023189119257"	2997
0	1	"Plasmid"	"S124_LN:i:2974_dp:f:19.93271198671288"	2974
1	0	"Chromosome"	"S125_LN:i:2967_dp:f:0.8290489620081531"	2967
1	0	"Chromosome"	"S126_LN:i:2776_dp:f:2.3685562116738135"	2776
1	0	"Chromosome"	"S127_LN:i:2684_dp:f:0.8056497490167922"	2684
1	0	"Chromosome"	"S128_LN:i:2634_dp:f:0.9658155242382213"	2634
1	0	"Chromosome"	"S129_LN:i:2608_dp:f:0.9046483257572708"	2608
1	0	"Chromosome"	"S13_LN:i:97704_dp:f:0.9059846305832475"	97704
0	1	"Plasmid"	"S130_LN:i:2519_dp:f:37.688108869394725"	2519
1	0	"Chromosome"	"S131_LN:i:2517_dp:f:0.9171125879076297"	2517
1	0	"Chromosome"	"S132_LN:i:2344_dp:f:2.4210462169650078"	2344
1	0	"Chromosome"	"S133_LN:i:2257_dp:f:0.8439667942953832"	2257
1	0	"Chromosome"	"S134_LN:i:2234_dp:f:0.8239507547980947"	2234
0	1	"Plasmid"	"S135_LN:i:2201_dp:f:7.352427424023192"	2201
1	0	"Chromosome"	"S136_LN:i:2065_dp:f:0.7988205176027318"	2065
1	0	"Chromosome"	"S137_LN:i:1962_dp:f:0.8336861604316473"	1962
1	0	"Chromosome"	"S138_LN:i:1800_dp:f:1.3672022848160452"	1800
1	0	"Chromosome"	"S139_LN:i:1743_dp:f:0.9552067576780563"	1743
1	0	"Chromosome"	"S14_LN:i:93625_dp:f:1.0747728517976571"	93625
1	0	"Chromosome"	"S140_LN:i:1657_dp:f:0.843597504534418"	1657
0.33	0.67	"Plasmid"	"S141_LN:i:1603_dp:f:42.4609025797632"	1603
0	1	"Plasmid"	"S142_LN:i:1552_dp:f:30.21802662402974"	1552
1	0	"Chromosome"	"S143_LN:i:1377_dp:f:10.47707119036712"	1377
1	0	"Chromosome"	"S144_LN:i:1343_dp:f:17.530712380521585"	1343
1	0	"Chromosome"	"S145_LN:i:1288_dp:f:7.6667145611276055"	1288
0.33	0.67	"Plasmid"	"S146_LN:i:1228_dp:f:3.3564422685282733"	1228
0.33	0.67	"Plasmid"	"S147_LN:i:1223_dp:f:4.690830477197498"	1223
1	0	"Chromosome"	"S148_LN:i:1127_dp:f:0.7363124069181611"	1127
1	0	"Chromosome"	"S149_LN:i:1069_dp:f:0.8632565380688125"	1069
1	0	"Chromosome"	"S15_LN:i:87190_dp:f:1.0342464038070163"	87190
1	0	"Chromosome"	"S150_LN:i:1062_dp:f:6.4186907196246565"	1062
1	0	"Chromosome"	"S151_LN:i:1055_dp:f:1.0037744738035999"	1055
1	0	"Chromosome"	"S152_LN:i:1050_dp:f:1.0224871885649056"	1050
1	0	"Chromosome"	"S16_LN:i:79931_dp:f:0.9420415001177604"	79931
1	0	"Chromosome"	"S17_LN:i:76516_dp:f:1.0041402801697579"	76516
1	0	"Chromosome"	"S18_LN:i:76000_dp:f:1.0376170779977882"	76000
1	0	"Chromosome"	"S19_LN:i:75930_dp:f:1.0683984657206027"	75930
1	0	"Chromosome"	"S2_LN:i:197040_dp:f:0.9589287484936679"	197040
1	0	"Chromosome"	"S20_LN:i:73982_dp:f:0.9649534557856254"	73982
1	0	"Chromosome"	"S21_LN:i:70769_dp:f:0.9313799392106757"	70769
1	0	"Chromosome"	"S22_LN:i:69589_dp:f:1.0165196332597641"	69589
1	0	"Chromosome"	"S23_LN:i:62632_dp:f:1.0063373559826903"	62632
1	0	"Chromosome"	"S24_LN:i:54680_dp:f:0.9258063843937322"	54680
1	0	"Chromosome"	"S25_LN:i:54467_dp:f:0.9151142079161316"	54467
1	0	"Chromosome"	"S26_LN:i:51555_dp:f:1.001194409887025"	51555
1	0	"Chromosome"	"S27_LN:i:51278_dp:f:1.0091855279491242"	51278
1	0	"Chromosome"	"S28_LN:i:49735_dp:f:1.0397259690708822"	49735
1	0	"Chromosome"	"S29_LN:i:47035_dp:f:1.0279357641767952"	47035
1	0	"Chromosome"	"S3_LN:i:186186_dp:f:1.022035705109477"	186186
1	0	"Chromosome"	"S30_LN:i:46489_dp:f:0.9887285529979688"	46489
1	0	"Chromosome"	"S31_LN:i:46185_dp:f:0.9902676051436913"	46185
1	0	"Chromosome"	"S32_LN:i:44339_dp:f:0.9286692713352241"	44339
1	0	"Chromosome"	"S33_LN:i:43356_dp:f:1.0209717557923168"	43356
1	0	"Chromosome"	"S34_LN:i:42715_dp:f:0.966241228833959"	42715
1	0	"Chromosome"	"S35_LN:i:41622_dp:f:0.9725815219837349"	41622
1	0	"Chromosome"	"S36_LN:i:39590_dp:f:1.0408757325703584"	39590
1	0	"Chromosome"	"S37_LN:i:38429_dp:f:0.9772372969579965"	38429
1	0	"Chromosome"	"S38_LN:i:38008_dp:f:0.8793296507893893"	38008
1	0	"Chromosome"	"S39_LN:i:35653_dp:f:0.908069643676933"	35653
1	0	"Chromosome"	"S4_LN:i:171390_dp:f:1.0"	171390
1	0	"Chromosome"	"S40_LN:i:35294_dp:f:0.9475185738785334"	35294
1	0	"Chromosome"	"S41_LN:i:34809_dp:f:1.0621727351507337"	34809
1	0	"Chromosome"	"S42_LN:i:34456_dp:f:0.9927873784870097"	34456
1	0	"Chromosome"	"S43_LN:i:32759_dp:f:1.004872351433763"	32759
1	0	"Chromosome"	"S44_LN:i:32710_dp:f:1.0150860062722258"	32710
1	0	"Chromosome"	"S45_LN:i:30927_dp:f:1.0595727938621078"	30927
1	0	"Chromosome"	"S46_LN:i:29797_dp:f:1.1317754934897974"	29797
1	0	"Chromosome"	"S47_LN:i:28868_dp:f:0.8892931902587016"	28868
1	0	"Chromosome"	"S48_LN:i:28863_dp:f:0.9601758772557515"	28863
0	1	"Plasmid"	"S49_LN:i:28689_dp:f:2.8566226868163045"	28689
1	0	"Chromosome"	"S5_LN:i:153430_dp:f:0.9971736857225278"	153430
1	0	"Chromosome"	"S50_LN:i:27913_dp:f:0.9363236722723567"	27913
1	0	"Chromosome"	"S51_LN:i:27615_dp:f:0.8542832451282324"	27615
1	0	"Chromosome"	"S52_LN:i:27538_dp:f:1.04940452442494"	27538
1	0	"Chromosome"	"S53_LN:i:27197_dp:f:1.0275210890145348"	27197
1	0	"Chromosome"	"S54_LN:i:26194_dp:f:0.9957338952854309"	26194
1	0	"Chromosome"	"S55_LN:i:26121_dp:f:0.9048706840528846"	26121
1	0	"Chromosome"	"S56_LN:i:26051_dp:f:1.0528297214387299"	26051
1	0	"Chromosome"	"S57_LN:i:25889_dp:f:1.035402675564418"	25889
1	0	"Chromosome"	"S58_LN:i:25380_dp:f:0.9152382830286707"	25380
1	0	"Chromosome"	"S59_LN:i:24994_dp:f:0.9638675680361203"	24994
1	0	"Chromosome"	"S6_LN:i:144785_dp:f:1.0048671777416371"	144785
1	0	"Chromosome"	"S60_LN:i:24770_dp:f:1.004937821922431"	24770
1	0	"Chromosome"	"S61_LN:i:24650_dp:f:1.0013621160564827"	24650
1	0	"Chromosome"	"S62_LN:i:24301_dp:f:0.9425872661065511"	24301
1	0	"Chromosome"	"S63_LN:i:23360_dp:f:0.9208272946464903"	23360
1	0	"Chromosome"	"S64_LN:i:23205_dp:f:0.9797756468520825"	23205
0	1	"Plasmid"	"S65_LN:i:22164_dp:f:4.324864280979828"	22164
1	0	"Chromosome"	"S66_LN:i:21343_dp:f:0.965087931048722"	21343
1	0	"Chromosome"	"S67_LN:i:20661_dp:f:0.838448265686056"	20661
1	0	"Chromosome"	"S68_LN:i:20456_dp:f:1.0086841495070673"	20456
0	1	"Plasmid"	"S69_LN:i:20003_dp:f:2.9918172157722966"	20003
1	0	"Chromosome"	"S7_LN:i:133386_dp:f:1.0314767305997765"	133386
1	0	"Chromosome"	"S70_LN:i:19124_dp:f:0.9237320465314688"	19124
1	0	"Chromosome"	"S71_LN:i:19044_dp:f:0.957469562585932"	19044
1	0	"Chromosome"	"S72_LN:i:18848_dp:f:1.0107896509194267"	18848
1	0	"Chromosome"	"S73_LN:i:18281_dp:f:0.863391013331909"	18281
1	0	"Chromosome"	"S74_LN:i:16218_dp:f:0.8652806062836459"	16218
1	0	"Chromosome"	"S75_LN:i:16051_dp:f:0.9364567683019858"	16051
1	0	"Chromosome"	"S76_LN:i:16024_dp:f:1.0200936581849236"	16024
1	0	"Chromosome"	"S77_LN:i:15513_dp:f:0.996387781252238"	15513
1	0	"Chromosome"	"S78_LN:i:14771_dp:f:1.0200893919418148"	14771
1	0	"Chromosome"	"S79_LN:i:14632_dp:f:1.0542363240705113"	14632
1	0	"Chromosome"	"S8_LN:i:133290_dp:f:0.9915553475215798"	133290
1	0	"Chromosome"	"S80_LN:i:14538_dp:f:0.8778309412225959"	14538
0	1	"Plasmid"	"S81_LN:i:14182_dp:f:4.244030317851567"	14182
1	0	"Chromosome"	"S82_LN:i:13934_dp:f:1.0418176197256308"	13934
1	0	"Chromosome"	"S83_LN:i:13792_dp:f:0.917349772963021"	13792
1	0	"Chromosome"	"S84_LN:i:13731_dp:f:0.9682773222405884"	13731
1	0	"Chromosome"	"S85_LN:i:12754_dp:f:0.9878301978990193"	12754
1	0	"Chromosome"	"S86_LN:i:12659_dp:f:0.8987074068984735"	12659
1	0	"Chromosome"	"S87_LN:i:12198_dp:f:0.7843641682135708"	12198
1	0	"Chromosome"	"S88_LN:i:12017_dp:f:0.7714376473463173"	12017
1	0	"Chromosome"	"S89_LN:i:11893_dp:f:0.9723263206911724"	11893
1	0	"Chromosome"	"S9_LN:i:120529_dp:f:0.9983709896755922"	120529
1	0	"Chromosome"	"S90_LN:i:10800_dp:f:0.9398648110995216"	10800
1	0	"Chromosome"	"S91_LN:i:10743_dp:f:0.743334343108281"	10743
1	0	"Chromosome"	"S92_LN:i:10485_dp:f:0.820559143772526"	10485
1	0	"Chromosome"	"S93_LN:i:10482_dp:f:0.9057806333331717"	10482
1	0	"Chromosome"	"S94_LN:i:10403_dp:f:0.9816113634964889"	10403
0	1	"Plasmid"	"S95_LN:i:10377_dp:f:2.1611415227725534"	10377
1	0	"Chromosome"	"S96_LN:i:9984_dp:f:0.9511441823980252"	9984
1	0	"Chromosome"	"S97_LN:i:9906_dp:f:0.6777276431084177"	9906
1	0	"Chromosome"	"S98_LN:i:9854_dp:f:0.9619132373134953"	9854
1	0	"Chromosome"	"S99_LN:i:9452_dp:f:1.0586843520037068"	9452
