"Prob_Chromosome"	"Prob_Plasmid"	"Prediction"	"Contig_name"	"Contig_length"
1	0	"Chromosome"	"S1_LN:i:505560_dp:f:0.9643716272086493"	505560
1	0	"Chromosome"	"S10_LN:i:192391_dp:f:1.0134805038622294"	192391
1	0	"Chromosome"	"S11_LN:i:185035_dp:f:1.0151389782403417"	185035
1	0	"Chromosome"	"S12_LN:i:182231_dp:f:0.9994952908448379"	182231
1	0	"Chromosome"	"S13_LN:i:159280_dp:f:0.9829789063776024"	159280
1	0	"Chromosome"	"S14_LN:i:141444_dp:f:1.0109266951817297"	141444
1	0	"Chromosome"	"S15_LN:i:134795_dp:f:0.9889978566609768"	134795
1	0	"Chromosome"	"S16_LN:i:118496_dp:f:0.9877058892010799"	118496
1	0	"Chromosome"	"S17_LN:i:105666_dp:f:1.014032080695407"	105666
1	0	"Chromosome"	"S18_LN:i:91858_dp:f:1.033017568616652"	91858
1	0	"Chromosome"	"S19_LN:i:69226_dp:f:1.017999780165828"	69226
1	0	"Chromosome"	"S2_LN:i:453646_dp:f:1.0071953569671201"	453646
1	0	"Chromosome"	"S20_LN:i:66412_dp:f:1.0264216551929324"	66412
0	1	"Plasmid"	"S21_LN:i:63875_dp:f:2.8472847771525687"	63875
1	0	"Chromosome"	"S22_LN:i:52253_dp:f:1.0049528491549256"	52253
1	0	"Chromosome"	"S23_LN:i:47039_dp:f:0.9664700157193289"	47039
1	0	"Chromosome"	"S24_LN:i:47037_dp:f:1.0363757081718648"	47037
1	0	"Chromosome"	"S25_LN:i:45854_dp:f:0.9779599451771676"	45854
1	0	"Chromosome"	"S26_LN:i:43724_dp:f:1.0177170700897407"	43724
1	0	"Chromosome"	"S27_LN:i:42003_dp:f:1.019499340675776"	42003
1	0	"Chromosome"	"S28_LN:i:40733_dp:f:1.0295789789534944"	40733
1	0	"Chromosome"	"S29_LN:i:30785_dp:f:1.0407016886237213"	30785
1	0	"Chromosome"	"S3_LN:i:329504_dp:f:0.965607024648225"	329504
1	0	"Chromosome"	"S30_LN:i:26140_dp:f:1.0559342187237508"	26140
1	0	"Chromosome"	"S31_LN:i:22722_dp:f:1.010370068941213"	22722
1	0	"Chromosome"	"S32_LN:i:20391_dp:f:1.1871887400414947"	20391
1	0	"Chromosome"	"S33_LN:i:15454_dp:f:0.9571384792163"	15454
1	0	"Chromosome"	"S34_LN:i:7453_dp:f:1.0803819172180258"	7453
1	0	"Chromosome"	"S35_LN:i:6421_dp:f:2.3662803866374613"	6421
1	0	"Chromosome"	"S36_LN:i:4454_dp:f:1.0113102231998619"	4454
1	0	"Chromosome"	"S37_LN:i:3846_dp:f:1.1404531844911503"	3846
0	1	"Plasmid"	"S38_LN:i:3524_dp:f:104.06950948920249"	3524
1	0	"Chromosome"	"S39_LN:i:3223_dp:f:0.8469083284215191"	3223
1	0	"Chromosome"	"S4_LN:i:304016_dp:f:1.0"	304016
1	0	"Chromosome"	"S40_LN:i:3081_dp:f:6.893649471828108"	3081
1	0	"Chromosome"	"S41_LN:i:2992_dp:f:0.9679314455667957"	2992
1	0	"Chromosome"	"S42_LN:i:2403_dp:f:0.9757508216086616"	2403
1	0	"Chromosome"	"S43_LN:i:2337_dp:f:2.9791734213043193"	2337
1	0	"Chromosome"	"S44_LN:i:1997_dp:f:0.9217634339153392"	1997
1	0	"Chromosome"	"S45_LN:i:1832_dp:f:0.9042146763994294"	1832
1	0	"Chromosome"	"S46_LN:i:1708_dp:f:7.2121164437422545"	1708
1	0	"Chromosome"	"S47_LN:i:1663_dp:f:0.943806326029268"	1663
1	0	"Chromosome"	"S48_LN:i:1662_dp:f:0.9547617402021598"	1662
1	0	"Chromosome"	"S49_LN:i:1557_dp:f:0.9501750628208185"	1557
1	0	"Chromosome"	"S5_LN:i:257624_dp:f:1.0081523088613742"	257624
1	0	"Chromosome"	"S50_LN:i:1546_dp:f:1.1195808351286367"	1546
1	0	"Chromosome"	"S51_LN:i:1371_dp:f:0.7582708617824864"	1371
1	0	"Chromosome"	"S52_LN:i:1308_dp:f:1.8820522648771612"	1308
1	0	"Chromosome"	"S53_LN:i:1308_dp:f:1.0452666365330292"	1308
1	0	"Chromosome"	"S54_LN:i:1274_dp:f:0.8416286340665856"	1274
1	0	"Chromosome"	"S55_LN:i:1193_dp:f:8.923243887317303"	1193
1	0	"Chromosome"	"S56_LN:i:1151_dp:f:2.0135908011740127"	1151
1	0	"Chromosome"	"S57_LN:i:1045_dp:f:0.9337056548623129"	1045
1	0	"Chromosome"	"S58_LN:i:1045_dp:f:1.1114621540897727"	1045
1	0	"Chromosome"	"S6_LN:i:254911_dp:f:0.9896252568787556"	254911
1	0	"Chromosome"	"S7_LN:i:242143_dp:f:1.0158435130271999"	242143
1	0	"Chromosome"	"S8_LN:i:210279_dp:f:0.9795971650981974"	210279
1	0	"Chromosome"	"S9_LN:i:209757_dp:f:1.005952515367601"	209757
