"Prob_Chromosome"	"Prob_Plasmid"	"Prediction"	"Contig_name"	"Contig_length"
1	0	"Chromosome"	"S1_LN:i:466507_dp:f:1.0"	466507
1	0	"Chromosome"	"S10_LN:i:155982_dp:f:1.0063491724914615"	155982
1	0	"Chromosome"	"S11_LN:i:135593_dp:f:0.9801130094011143"	135593
1	0	"Chromosome"	"S12_LN:i:133252_dp:f:1.0195036223059109"	133252
1	0	"Chromosome"	"S13_LN:i:130505_dp:f:0.9717120173223803"	130505
1	0	"Chromosome"	"S14_LN:i:121446_dp:f:0.9624655124132182"	121446
1	0	"Chromosome"	"S15_LN:i:118663_dp:f:1.0039525971247651"	118663
1	0	"Chromosome"	"S16_LN:i:114608_dp:f:0.9683946454559061"	114608
1	0	"Chromosome"	"S17_LN:i:114485_dp:f:0.9549245243177215"	114485
1	0	"Chromosome"	"S18_LN:i:102120_dp:f:0.9548755959583253"	102120
1	0	"Chromosome"	"S19_LN:i:98701_dp:f:1.0035747053171729"	98701
1	0	"Chromosome"	"S2_LN:i:335677_dp:f:1.0003961337377985"	335677
0	1	"Plasmid"	"S20_LN:i:97938_dp:f:1.2045992408526565"	97938
1	0	"Chromosome"	"S21_LN:i:88864_dp:f:1.018755316501187"	88864
1	0	"Chromosome"	"S22_LN:i:88125_dp:f:1.028169486302551"	88125
1	0	"Chromosome"	"S23_LN:i:81818_dp:f:1.0281838515700157"	81818
1	0	"Chromosome"	"S24_LN:i:76477_dp:f:1.0028622142888675"	76477
1	0	"Chromosome"	"S25_LN:i:70788_dp:f:0.9322550224510358"	70788
1	0	"Chromosome"	"S26_LN:i:66412_dp:f:0.9802780611740738"	66412
1	0	"Chromosome"	"S27_LN:i:64385_dp:f:0.9842518463015929"	64385
0	1	"Plasmid"	"S28_LN:i:61886_dp:f:1.3717511313291286"	61886
1	0	"Chromosome"	"S29_LN:i:57470_dp:f:0.9499166924321987"	57470
1	0	"Chromosome"	"S3_LN:i:320580_dp:f:1.0086851984137746"	320580
1	0	"Chromosome"	"S30_LN:i:48805_dp:f:1.0255647740015557"	48805
1	0	"Chromosome"	"S31_LN:i:43662_dp:f:1.0152467803087724"	43662
1	0	"Chromosome"	"S32_LN:i:41933_dp:f:0.9514278814562129"	41933
1	0	"Chromosome"	"S33_LN:i:39801_dp:f:0.9399541472318272"	39801
1	0	"Chromosome"	"S34_LN:i:37718_dp:f:1.0240775497045251"	37718
1	0	"Chromosome"	"S35_LN:i:34621_dp:f:0.9866785269858283"	34621
1	0	"Chromosome"	"S36_LN:i:30711_dp:f:1.0427424925891988"	30711
1	0	"Chromosome"	"S37_LN:i:28330_dp:f:0.9758585288178055"	28330
1	0	"Chromosome"	"S38_LN:i:26172_dp:f:1.0080592331648919"	26172
1	0	"Chromosome"	"S39_LN:i:26062_dp:f:1.0525052989045978"	26062
1	0	"Chromosome"	"S4_LN:i:286727_dp:f:1.0223979328829282"	286727
1	0	"Chromosome"	"S40_LN:i:24094_dp:f:0.9662650883498645"	24094
1	0	"Chromosome"	"S41_LN:i:22779_dp:f:1.0010804619594744"	22779
1	0	"Chromosome"	"S42_LN:i:20007_dp:f:0.9649209191220944"	20007
1	0	"Chromosome"	"S43_LN:i:16477_dp:f:0.8909286960622902"	16477
1	0	"Chromosome"	"S44_LN:i:15862_dp:f:0.9713064444971167"	15862
0	1	"Plasmid"	"S45_LN:i:15037_dp:f:1.3484711334144155"	15037
1	0	"Chromosome"	"S46_LN:i:14469_dp:f:1.0175884103313118"	14469
0.67	0.33	"Chromosome"	"S47_LN:i:13489_dp:f:1.007129543241988"	13489
0	1	"Plasmid"	"S48_LN:i:11804_dp:f:1.2471061589934074"	11804
0	1	"Plasmid"	"S49_LN:i:11503_dp:f:1.4421504896599313"	11503
1	0	"Chromosome"	"S5_LN:i:260902_dp:f:0.9481319075507302"	260902
1	0	"Chromosome"	"S50_LN:i:11296_dp:f:0.9483711062644853"	11296
1	0	"Chromosome"	"S51_LN:i:9933_dp:f:1.0240747947217237"	9933
1	0	"Chromosome"	"S52_LN:i:9293_dp:f:1.9595934222751639"	9293
1	0	"Chromosome"	"S53_LN:i:7677_dp:f:0.7694532494918683"	7677
1	0	"Chromosome"	"S54_LN:i:7636_dp:f:0.979264868267254"	7636
1	0	"Chromosome"	"S55_LN:i:7379_dp:f:1.0639685855567478"	7379
1	0	"Chromosome"	"S56_LN:i:6856_dp:f:0.9619825841503845"	6856
1	0	"Chromosome"	"S57_LN:i:6655_dp:f:0.9856061171329681"	6655
0	1	"Plasmid"	"S58_LN:i:6647_dp:f:82.62625396150025"	6647
0	1	"Plasmid"	"S59_LN:i:6130_dp:f:1.3056674247928242"	6130
1	0	"Chromosome"	"S6_LN:i:235955_dp:f:0.9734944911948878"	235955
0	1	"Plasmid"	"S60_LN:i:4671_dp:f:107.81909468157089"	4671
1	0	"Chromosome"	"S61_LN:i:4588_dp:f:1.0524944101630491"	4588
1	0	"Chromosome"	"S62_LN:i:4448_dp:f:1.00344554909965"	4448
1	0	"Chromosome"	"S63_LN:i:4408_dp:f:1.0020220306911385"	4408
1	0	"Chromosome"	"S64_LN:i:3698_dp:f:1.951969400941254"	3698
1	0	"Chromosome"	"S65_LN:i:3197_dp:f:0.930803080919868"	3197
1	0	"Chromosome"	"S66_LN:i:3033_dp:f:2.109033987811329"	3033
1	0	"Chromosome"	"S67_LN:i:3014_dp:f:1.8576568939939255"	3014
1	0	"Chromosome"	"S68_LN:i:2940_dp:f:7.03242787182658"	2940
1	0	"Chromosome"	"S69_LN:i:2751_dp:f:0.9970505124744801"	2751
1	0	"Chromosome"	"S7_LN:i:193198_dp:f:0.9978390935039673"	193198
1	0	"Chromosome"	"S70_LN:i:2748_dp:f:0.9609014648096768"	2748
1	0	"Chromosome"	"S71_LN:i:2655_dp:f:2.859761553607236"	2655
1	0	"Chromosome"	"S72_LN:i:2581_dp:f:4.2576763633584225"	2581
1	0	"Chromosome"	"S73_LN:i:2441_dp:f:0.8670025332567016"	2441
1	0	"Chromosome"	"S74_LN:i:2323_dp:f:1.9912630646893723"	2323
1	0	"Chromosome"	"S75_LN:i:1962_dp:f:1.0989096388579647"	1962
1	0	"Chromosome"	"S76_LN:i:1962_dp:f:1.166043059762542"	1962
0.5	0.5	"Plasmid"	"S77_LN:i:1939_dp:f:1.4108764790731572"	1939
1	0	"Chromosome"	"S78_LN:i:1869_dp:f:0.9282133885906034"	1869
1	0	"Chromosome"	"S79_LN:i:1808_dp:f:2.0007007830342056"	1808
1	0	"Chromosome"	"S8_LN:i:187367_dp:f:0.9885549469384389"	187367
1	0	"Chromosome"	"S80_LN:i:1785_dp:f:1.8580981504059502"	1785
1	0	"Chromosome"	"S81_LN:i:1758_dp:f:1.7520776880957756"	1758
1	0	"Chromosome"	"S82_LN:i:1755_dp:f:1.550705237589372"	1755
1	0	"Chromosome"	"S83_LN:i:1634_dp:f:1.968018946819796"	1634
1	0	"Chromosome"	"S84_LN:i:1512_dp:f:1.0563208844897116"	1512
1	0	"Chromosome"	"S85_LN:i:1512_dp:f:1.0957017893598744"	1512
1	0	"Chromosome"	"S86_LN:i:1469_dp:f:0.9856486225819039"	1469
1	0	"Chromosome"	"S87_LN:i:1463_dp:f:7.028515337084788"	1463
1	0	"Chromosome"	"S88_LN:i:1390_dp:f:0.848755888594041"	1390
1	0	"Chromosome"	"S89_LN:i:1375_dp:f:0.7551428193041259"	1375
1	0	"Chromosome"	"S9_LN:i:177263_dp:f:1.0039554832972237"	177263
1	0	"Chromosome"	"S90_LN:i:1341_dp:f:1.0375102554907067"	1341
0.5	0.5	"Plasmid"	"S91_LN:i:1331_dp:f:5.88751723561634"	1331
1	0	"Chromosome"	"S92_LN:i:1284_dp:f:8.951227935787232"	1284
1	0	"Chromosome"	"S93_LN:i:1265_dp:f:1.071806314842252"	1265
1	0	"Chromosome"	"S94_LN:i:1250_dp:f:4.527912298373857"	1250
1	0	"Chromosome"	"S95_LN:i:1165_dp:f:5.952130372016262"	1165
1	0	"Chromosome"	"S96_LN:i:1114_dp:f:0.9146276585652332"	1114
1	0	"Chromosome"	"S97_LN:i:1100_dp:f:2.046787840801611"	1100
1	0	"Chromosome"	"S98_LN:i:1096_dp:f:0.8918858658931126"	1096
1	0	"Chromosome"	"S99_LN:i:1040_dp:f:0.7882058926623866"	1040
