"Prob_Chromosome"	"Prob_Plasmid"	"Prediction"	"Contig_name"	"Contig_length"
1	0	"Chromosome"	"S1_LN:i:360158_dp:f:1.0"	360158
1	0	"Chromosome"	"S10_LN:i:133391_dp:f:1.0184606533793854"	133391
1	0	"Chromosome"	"S11_LN:i:126576_dp:f:1.0001160568031413"	126576
1	0	"Chromosome"	"S12_LN:i:121622_dp:f:0.9952592278062292"	121622
1	0	"Chromosome"	"S13_LN:i:120250_dp:f:0.9544411489401142"	120250
1	0	"Chromosome"	"S14_LN:i:113956_dp:f:0.9677704044593681"	113956
1	0	"Chromosome"	"S15_LN:i:101608_dp:f:1.033309273584915"	101608
1	0	"Chromosome"	"S16_LN:i:101394_dp:f:0.9983216472938186"	101394
1	0	"Chromosome"	"S17_LN:i:100950_dp:f:0.9398900700030853"	100950
1	0	"Chromosome"	"S18_LN:i:94910_dp:f:0.944053005238323"	94910
1	0	"Chromosome"	"S19_LN:i:93028_dp:f:0.9846665192108934"	93028
1	0	"Chromosome"	"S2_LN:i:252210_dp:f:1.0192530692718993"	252210
1	0	"Chromosome"	"S20_LN:i:88362_dp:f:1.0410169849134105"	88362
1	0	"Chromosome"	"S21_LN:i:84814_dp:f:0.9542198533202951"	84814
1	0	"Chromosome"	"S22_LN:i:84155_dp:f:0.9223636968619536"	84155
1	0	"Chromosome"	"S23_LN:i:76620_dp:f:0.9954745774110928"	76620
1	0	"Chromosome"	"S24_LN:i:73256_dp:f:0.9543330641724757"	73256
1	0	"Chromosome"	"S25_LN:i:69390_dp:f:0.976672852632313"	69390
1	0	"Chromosome"	"S26_LN:i:67510_dp:f:1.0088850670809286"	67510
1	0	"Chromosome"	"S27_LN:i:66117_dp:f:1.0065398998588226"	66117
1	0	"Chromosome"	"S28_LN:i:64039_dp:f:1.0087540718879016"	64039
1	0	"Chromosome"	"S29_LN:i:63111_dp:f:0.9251588020192932"	63111
1	0	"Chromosome"	"S3_LN:i:231621_dp:f:0.9804745058197838"	231621
1	0	"Chromosome"	"S30_LN:i:61769_dp:f:1.0068958878888532"	61769
1	0	"Chromosome"	"S31_LN:i:53019_dp:f:1.0505018198044531"	53019
1	0	"Chromosome"	"S32_LN:i:52468_dp:f:1.0104841727590739"	52468
1	0	"Chromosome"	"S33_LN:i:51680_dp:f:0.9982338307499327"	51680
1	0	"Chromosome"	"S34_LN:i:50670_dp:f:1.0217665156687212"	50670
0	1	"Plasmid"	"S35_LN:i:44317_dp:f:4.271239101611313"	44317
1	0	"Chromosome"	"S36_LN:i:43039_dp:f:1.0168072209776013"	43039
1	0	"Chromosome"	"S37_LN:i:42313_dp:f:0.9774085548625394"	42313
1	0	"Chromosome"	"S38_LN:i:40925_dp:f:0.9213193762322532"	40925
1	0	"Chromosome"	"S39_LN:i:38460_dp:f:0.9635154861929497"	38460
1	0	"Chromosome"	"S4_LN:i:210125_dp:f:1.0129530311419428"	210125
1	0	"Chromosome"	"S40_LN:i:36316_dp:f:0.9693388224672462"	36316
1	0	"Chromosome"	"S41_LN:i:35540_dp:f:1.010974879606423"	35540
1	0	"Chromosome"	"S42_LN:i:30783_dp:f:1.064182367712975"	30783
1	0	"Chromosome"	"S43_LN:i:30648_dp:f:0.9623145786104919"	30648
1	0	"Chromosome"	"S44_LN:i:28619_dp:f:1.0127203523624917"	28619
1	0	"Chromosome"	"S45_LN:i:27266_dp:f:0.9794544477169023"	27266
1	0	"Chromosome"	"S46_LN:i:26672_dp:f:0.9417217693009152"	26672
1	0	"Chromosome"	"S47_LN:i:26460_dp:f:1.0303289419884551"	26460
1	0	"Chromosome"	"S48_LN:i:25498_dp:f:0.8596351878744488"	25498
1	0	"Chromosome"	"S49_LN:i:21555_dp:f:0.9710075298347433"	21555
1	0	"Chromosome"	"S5_LN:i:189038_dp:f:0.9647169636587568"	189038
0.33	0.67	"Plasmid"	"S50_LN:i:21350_dp:f:4.7826801025703345"	21350
1	0	"Chromosome"	"S51_LN:i:20895_dp:f:0.9522792466818001"	20895
1	0	"Chromosome"	"S52_LN:i:20352_dp:f:0.9737082270921603"	20352
1	0	"Chromosome"	"S53_LN:i:18378_dp:f:1.0082313323238903"	18378
1	0	"Chromosome"	"S54_LN:i:18238_dp:f:0.9951024059370259"	18238
1	0	"Chromosome"	"S55_LN:i:17991_dp:f:0.8843019073451177"	17991
1	0	"Chromosome"	"S56_LN:i:17293_dp:f:1.0049071860845071"	17293
1	0	"Chromosome"	"S57_LN:i:15813_dp:f:0.9930282039902925"	15813
0	1	"Plasmid"	"S58_LN:i:15576_dp:f:6.099913470045717"	15576
1	0	"Chromosome"	"S59_LN:i:15429_dp:f:0.9765164604120663"	15429
1	0	"Chromosome"	"S6_LN:i:171395_dp:f:0.9607944088609636"	171395
1	0	"Chromosome"	"S60_LN:i:14939_dp:f:1.0210698160160105"	14939
1	0	"Chromosome"	"S61_LN:i:14717_dp:f:0.9578759017308299"	14717
1	0	"Chromosome"	"S62_LN:i:12761_dp:f:0.8984751193906807"	12761
1	0	"Chromosome"	"S63_LN:i:11533_dp:f:0.9329107194515582"	11533
1	0	"Chromosome"	"S64_LN:i:11354_dp:f:1.0846896556336212"	11354
1	0	"Chromosome"	"S65_LN:i:11254_dp:f:0.9630906465961073"	11254
1	0	"Chromosome"	"S66_LN:i:10287_dp:f:1.034002392829653"	10287
1	0	"Chromosome"	"S67_LN:i:9650_dp:f:0.8551645472634404"	9650
1	0	"Chromosome"	"S68_LN:i:9597_dp:f:1.0319451858860964"	9597
1	0	"Chromosome"	"S69_LN:i:7608_dp:f:0.9693360715697871"	7608
1	0	"Chromosome"	"S7_LN:i:147150_dp:f:1.036382934482529"	147150
1	0	"Chromosome"	"S70_LN:i:7441_dp:f:0.7405159216600408"	7441
0.33	0.67	"Plasmid"	"S71_LN:i:7337_dp:f:5.6258643991812916"	7337
0	1	"Plasmid"	"S72_LN:i:7241_dp:f:4.622891349483628"	7241
1	0	"Chromosome"	"S73_LN:i:5546_dp:f:1.0655556212562036"	5546
1	0	"Chromosome"	"S74_LN:i:4114_dp:f:0.9242028330905875"	4114
0	1	"Plasmid"	"S75_LN:i:4074_dp:f:89.3391881000689"	4074
1	0	"Chromosome"	"S76_LN:i:3493_dp:f:4.813189126194932"	3493
0	1	"Plasmid"	"S77_LN:i:3491_dp:f:4.426999304661941"	3491
1	0	"Chromosome"	"S78_LN:i:3141_dp:f:7.179363413435798"	3141
1	0	"Chromosome"	"S79_LN:i:3038_dp:f:2.2210255028038404"	3038
1	0	"Chromosome"	"S8_LN:i:143972_dp:f:0.9789741479220604"	143972
1	0	"Chromosome"	"S80_LN:i:2853_dp:f:0.7251006899581414"	2853
1	0	"Chromosome"	"S81_LN:i:2526_dp:f:0.8683850366168594"	2526
1	0	"Chromosome"	"S82_LN:i:2475_dp:f:3.309444606859352"	2475
1	0	"Chromosome"	"S83_LN:i:2439_dp:f:0.8920229855300448"	2439
1	0	"Chromosome"	"S84_LN:i:1761_dp:f:0.6875148082690342"	1761
0.67	0.33	"Chromosome"	"S85_LN:i:1735_dp:f:5.1140091799292815"	1735
1	0	"Chromosome"	"S86_LN:i:1702_dp:f:7.111652599668601"	1702
0.67	0.33	"Chromosome"	"S87_LN:i:1193_dp:f:10.964825885895593"	1193
1	0	"Chromosome"	"S88_LN:i:1169_dp:f:0.833697280357159"	1169
1	0	"Chromosome"	"S89_LN:i:1133_dp:f:2.213351733742926"	1133
1	0	"Chromosome"	"S9_LN:i:138887_dp:f:1.018550784182751"	138887
0.67	0.33	"Chromosome"	"S90_LN:i:1119_dp:f:4.082627550258085"	1119
1	0	"Chromosome"	"S91_LN:i:1089_dp:f:2.159956154870876"	1089
1	0	"Chromosome"	"S92_LN:i:1066_dp:f:0.8825070249590264"	1066
1	0	"Chromosome"	"S93_LN:i:1057_dp:f:2.897948843685636"	1057
1	0	"Chromosome"	"S94_LN:i:1031_dp:f:1.8411640762319494"	1031
