"Prob_Chromosome"	"Prob_Plasmid"	"Prediction"	"Contig_name"	"Contig_length"
1	0	"Chromosome"	"S1_LN:i:436391_dp:f:0.9063965687424927"	436391
1	0	"Chromosome"	"S10_LN:i:135510_dp:f:0.7737586667057391"	135510
1	0	"Chromosome"	"S11_LN:i:134332_dp:f:0.9325208800795868"	134332
1	0	"Chromosome"	"S12_LN:i:129692_dp:f:1.1373716457283665"	129692
1	0	"Chromosome"	"S13_LN:i:112891_dp:f:0.8198249713579906"	112891
1	0	"Chromosome"	"S14_LN:i:111724_dp:f:1.1051555119795013"	111724
1	0	"Chromosome"	"S15_LN:i:108947_dp:f:0.8680303122008306"	108947
1	0	"Chromosome"	"S16_LN:i:102882_dp:f:1.0676376453978698"	102882
1	0	"Chromosome"	"S17_LN:i:102711_dp:f:0.8382157233418582"	102711
1	0	"Chromosome"	"S18_LN:i:97720_dp:f:1.0911393729502383"	97720
1	0	"Chromosome"	"S19_LN:i:92924_dp:f:0.8719658527613233"	92924
1	0	"Chromosome"	"S2_LN:i:331682_dp:f:1.0"	331682
0	1	"Plasmid"	"S20_LN:i:89059_dp:f:0.6493193831288224"	89059
1	0	"Chromosome"	"S21_LN:i:83432_dp:f:1.106221939300514"	83432
0	1	"Plasmid"	"S22_LN:i:82209_dp:f:0.6083106513964659"	82209
1	0	"Chromosome"	"S23_LN:i:81800_dp:f:1.1358053747408323"	81800
1	0	"Chromosome"	"S24_LN:i:78769_dp:f:1.0478519933132755"	78769
1	0	"Chromosome"	"S25_LN:i:76507_dp:f:1.0764725720065058"	76507
1	0	"Chromosome"	"S26_LN:i:75762_dp:f:0.8154963367595902"	75762
1	0	"Chromosome"	"S27_LN:i:68807_dp:f:1.1876756269805055"	68807
1	0	"Chromosome"	"S28_LN:i:66264_dp:f:0.9241530274502565"	66264
1	0	"Chromosome"	"S29_LN:i:65650_dp:f:0.7871916959882509"	65650
1	0	"Chromosome"	"S3_LN:i:318387_dp:f:1.0464015815323722"	318387
1	0	"Chromosome"	"S30_LN:i:60806_dp:f:1.0291485883986946"	60806
1	0	"Chromosome"	"S31_LN:i:54504_dp:f:1.0616812603762205"	54504
1	0	"Chromosome"	"S32_LN:i:51826_dp:f:1.2603569391179101"	51826
1	0	"Chromosome"	"S33_LN:i:46806_dp:f:0.908340576878786"	46806
1	0	"Chromosome"	"S34_LN:i:42332_dp:f:0.9293088504257242"	42332
1	0	"Chromosome"	"S35_LN:i:37833_dp:f:0.7639276546046815"	37833
1	0	"Chromosome"	"S36_LN:i:36293_dp:f:1.0734631720691519"	36293
1	0	"Chromosome"	"S37_LN:i:34394_dp:f:0.9869726590905027"	34394
1	0	"Chromosome"	"S38_LN:i:33625_dp:f:1.0716863614406091"	33625
1	0	"Chromosome"	"S39_LN:i:32594_dp:f:1.097743806786299"	32594
1	0	"Chromosome"	"S4_LN:i:292453_dp:f:1.108753079828424"	292453
1	0	"Chromosome"	"S40_LN:i:30711_dp:f:1.0950423910086564"	30711
1	0	"Chromosome"	"S41_LN:i:26062_dp:f:1.1524216687193412"	26062
0.33	0.67	"Plasmid"	"S42_LN:i:24278_dp:f:0.665830889682634"	24278
0	1	"Plasmid"	"S43_LN:i:23494_dp:f:0.6710611860097578"	23494
1	0	"Chromosome"	"S44_LN:i:19877_dp:f:0.9203303092503808"	19877
1	0	"Chromosome"	"S45_LN:i:19385_dp:f:1.0307418731908833"	19385
1	0	"Chromosome"	"S46_LN:i:15508_dp:f:0.8430860827920588"	15508
0	1	"Plasmid"	"S47_LN:i:15375_dp:f:0.6160929666157355"	15375
1	0	"Chromosome"	"S48_LN:i:12098_dp:f:1.1890269772169673"	12098
1	0	"Chromosome"	"S49_LN:i:10949_dp:f:1.2067392470561202"	10949
1	0	"Chromosome"	"S5_LN:i:220824_dp:f:0.7770835187202187"	220824
1	0	"Chromosome"	"S50_LN:i:9950_dp:f:1.10938608566142"	9950
1	0	"Chromosome"	"S51_LN:i:8594_dp:f:0.7186489161626234"	8594
1	0	"Chromosome"	"S52_LN:i:7442_dp:f:1.089838790676721"	7442
1	0	"Chromosome"	"S53_LN:i:7379_dp:f:1.0026167241438058"	7379
0	1	"Plasmid"	"S54_LN:i:7233_dp:f:5.793347741268087"	7233
1	0	"Chromosome"	"S55_LN:i:6653_dp:f:1.0601207452712471"	6653
0	1	"Plasmid"	"S56_LN:i:6027_dp:f:0.6913391371529116"	6027
1	0	"Chromosome"	"S57_LN:i:5055_dp:f:0.9623144582016053"	5055
1	0	"Chromosome"	"S58_LN:i:4631_dp:f:1.0799915349807077"	4631
1	0	"Chromosome"	"S59_LN:i:4392_dp:f:1.2426704675321971"	4392
1	0	"Chromosome"	"S6_LN:i:196325_dp:f:0.9352227196031847"	196325
0	1	"Plasmid"	"S60_LN:i:4062_dp:f:50.86479746594749"	4062
1	0	"Chromosome"	"S61_LN:i:3711_dp:f:0.9743466186678288"	3711
1	0	"Chromosome"	"S62_LN:i:3608_dp:f:0.8957016646418705"	3608
1	0	"Chromosome"	"S63_LN:i:3144_dp:f:9.476018326640158"	3144
0	1	"Plasmid"	"S64_LN:i:2997_dp:f:9.248958894221818"	2997
1	0	"Chromosome"	"S65_LN:i:2854_dp:f:1.202180340883116"	2854
1	0	"Chromosome"	"S66_LN:i:2686_dp:f:2.3008799772960766"	2686
1	0	"Chromosome"	"S67_LN:i:2655_dp:f:3.6548022263739477"	2655
0.67	0.33	"Chromosome"	"S68_LN:i:2070_dp:f:1.6869212778088847"	2070
1	0	"Chromosome"	"S69_LN:i:1922_dp:f:0.8848090629861238"	1922
1	0	"Chromosome"	"S7_LN:i:193199_dp:f:1.1120627829249992"	193199
1	0	"Chromosome"	"S70_LN:i:1892_dp:f:2.531489270831196"	1892
1	0	"Chromosome"	"S71_LN:i:1708_dp:f:1.1130478863347442"	1708
1	0	"Chromosome"	"S72_LN:i:1622_dp:f:1.1302323385601405"	1622
1	0	"Chromosome"	"S73_LN:i:1463_dp:f:9.152560044030775"	1463
1	0	"Chromosome"	"S74_LN:i:1391_dp:f:1.03664084063558"	1391
1	0	"Chromosome"	"S75_LN:i:1391_dp:f:1.1131505387924323"	1391
1	0	"Chromosome"	"S76_LN:i:1362_dp:f:0.9859765735980812"	1362
1	0	"Chromosome"	"S77_LN:i:1342_dp:f:0.8432438222239449"	1342
1	0	"Chromosome"	"S78_LN:i:1331_dp:f:2.472201597041116"	1331
1	0	"Chromosome"	"S79_LN:i:1272_dp:f:1.1837052644141535"	1272
1	0	"Chromosome"	"S8_LN:i:177072_dp:f:1.0741432404898406"	177072
1	0	"Chromosome"	"S80_LN:i:1248_dp:f:15.67021293309808"	1248
1	0	"Chromosome"	"S81_LN:i:1240_dp:f:1.1147514156996547"	1240
1	0	"Chromosome"	"S82_LN:i:1221_dp:f:1.786988072989607"	1221
1	0	"Chromosome"	"S83_LN:i:1161_dp:f:4.702901016394063"	1161
1	0	"Chromosome"	"S84_LN:i:1100_dp:f:1.9360371109501526"	1100
1	0	"Chromosome"	"S9_LN:i:139369_dp:f:0.8252796068163429"	139369
