"Prob_Chromosome"	"Prob_Plasmid"	"Prediction"	"Contig_name"	"Contig_length"
1	0	"Chromosome"	"S1_LN:i:638435_dp:f:0.9829837594238223"	638435
1	0	"Chromosome"	"S10_LN:i:201961_dp:f:1.0449317054333755"	201961
1	0	"Chromosome"	"S11_LN:i:163458_dp:f:1.0542481223748867"	163458
1	0	"Chromosome"	"S12_LN:i:135219_dp:f:1.066523166432447"	135219
1	0	"Chromosome"	"S13_LN:i:114093_dp:f:1.0936713669563738"	114093
1	0	"Chromosome"	"S14_LN:i:113421_dp:f:0.9430589748930951"	113421
1	0	"Chromosome"	"S15_LN:i:96714_dp:f:1.1200755667704303"	96714
1	0	"Chromosome"	"S16_LN:i:93871_dp:f:1.0371761164909301"	93871
1	0	"Chromosome"	"S17_LN:i:79603_dp:f:1.0513568945540883"	79603
1	0	"Chromosome"	"S18_LN:i:72945_dp:f:1.0000406614707034"	72945
0	1	"Plasmid"	"S19_LN:i:72348_dp:f:1.8210827062338633"	72348
1	0	"Chromosome"	"S2_LN:i:491035_dp:f:0.9503557053228809"	491035
1	0	"Chromosome"	"S20_LN:i:59207_dp:f:0.9938876779931065"	59207
1	0	"Chromosome"	"S21_LN:i:32318_dp:f:1.0557918270823379"	32318
1	0	"Chromosome"	"S22_LN:i:29822_dp:f:1.1275902936870894"	29822
1	0	"Chromosome"	"S23_LN:i:29798_dp:f:1.028916589496979"	29798
1	0	"Chromosome"	"S24_LN:i:26139_dp:f:1.03151129407625"	26139
1	0	"Chromosome"	"S25_LN:i:18246_dp:f:1.0693580598859918"	18246
0	1	"Plasmid"	"S26_LN:i:14580_dp:f:1.5800412999129476"	14580
1	0	"Chromosome"	"S27_LN:i:6528_dp:f:1.0024706542891093"	6528
1	0	"Chromosome"	"S28_LN:i:4138_dp:f:0.9879761034769005"	4138
1	0	"Chromosome"	"S29_LN:i:3776_dp:f:2.1055124165239527"	3776
1	0	"Chromosome"	"S3_LN:i:455403_dp:f:1.021308032037298"	455403
1	0	"Chromosome"	"S30_LN:i:2832_dp:f:7.281748042026722"	2832
1	0	"Chromosome"	"S31_LN:i:2431_dp:f:0.6321984055040227"	2431
0.67	0.33	"Chromosome"	"S32_LN:i:2386_dp:f:4.113989747928594"	2386
1	0	"Chromosome"	"S33_LN:i:1917_dp:f:2.305755470281776"	1917
1	0	"Chromosome"	"S34_LN:i:1880_dp:f:0.6244310784820672"	1880
1	0	"Chromosome"	"S35_LN:i:1816_dp:f:0.9398686995125952"	1816
1	0	"Chromosome"	"S36_LN:i:1493_dp:f:7.569658983095075"	1493
1	0	"Chromosome"	"S37_LN:i:1409_dp:f:2.217475015094313"	1409
1	0	"Chromosome"	"S38_LN:i:1369_dp:f:0.8357866857062715"	1369
1	0	"Chromosome"	"S39_LN:i:1276_dp:f:2.4461792934743642"	1276
1	0	"Chromosome"	"S4_LN:i:448551_dp:f:0.9502882014242542"	448551
1	0	"Chromosome"	"S40_LN:i:1189_dp:f:0.6725495473743692"	1189
1	0	"Chromosome"	"S41_LN:i:1163_dp:f:1.1173532579074543"	1163
1	0	"Chromosome"	"S42_LN:i:1158_dp:f:1.1233379535067725"	1158
1	0	"Chromosome"	"S43_LN:i:1034_dp:f:2.1710899113482824"	1034
1	0	"Chromosome"	"S44_LN:i:1003_dp:f:0.931056388910468"	1003
1	0	"Chromosome"	"S5_LN:i:447969_dp:f:1.0"	447969
1	0	"Chromosome"	"S6_LN:i:374932_dp:f:1.0182239142869043"	374932
1	0	"Chromosome"	"S7_LN:i:225725_dp:f:1.0266859757423639"	225725
1	0	"Chromosome"	"S8_LN:i:223547_dp:f:0.96044630031021"	223547
1	0	"Chromosome"	"S9_LN:i:205799_dp:f:1.0435097149338897"	205799
