"Prob_Chromosome"	"Prob_Plasmid"	"Prediction"	"Contig_name"	"Contig_length"
1	0	"Chromosome"	"S1_LN:i:443290_dp:f:1.04235280466161"	443290
1	0	"Chromosome"	"S10_LN:i:140472_dp:f:0.9710728849518961"	140472
1	0	"Chromosome"	"S100_LN:i:2250_dp:f:0.6826269978710641"	2250
1	0	"Chromosome"	"S101_LN:i:1959_dp:f:0.6512021579902635"	1959
1	0	"Chromosome"	"S102_LN:i:1846_dp:f:1.02567515069946"	1846
1	0	"Chromosome"	"S103_LN:i:1835_dp:f:2.4977398705763356"	1835
1	0	"Chromosome"	"S104_LN:i:1826_dp:f:0.8525391716634783"	1826
1	0	"Chromosome"	"S105_LN:i:1823_dp:f:1.2446319879943692"	1823
1	0	"Chromosome"	"S106_LN:i:1788_dp:f:1.2699738464256953"	1788
1	0	"Chromosome"	"S107_LN:i:1784_dp:f:2.8301916117174075"	1784
1	0	"Chromosome"	"S108_LN:i:1761_dp:f:0.6516080393125854"	1761
1	0	"Chromosome"	"S109_LN:i:1747_dp:f:1.5275963285279566"	1747
1	0	"Chromosome"	"S11_LN:i:123950_dp:f:0.9329406580344605"	123950
1	0	"Chromosome"	"S110_LN:i:1745_dp:f:1.3418671775589068"	1745
1	0	"Chromosome"	"S111_LN:i:1683_dp:f:0.8447326678900167"	1683
1	0	"Chromosome"	"S112_LN:i:1655_dp:f:0.8470254904508444"	1655
1	0	"Chromosome"	"S113_LN:i:1524_dp:f:1.4539911678952082"	1524
1	0	"Chromosome"	"S114_LN:i:1512_dp:f:2.5693354556277423"	1512
1	0	"Chromosome"	"S115_LN:i:1480_dp:f:0.6911623387781671"	1480
1	0	"Chromosome"	"S116_LN:i:1464_dp:f:0.7416679505387913"	1464
1	0	"Chromosome"	"S117_LN:i:1434_dp:f:2.1429881826703547"	1434
1	0	"Chromosome"	"S118_LN:i:1387_dp:f:1.101896791273823"	1387
1	0	"Chromosome"	"S119_LN:i:1365_dp:f:0.7738643297481262"	1365
1	0	"Chromosome"	"S12_LN:i:123944_dp:f:1.0056091390964124"	123944
1	0	"Chromosome"	"S120_LN:i:1352_dp:f:1.0855607422496125"	1352
1	0	"Chromosome"	"S121_LN:i:1351_dp:f:0.4343671006201219"	1351
1	0	"Chromosome"	"S122_LN:i:1350_dp:f:1.3820398871240207"	1350
1	0	"Chromosome"	"S123_LN:i:1342_dp:f:1.1667415942857449"	1342
1	0	"Chromosome"	"S124_LN:i:1304_dp:f:1.048797383651018"	1304
1	0	"Chromosome"	"S125_LN:i:1285_dp:f:2.667297050218436"	1285
1	0	"Chromosome"	"S126_LN:i:1282_dp:f:0.7393637625525978"	1282
1	0	"Chromosome"	"S127_LN:i:1256_dp:f:0.864571302173743"	1256
1	0	"Chromosome"	"S128_LN:i:1254_dp:f:2.791508006731699"	1254
1	0	"Chromosome"	"S129_LN:i:1242_dp:f:0.951288161052661"	1242
1	0	"Chromosome"	"S13_LN:i:112116_dp:f:0.9633617974097494"	112116
1	0	"Chromosome"	"S130_LN:i:1224_dp:f:0.5982012374038009"	1224
1	0	"Chromosome"	"S131_LN:i:1203_dp:f:1.5094150622474525"	1203
1	0	"Chromosome"	"S132_LN:i:1171_dp:f:0.8913949985901126"	1171
1	0	"Chromosome"	"S133_LN:i:1163_dp:f:3.3537050398037778"	1163
1	0	"Chromosome"	"S134_LN:i:1157_dp:f:0.6022093638570305"	1157
1	0	"Chromosome"	"S135_LN:i:1143_dp:f:3.27101918493156"	1143
1	0	"Chromosome"	"S136_LN:i:1125_dp:f:0.6250088280824599"	1125
1	0	"Chromosome"	"S137_LN:i:1096_dp:f:0.7797251475330432"	1096
1	0	"Chromosome"	"S138_LN:i:1092_dp:f:0.7362626851944616"	1092
1	0	"Chromosome"	"S139_LN:i:1085_dp:f:0.46291592662780723"	1085
1	0	"Chromosome"	"S14_LN:i:110710_dp:f:0.9771985921857865"	110710
1	0	"Chromosome"	"S140_LN:i:1046_dp:f:4.073784762416306"	1046
1	0	"Chromosome"	"S141_LN:i:1046_dp:f:1.5417983863341"	1046
1	0	"Chromosome"	"S142_LN:i:1045_dp:f:0.6371174626110583"	1045
1	0	"Chromosome"	"S143_LN:i:1034_dp:f:1.6424049913580672"	1034
1	0	"Chromosome"	"S144_LN:i:1030_dp:f:1.6651155901176737"	1030
1	0	"Chromosome"	"S145_LN:i:1019_dp:f:1.9222906112138676"	1019
1	0	"Chromosome"	"S146_LN:i:1007_dp:f:0.44983516391515793"	1007
1	0	"Chromosome"	"S15_LN:i:108132_dp:f:1.0341851465661593"	108132
1	0	"Chromosome"	"S16_LN:i:97913_dp:f:0.9160230702232683"	97913
1	0	"Chromosome"	"S17_LN:i:96360_dp:f:0.9498099366903706"	96360
1	0	"Chromosome"	"S18_LN:i:92060_dp:f:1.0557870193908847"	92060
1	0	"Chromosome"	"S19_LN:i:91048_dp:f:1.0259207000129182"	91048
1	0	"Chromosome"	"S2_LN:i:217307_dp:f:1.066636424345508"	217307
1	0	"Chromosome"	"S20_LN:i:90315_dp:f:0.910693013552185"	90315
1	0	"Chromosome"	"S21_LN:i:89213_dp:f:0.9986860038388173"	89213
1	0	"Chromosome"	"S22_LN:i:88830_dp:f:1.0252193361644424"	88830
1	0	"Chromosome"	"S23_LN:i:87462_dp:f:1.0321627506462157"	87462
1	0	"Chromosome"	"S24_LN:i:82813_dp:f:0.927422976750165"	82813
1	0	"Chromosome"	"S25_LN:i:81622_dp:f:0.9969796031305712"	81622
1	0	"Chromosome"	"S26_LN:i:80812_dp:f:0.9089070692494732"	80812
1	0	"Chromosome"	"S27_LN:i:73702_dp:f:1.1167414326398934"	73702
1	0	"Chromosome"	"S28_LN:i:59267_dp:f:0.9900560479170076"	59267
1	0	"Chromosome"	"S29_LN:i:58516_dp:f:1.1114105441399122"	58516
1	0	"Chromosome"	"S3_LN:i:202652_dp:f:1.0"	202652
1	0	"Chromosome"	"S30_LN:i:56061_dp:f:1.0342184427271894"	56061
1	0	"Chromosome"	"S31_LN:i:50194_dp:f:0.9085351870709777"	50194
1	0	"Chromosome"	"S32_LN:i:49468_dp:f:0.9950403715811234"	49468
1	0	"Chromosome"	"S33_LN:i:45827_dp:f:0.9849146194635762"	45827
1	0	"Chromosome"	"S34_LN:i:44052_dp:f:0.9921582306679961"	44052
1	0	"Chromosome"	"S35_LN:i:43999_dp:f:1.0632697649806087"	43999
1	0	"Chromosome"	"S36_LN:i:43457_dp:f:1.1215017758594061"	43457
1	0	"Chromosome"	"S37_LN:i:43048_dp:f:1.0194168236545278"	43048
1	0	"Chromosome"	"S38_LN:i:40921_dp:f:1.0998685539446584"	40921
1	0	"Chromosome"	"S39_LN:i:39745_dp:f:0.8975667679726513"	39745
1	0	"Chromosome"	"S4_LN:i:200190_dp:f:0.9048215044755648"	200190
0	1	"Plasmid"	"S40_LN:i:38637_dp:f:1.9136499413441157"	38637
1	0	"Chromosome"	"S41_LN:i:35426_dp:f:1.0435070353853866"	35426
1	0	"Chromosome"	"S42_LN:i:32769_dp:f:0.927828858749637"	32769
1	0	"Chromosome"	"S43_LN:i:30627_dp:f:0.97515349638369"	30627
1	0	"Chromosome"	"S44_LN:i:30602_dp:f:1.0267257275906787"	30602
0.67	0.33	"Chromosome"	"S45_LN:i:28271_dp:f:0.9690791208530111"	28271
1	0	"Chromosome"	"S46_LN:i:28183_dp:f:0.9634420846444516"	28183
1	0	"Chromosome"	"S47_LN:i:28103_dp:f:0.9509736338791339"	28103
1	0	"Chromosome"	"S48_LN:i:27889_dp:f:1.1092047736332964"	27889
1	0	"Chromosome"	"S49_LN:i:27500_dp:f:1.003539212363403"	27500
1	0	"Chromosome"	"S5_LN:i:196353_dp:f:0.9477662355569064"	196353
1	0	"Chromosome"	"S50_LN:i:26070_dp:f:1.0324683075347532"	26070
1	0	"Chromosome"	"S51_LN:i:24072_dp:f:0.8974132993713884"	24072
1	0	"Chromosome"	"S52_LN:i:22558_dp:f:0.9750538735193728"	22558
0	1	"Plasmid"	"S53_LN:i:21125_dp:f:1.8778629200737358"	21125
1	0	"Chromosome"	"S54_LN:i:19396_dp:f:1.0418515652997005"	19396
1	0	"Chromosome"	"S55_LN:i:18967_dp:f:0.86812093598347"	18967
1	0	"Chromosome"	"S56_LN:i:18154_dp:f:0.825566176539174"	18154
1	0	"Chromosome"	"S57_LN:i:17989_dp:f:1.0142079353139637"	17989
0	1	"Plasmid"	"S58_LN:i:16730_dp:f:2.0956675846517197"	16730
1	0	"Chromosome"	"S59_LN:i:16196_dp:f:1.0166577380259163"	16196
1	0	"Chromosome"	"S6_LN:i:183913_dp:f:1.034275822262406"	183913
1	0	"Chromosome"	"S60_LN:i:14927_dp:f:1.0956263972340576"	14927
1	0	"Chromosome"	"S61_LN:i:13622_dp:f:0.8518446672249976"	13622
1	0	"Chromosome"	"S62_LN:i:11650_dp:f:1.5238868054917507"	11650
1	0	"Chromosome"	"S63_LN:i:10930_dp:f:0.9560936417545087"	10930
1	0	"Chromosome"	"S64_LN:i:10551_dp:f:0.9324682327006767"	10551
1	0	"Chromosome"	"S65_LN:i:10083_dp:f:0.8733486957724721"	10083
1	0	"Chromosome"	"S66_LN:i:9531_dp:f:1.181000946931695"	9531
1	0	"Chromosome"	"S67_LN:i:9429_dp:f:0.9642489659940114"	9429
1	0	"Chromosome"	"S68_LN:i:8694_dp:f:0.7624970426138856"	8694
1	0	"Chromosome"	"S69_LN:i:8469_dp:f:1.1408960089770959"	8469
1	0	"Chromosome"	"S7_LN:i:178187_dp:f:0.9075656819891206"	178187
1	0	"Chromosome"	"S70_LN:i:8154_dp:f:0.7406824069092732"	8154
1	0	"Chromosome"	"S71_LN:i:7719_dp:f:0.7978160058955508"	7719
1	0	"Chromosome"	"S72_LN:i:7560_dp:f:0.76259052004437"	7560
1	0	"Chromosome"	"S73_LN:i:7035_dp:f:0.6837166287959469"	7035
1	0	"Chromosome"	"S74_LN:i:7033_dp:f:0.8627271742074016"	7033
1	0	"Chromosome"	"S75_LN:i:7010_dp:f:0.8646568198117979"	7010
1	0	"Chromosome"	"S76_LN:i:6185_dp:f:1.2339395080613604"	6185
1	0	"Chromosome"	"S77_LN:i:5918_dp:f:1.4807053897466276"	5918
1	0	"Chromosome"	"S78_LN:i:5628_dp:f:0.9496721659423196"	5628
1	0	"Chromosome"	"S79_LN:i:5256_dp:f:0.7551544074885711"	5256
1	0	"Chromosome"	"S8_LN:i:157502_dp:f:0.988452366714316"	157502
1	0	"Chromosome"	"S80_LN:i:4971_dp:f:0.8846353199816244"	4971
0.67	0.33	"Chromosome"	"S81_LN:i:4928_dp:f:0.7819458955239589"	4928
1	0	"Chromosome"	"S82_LN:i:4640_dp:f:0.8305017054218318"	4640
0	1	"Plasmid"	"S83_LN:i:4206_dp:f:1.6033741094861826"	4206
1	0	"Chromosome"	"S84_LN:i:4145_dp:f:0.9091721040638926"	4145
1	0	"Chromosome"	"S85_LN:i:4144_dp:f:1.0460805325043214"	4144
1	0	"Chromosome"	"S86_LN:i:4095_dp:f:1.0839528893296615"	4095
1	0	"Chromosome"	"S87_LN:i:3959_dp:f:0.5623785434315022"	3959
1	0	"Chromosome"	"S88_LN:i:3875_dp:f:0.8210815451029188"	3875
0	1	"Plasmid"	"S89_LN:i:3674_dp:f:1.590349519102193"	3674
1	0	"Chromosome"	"S9_LN:i:145166_dp:f:1.1389068724528937"	145166
1	0	"Chromosome"	"S90_LN:i:3653_dp:f:3.786172991876667"	3653
1	0	"Chromosome"	"S91_LN:i:3293_dp:f:0.6930633679127672"	3293
0	1	"Plasmid"	"S92_LN:i:3227_dp:f:1.1309864805692853"	3227
1	0	"Chromosome"	"S93_LN:i:3132_dp:f:1.9278376403618338"	3132
1	0	"Chromosome"	"S94_LN:i:3056_dp:f:1.0200890675178294"	3056
1	0	"Chromosome"	"S95_LN:i:3006_dp:f:0.6415592727512196"	3006
1	0	"Chromosome"	"S96_LN:i:2747_dp:f:1.3001203799662815"	2747
1	0	"Chromosome"	"S97_LN:i:2582_dp:f:0.5605075134815928"	2582
1	0	"Chromosome"	"S98_LN:i:2545_dp:f:0.6422402068380959"	2545
1	0	"Chromosome"	"S99_LN:i:2510_dp:f:1.084467326834181"	2510
