"Prob_Chromosome"	"Prob_Plasmid"	"Prediction"	"Contig_name"	"Contig_length"
1	0	"Chromosome"	"S1_LN:i:559179_dp:f:0.9993511565863673"	559179
1	0	"Chromosome"	"S10_LN:i:159297_dp:f:1.0142663876406635"	159297
1	0	"Chromosome"	"S11_LN:i:147303_dp:f:1.0240063934856796"	147303
1	0	"Chromosome"	"S12_LN:i:139170_dp:f:0.9603541756469429"	139170
1	0	"Chromosome"	"S13_LN:i:125347_dp:f:1.0392913678681832"	125347
1	0	"Chromosome"	"S14_LN:i:125117_dp:f:1.0204503771487186"	125117
1	0	"Chromosome"	"S15_LN:i:124375_dp:f:1.011088342620404"	124375
1	0	"Chromosome"	"S16_LN:i:119252_dp:f:0.9783600979960515"	119252
0	1	"Plasmid"	"S17_LN:i:110561_dp:f:0.9614427101242948"	110561
1	0	"Chromosome"	"S18_LN:i:109175_dp:f:0.982155474299671"	109175
1	0	"Chromosome"	"S19_LN:i:105702_dp:f:1.0025394463127657"	105702
1	0	"Chromosome"	"S2_LN:i:391650_dp:f:0.9730535178879802"	391650
1	0	"Chromosome"	"S20_LN:i:101590_dp:f:1.0153451154916595"	101590
1	0	"Chromosome"	"S21_LN:i:96279_dp:f:1.0084177370673344"	96279
1	0	"Chromosome"	"S22_LN:i:94926_dp:f:1.0379069563387409"	94926
0	1	"Plasmid"	"S23_LN:i:93336_dp:f:1.1506721526215344"	93336
1	0	"Chromosome"	"S24_LN:i:90975_dp:f:1.0866660979413214"	90975
1	0	"Chromosome"	"S25_LN:i:90285_dp:f:0.9833217397113543"	90285
1	0	"Chromosome"	"S26_LN:i:88217_dp:f:1.0578088862750896"	88217
1	0	"Chromosome"	"S27_LN:i:77841_dp:f:0.9677566416652474"	77841
1	0	"Chromosome"	"S28_LN:i:69995_dp:f:1.0292060428626089"	69995
1	0	"Chromosome"	"S29_LN:i:56289_dp:f:1.015786997555747"	56289
1	0	"Chromosome"	"S3_LN:i:373922_dp:f:1.0140541062579964"	373922
1	0	"Chromosome"	"S30_LN:i:43382_dp:f:0.9659598285103048"	43382
1	0	"Chromosome"	"S31_LN:i:41169_dp:f:1.0049082263297047"	41169
1	0	"Chromosome"	"S32_LN:i:37628_dp:f:1.0542421311151489"	37628
1	0	"Chromosome"	"S33_LN:i:30712_dp:f:1.0623888782252886"	30712
1	0	"Chromosome"	"S34_LN:i:30038_dp:f:0.925252593421659"	30038
1	0	"Chromosome"	"S35_LN:i:26050_dp:f:1.005054449121821"	26050
1	0	"Chromosome"	"S36_LN:i:18827_dp:f:1.049155496423701"	18827
1	0	"Chromosome"	"S37_LN:i:15752_dp:f:0.9705293148213233"	15752
1	0	"Chromosome"	"S38_LN:i:13537_dp:f:0.935545353557752"	13537
1	0	"Chromosome"	"S39_LN:i:8734_dp:f:0.9668989189057061"	8734
1	0	"Chromosome"	"S4_LN:i:275016_dp:f:1.006801818791445"	275016
0.67	0.33	"Chromosome"	"S40_LN:i:7051_dp:f:1.124731596034982"	7051
1	0	"Chromosome"	"S41_LN:i:6243_dp:f:1.0787344343901974"	6243
0	1	"Plasmid"	"S42_LN:i:4671_dp:f:29.08259912741561"	4671
1	0	"Chromosome"	"S43_LN:i:4113_dp:f:0.9910363432051003"	4113
1	0	"Chromosome"	"S44_LN:i:2937_dp:f:7.232686184268765"	2937
1	0	"Chromosome"	"S45_LN:i:2857_dp:f:0.8905914616991234"	2857
1	0	"Chromosome"	"S46_LN:i:2772_dp:f:0.8580053010266173"	2772
1	0	"Chromosome"	"S47_LN:i:2485_dp:f:3.0409429660993923"	2485
0.67	0.33	"Chromosome"	"S48_LN:i:2133_dp:f:1.2035170014306753"	2133
1	0	"Chromosome"	"S49_LN:i:2073_dp:f:1.9530942310701862"	2073
1	0	"Chromosome"	"S5_LN:i:243935_dp:f:0.9904059655658335"	243935
1	0	"Chromosome"	"S50_LN:i:2020_dp:f:1.9463519628863861"	2020
1	0	"Chromosome"	"S51_LN:i:1870_dp:f:0.9002090552566339"	1870
0.33	0.67	"Plasmid"	"S52_LN:i:1795_dp:f:2.240747914730542"	1795
1	0	"Chromosome"	"S53_LN:i:1702_dp:f:7.14378516127405"	1702
1	0	"Chromosome"	"S54_LN:i:1568_dp:f:2.267753993566976"	1568
1	0	"Chromosome"	"S55_LN:i:1515_dp:f:0.9424633033379405"	1515
1	0	"Chromosome"	"S56_LN:i:1475_dp:f:0.9432069798960458"	1475
1	0	"Chromosome"	"S57_LN:i:1424_dp:f:1.0022931122783614"	1424
1	0	"Chromosome"	"S58_LN:i:1343_dp:f:4.200746705215338"	1343
0.67	0.33	"Chromosome"	"S59_LN:i:1331_dp:f:6.04984887389947"	1331
1	0	"Chromosome"	"S6_LN:i:231866_dp:f:1.0"	231866
1	0	"Chromosome"	"S60_LN:i:1213_dp:f:2.964442638936242"	1213
1	0	"Chromosome"	"S61_LN:i:1168_dp:f:0.7943038748212142"	1168
1	0	"Chromosome"	"S62_LN:i:1133_dp:f:2.133213735457211"	1133
1	0	"Chromosome"	"S63_LN:i:1090_dp:f:1.0775908385358555"	1090
1	0	"Chromosome"	"S64_LN:i:1089_dp:f:1.0368323673280144"	1089
1	0	"Chromosome"	"S65_LN:i:1031_dp:f:1.8909178457735671"	1031
1	0	"Chromosome"	"S7_LN:i:211340_dp:f:1.0062149312412032"	211340
1	0	"Chromosome"	"S8_LN:i:173976_dp:f:1.0104290497115616"	173976
1	0	"Chromosome"	"S9_LN:i:165141_dp:f:0.9987259188882744"	165141
