"Prob_Chromosome"	"Prob_Plasmid"	"Prediction"	"Contig_name"	"Contig_length"
1	0	"Chromosome"	"S1_LN:i:1042256_dp:f:1.022256249256221"	1042256
1	0	"Chromosome"	"S10_LN:i:120273_dp:f:0.8883198172659379"	120273
1	0	"Chromosome"	"S11_LN:i:88339_dp:f:0.8393484346475247"	88339
1	0	"Chromosome"	"S12_LN:i:71896_dp:f:1.0456367130079383"	71896
1	0	"Chromosome"	"S13_LN:i:57060_dp:f:0.9116850340236768"	57060
1	0	"Chromosome"	"S14_LN:i:32267_dp:f:0.9293327331889119"	32267
1	0	"Chromosome"	"S15_LN:i:30733_dp:f:0.8627011867656211"	30733
1	0	"Chromosome"	"S16_LN:i:25243_dp:f:0.9847947602383513"	25243
1	0	"Chromosome"	"S17_LN:i:4113_dp:f:0.8552355081829922"	4113
0	1	"Plasmid"	"S18_LN:i:3048_dp:f:80.5051072816717"	3048
1	0	"Chromosome"	"S19_LN:i:2936_dp:f:6.136209483847373"	2936
1	0	"Chromosome"	"S2_LN:i:525145_dp:f:0.9548100928630364"	525145
1	0	"Chromosome"	"S20_LN:i:1283_dp:f:7.4607769520794305"	1283
1	0	"Chromosome"	"S21_LN:i:1133_dp:f:1.8610215590398098"	1133
1	0	"Chromosome"	"S22_LN:i:1031_dp:f:1.7843425398356203"	1031
1	0	"Chromosome"	"S3_LN:i:505182_dp:f:1.0"	505182
1	0	"Chromosome"	"S4_LN:i:416125_dp:f:1.0573541370493196"	416125
1	0	"Chromosome"	"S5_LN:i:412216_dp:f:0.8903611719732163"	412216
1	0	"Chromosome"	"S6_LN:i:181991_dp:f:0.8786521517124413"	181991
1	0	"Chromosome"	"S7_LN:i:136275_dp:f:0.8699072867535225"	136275
1	0	"Chromosome"	"S8_LN:i:133448_dp:f:0.9916216423548929"	133448
1	0	"Chromosome"	"S9_LN:i:125453_dp:f:0.7886842233214919"	125453
