"Prob_Chromosome"	"Prob_Plasmid"	"Prediction"	"Contig_name"	"Contig_length"
1	0	"Chromosome"	"S7_LN:i:147432_dp:f:0.9107198526754059"	147432
1	0	"Chromosome"	"S4_LN:i:186066_dp:f:0.9061904152499982"	186066
1	0	"Chromosome"	"S6_LN:i:166380_dp:f:1.1111442775232823"	166380
1	0	"Chromosome"	"S8_LN:i:147297_dp:f:1.1063875819919393"	147297
1	0	"Chromosome"	"S5_LN:i:182672_dp:f:1.1519425023180752"	182672
1	0	"Chromosome"	"S2_LN:i:231356_dp:f:1.0770702702691706"	231356
1	0	"Chromosome"	"S3_LN:i:219664_dp:f:1.0"	219664
1	0	"Chromosome"	"S1_LN:i:248302_dp:f:0.9552520889345109"	248302
1	0	"Chromosome"	"S9_LN:i:141194_dp:f:0.9818015729670909"	141194
1	0	"Chromosome"	"S10_LN:i:141047_dp:f:1.0758745162069847"	141047
1	0	"Chromosome"	"S12_LN:i:134609_dp:f:0.9093258223266278"	134609
1	0	"Chromosome"	"S16_LN:i:94758_dp:f:1.1236627784347326"	94758
1	0	"Chromosome"	"S11_LN:i:134709_dp:f:1.0707499596197707"	134709
1	0	"Chromosome"	"S15_LN:i:97214_dp:f:1.0596407782973527"	97214
1	0	"Chromosome"	"S13_LN:i:125419_dp:f:1.0794970500902052"	125419
1	0	"Chromosome"	"S14_LN:i:120610_dp:f:0.972289526413098"	120610
1	0	"Chromosome"	"S17_LN:i:93883_dp:f:1.0786291484972388"	93883
1	0	"Chromosome"	"S18_LN:i:91624_dp:f:1.0303514807204937"	91624
1	0	"Chromosome"	"S24_LN:i:69125_dp:f:1.0380260987242125"	69125
1	0	"Chromosome"	"S19_LN:i:88131_dp:f:1.0993873356042574"	88131
1	0	"Chromosome"	"S23_LN:i:77395_dp:f:0.9871879233677139"	77395
1	0	"Chromosome"	"S20_LN:i:86611_dp:f:1.0802988642974782"	86611
1	0	"Chromosome"	"S22_LN:i:81066_dp:f:1.0429425571394815"	81066
1	0	"Chromosome"	"S21_LN:i:81983_dp:f:1.0206052674296275"	81983
1	0	"Chromosome"	"S25_LN:i:69046_dp:f:1.0648632634360704"	69046
1	0	"Chromosome"	"S26_LN:i:64307_dp:f:0.9191643516630815"	64307
1	0	"Chromosome"	"S27_LN:i:63811_dp:f:0.9902772208052217"	63811
0	1	"Plasmid"	"S28_LN:i:61025_dp:f:0.6463130484150456"	61025
1	0	"Chromosome"	"S30_LN:i:59876_dp:f:1.0097931134677243"	59876
1	0	"Chromosome"	"S29_LN:i:60551_dp:f:0.9795716076883833"	60551
1	0	"Chromosome"	"S31_LN:i:56155_dp:f:0.905781621607876"	56155
1	0	"Chromosome"	"S32_LN:i:50848_dp:f:0.9930707488576788"	50848
1	0	"Chromosome"	"S34_LN:i:48220_dp:f:0.8966266567850811"	48220
1	0	"Chromosome"	"S33_LN:i:49320_dp:f:0.9668201877814097"	49320
1	0	"Chromosome"	"S35_LN:i:47659_dp:f:0.9295447297388091"	47659
1	0	"Chromosome"	"S39_LN:i:41168_dp:f:1.1172533450620767"	41168
1	0	"Chromosome"	"S36_LN:i:45916_dp:f:0.9417776702199359"	45916
1	0	"Chromosome"	"S38_LN:i:45657_dp:f:1.2133168244434767"	45657
1	0	"Chromosome"	"S37_LN:i:45869_dp:f:0.9207451784187254"	45869
1	0	"Chromosome"	"S40_LN:i:41021_dp:f:1.0887695520481606"	41021
1	0	"Chromosome"	"S41_LN:i:40636_dp:f:1.0171040314113375"	40636
1	0	"Chromosome"	"S44_LN:i:37223_dp:f:0.9655965647243293"	37223
1	0	"Chromosome"	"S42_LN:i:40496_dp:f:0.9348324360669673"	40496
1	0	"Chromosome"	"S43_LN:i:37560_dp:f:0.9098597845274162"	37560
1	0	"Chromosome"	"S45_LN:i:32541_dp:f:1.0045536940439141"	32541
1	0	"Chromosome"	"S46_LN:i:30733_dp:f:1.059497369094459"	30733
1	0	"Chromosome"	"S47_LN:i:30698_dp:f:1.0960288798011295"	30698
1	0	"Chromosome"	"S49_LN:i:24411_dp:f:0.9469885432774479"	24411
1	0	"Chromosome"	"S51_LN:i:22871_dp:f:1.190879232060557"	22871
1	0	"Chromosome"	"S48_LN:i:29449_dp:f:1.0525391197338052"	29449
1	0	"Chromosome"	"S50_LN:i:23020_dp:f:0.903814196365881"	23020
1	0	"Chromosome"	"S54_LN:i:19198_dp:f:0.9040099083178735"	19198
1	0	"Chromosome"	"S52_LN:i:22710_dp:f:1.1398712600677419"	22710
1	0	"Chromosome"	"S55_LN:i:18155_dp:f:0.9439403301969304"	18155
1	0	"Chromosome"	"S56_LN:i:16879_dp:f:1.1937674286261637"	16879
1	0	"Chromosome"	"S53_LN:i:20779_dp:f:1.058775242794462"	20779
1	0	"Chromosome"	"S57_LN:i:16601_dp:f:0.930617008670838"	16601
1	0	"Chromosome"	"S58_LN:i:16443_dp:f:0.9085767947051706"	16443
1	0	"Chromosome"	"S59_LN:i:15648_dp:f:0.9008260208022087"	15648
1	0	"Chromosome"	"S60_LN:i:14561_dp:f:1.003987556701451"	14561
1	0	"Chromosome"	"S61_LN:i:13852_dp:f:0.9456551843874886"	13852
1	0	"Chromosome"	"S62_LN:i:13417_dp:f:1.0487481139057546"	13417
1	0	"Chromosome"	"S63_LN:i:13310_dp:f:1.160891159164777"	13310
1	0	"Chromosome"	"S65_LN:i:12012_dp:f:1.0303354173414918"	12012
1	0	"Chromosome"	"S64_LN:i:12718_dp:f:1.212410625002365"	12718
1	0	"Chromosome"	"S66_LN:i:11370_dp:f:1.0800031916797712"	11370
0	1	"Plasmid"	"S72_LN:i:8107_dp:f:0.6302675315499878"	8107
1	0	"Chromosome"	"S68_LN:i:10269_dp:f:1.0057670677160762"	10269
0	1	"Plasmid"	"S71_LN:i:8277_dp:f:0.5737266600537575"	8277
0	1	"Plasmid"	"S67_LN:i:10710_dp:f:0.6186654143209013"	10710
1	0	"Chromosome"	"S73_LN:i:6756_dp:f:1.1556420040078024"	6756
1	0	"Chromosome"	"S70_LN:i:9268_dp:f:0.8987054612393099"	9268
0	1	"Plasmid"	"S69_LN:i:10057_dp:f:0.6588508115300485"	10057
0	1	"Plasmid"	"S74_LN:i:6729_dp:f:0.721139708547436"	6729
1	0	"Chromosome"	"S79_LN:i:4455_dp:f:1.190439019083156"	4455
1	0	"Chromosome"	"S78_LN:i:4956_dp:f:0.9167763271630717"	4956
1	0	"Chromosome"	"S76_LN:i:6343_dp:f:1.0873837821106205"	6343
1	0	"Chromosome"	"S75_LN:i:6649_dp:f:1.1703019284598053"	6649
1	0	"Chromosome"	"S82_LN:i:3627_dp:f:1.080147084719382"	3627
1	0	"Chromosome"	"S81_LN:i:4113_dp:f:1.1414552447115809"	4113
1	0	"Chromosome"	"S80_LN:i:4390_dp:f:1.0811720928041681"	4390
0	1	"Plasmid"	"S77_LN:i:5787_dp:f:0.6508255137262261"	5787
1	0	"Chromosome"	"S84_LN:i:3519_dp:f:0.9965762426390773"	3519
0	1	"Plasmid"	"S83_LN:i:3623_dp:f:0.6612176923655292"	3623
0	1	"Plasmid"	"S85_LN:i:3360_dp:f:0.6926387745171195"	3360
1	0	"Chromosome"	"S87_LN:i:2999_dp:f:1.0059655779675463"	2999
1	0	"Chromosome"	"S88_LN:i:2961_dp:f:1.2020950810467042"	2961
1	0	"Chromosome"	"S86_LN:i:3273_dp:f:1.1098921080999038"	3273
1	0	"Chromosome"	"S89_LN:i:2857_dp:f:0.9240368579912689"	2857
1	0	"Chromosome"	"S90_LN:i:2776_dp:f:2.4162612108090546"	2776
1	0	"Chromosome"	"S92_LN:i:2659_dp:f:0.9176920365335066"	2659
1	0	"Chromosome"	"S94_LN:i:2224_dp:f:1.1087907505811885"	2224
1	0	"Chromosome"	"S93_LN:i:2630_dp:f:0.8580248571503993"	2630
1	0	"Chromosome"	"S95_LN:i:2206_dp:f:0.9225664979217468"	2206
1	0	"Chromosome"	"S96_LN:i:2149_dp:f:0.8051330756978953"	2149
1	0	"Chromosome"	"S91_LN:i:2716_dp:f:1.2551253175581085"	2716
1	0	"Chromosome"	"S97_LN:i:2095_dp:f:0.984004568072438"	2095
1	0	"Chromosome"	"S98_LN:i:2073_dp:f:0.8725115574425917"	2073
0	1	"Plasmid"	"S99_LN:i:1976_dp:f:0.5661556798748016"	1976
1	0	"Chromosome"	"S105_LN:i:1838_dp:f:0.9205455119551894"	1838
1	0	"Chromosome"	"S104_LN:i:1927_dp:f:8.615519155342708"	1927
1	0	"Chromosome"	"S103_LN:i:1946_dp:f:1.9288301193069135"	1946
1	0	"Chromosome"	"S100_LN:i:1970_dp:f:1.1793894948279338"	1970
0	1	"Plasmid"	"S101_LN:i:1956_dp:f:2.4109565218121327"	1956
1	0	"Chromosome"	"S102_LN:i:1951_dp:f:1.2031228470007769"	1951
1	0	"Chromosome"	"S106_LN:i:1754_dp:f:3.9400418100439523"	1754
1	0	"Chromosome"	"S107_LN:i:1649_dp:f:1.1669886146223656"	1649
0.5	0.5	"Plasmid"	"S108_LN:i:1476_dp:f:1.7238655158585137"	1476
1	0	"Chromosome"	"S110_LN:i:1407_dp:f:1.2004705508859876"	1407
1	0	"Chromosome"	"S112_LN:i:1322_dp:f:2.2259160240642974"	1322
1	0	"Chromosome"	"S109_LN:i:1421_dp:f:1.0896328003218605"	1421
0.5	0.5	"Plasmid"	"S111_LN:i:1343_dp:f:7.284209527852011"	1343
0	1	"Plasmid"	"S114_LN:i:1308_dp:f:0.6100124300919065"	1308
1	0	"Chromosome"	"S116_LN:i:1264_dp:f:1.1084386142186171"	1264
0.5	0.5	"Plasmid"	"S113_LN:i:1315_dp:f:10.838431182382692"	1315
0.5	0.5	"Plasmid"	"S115_LN:i:1283_dp:f:8.874385733390135"	1283
1	0	"Chromosome"	"S118_LN:i:1238_dp:f:2.004326839406341"	1238
1	0	"Chromosome"	"S120_LN:i:1199_dp:f:1.286983797576544"	1199
0.5	0.5	"Plasmid"	"S117_LN:i:1259_dp:f:2.1935498152698836"	1259
1	0	"Chromosome"	"S119_LN:i:1202_dp:f:1.0529364464457365"	1202
0.5	0.5	"Plasmid"	"S122_LN:i:1168_dp:f:18.940301924729443"	1168
1	0	"Chromosome"	"S121_LN:i:1176_dp:f:1.819069244123626"	1176
1	0	"Chromosome"	"S123_LN:i:1155_dp:f:0.9611820385191892"	1155
1	0	"Chromosome"	"S126_LN:i:1031_dp:f:2.0957515609939823"	1031
1	0	"Chromosome"	"S127_LN:i:1026_dp:f:3.288206001921451"	1026
1	0	"Chromosome"	"S125_LN:i:1044_dp:f:8.720510464937982"	1044
1	0	"Chromosome"	"S128_LN:i:1004_dp:f:1.8005677151381378"	1004
1	0	"Chromosome"	"S129_LN:i:988_dp:f:0.9865929493569227"	988
1	0	"Chromosome"	"S130_LN:i:988_dp:f:0.8524638798445271"	988
1	0	"Chromosome"	"S133_LN:i:833_dp:f:1.1840391656774953"	833
1	0	"Chromosome"	"S134_LN:i:829_dp:f:0.9761253839048069"	829
1	0	"Chromosome"	"S132_LN:i:856_dp:f:1.8062573930107093"	856
1	0	"Chromosome"	"S135_LN:i:829_dp:f:1.0170186826144738"	829
1	0	"Chromosome"	"S124_LN:i:1133_dp:f:2.180535672025625"	1133
1	0	"Chromosome"	"S131_LN:i:973_dp:f:2.106653902119919"	973
0	1	"Plasmid"	"S138_LN:i:801_dp:f:0.7365996947793764"	801
1	0	"Chromosome"	"S136_LN:i:808_dp:f:0.8846190874466938"	808
1	0	"Chromosome"	"S137_LN:i:805_dp:f:0.9051388445294531"	805
1	0	"Chromosome"	"S141_LN:i:747_dp:f:1.7361934334871711"	747
1	0	"Chromosome"	"S139_LN:i:768_dp:f:2.524555818821729"	768
1	0	"Chromosome"	"S140_LN:i:764_dp:f:1.6268155150653223"	764
0.5	0.5	"Plasmid"	"S143_LN:i:676_dp:f:3.4861801324838506"	676
1	0	"Chromosome"	"S142_LN:i:725_dp:f:0.9665376755224023"	725
0.5	0.5	"Plasmid"	"S144_LN:i:671_dp:f:1.991085438056147"	671
1	0	"Chromosome"	"S145_LN:i:641_dp:f:2.804935132046039"	641
1	0	"Chromosome"	"S146_LN:i:635_dp:f:0.8587784328369958"	635
1	0	"Chromosome"	"S147_LN:i:635_dp:f:1.0421538065235652"	635
1	0	"Chromosome"	"S148_LN:i:604_dp:f:1.1957584167162723"	604
1	0	"Chromosome"	"S149_LN:i:593_dp:f:0.8626405626624332"	593
1	0	"Chromosome"	"S150_LN:i:574_dp:f:0.9956570980279523"	574
1	0	"Chromosome"	"S153_LN:i:564_dp:f:2.083487267893599"	564
0	1	"Plasmid"	"S152_LN:i:565_dp:f:1.05556111548399"	565
1	0	"Chromosome"	"S151_LN:i:565_dp:f:1.2226665602745017"	565
1	0	"Chromosome"	"S154_LN:i:552_dp:f:1.865218993309538"	552
1	0	"Chromosome"	"S157_LN:i:533_dp:f:1.0724314373620683"	533
1	0	"Chromosome"	"S159_LN:i:515_dp:f:2.074387557223876"	515
1	0	"Chromosome"	"S158_LN:i:531_dp:f:1.102882620430929"	531
1	0	"Chromosome"	"S156_LN:i:535_dp:f:0.7108803864182808"	535
0.5	0.5	"Plasmid"	"S160_LN:i:513_dp:f:1.631790517723338"	513
1	0	"Chromosome"	"S155_LN:i:551_dp:f:1.354100562506333"	551
0.5	0.5	"Plasmid"	"S161_LN:i:504_dp:f:2.370895906092278"	504
