"Prob_Chromosome"	"Prob_Plasmid"	"Prediction"	"Contig_name"	"Contig_length"
1	0	"Chromosome"	"S8_LN:i:179925_dp:f:0.970039006357439"	179925
1	0	"Chromosome"	"S7_LN:i:195509_dp:f:1.0456928145042426"	195509
1	0	"Chromosome"	"S6_LN:i:209780_dp:f:1.0156082707269083"	209780
1	0	"Chromosome"	"S5_LN:i:227910_dp:f:0.9651389416348232"	227910
1	0	"Chromosome"	"S4_LN:i:235760_dp:f:0.9870706573629756"	235760
1	0	"Chromosome"	"S3_LN:i:313252_dp:f:1.0439572055951363"	313252
1	0	"Chromosome"	"S10_LN:i:167051_dp:f:1.0059652579505933"	167051
1	0	"Chromosome"	"S13_LN:i:135030_dp:f:1.0018967343826994"	135030
1	0	"Chromosome"	"S12_LN:i:140185_dp:f:1.036638615669709"	140185
1	0	"Chromosome"	"S11_LN:i:147394_dp:f:1.0337417064733458"	147394
1	0	"Chromosome"	"S9_LN:i:173997_dp:f:0.9757483708838363"	173997
1	0	"Chromosome"	"S2_LN:i:416351_dp:f:1.0306318096144564"	416351
1	0	"Chromosome"	"S14_LN:i:122742_dp:f:1.0206945720948883"	122742
0	1	"Plasmid"	"S17_LN:i:112153_dp:f:0.836995373689662"	112153
1	0	"Chromosome"	"S15_LN:i:120002_dp:f:1.0411948897317143"	120002
1	0	"Chromosome"	"S16_LN:i:119211_dp:f:0.990495872342318"	119211
1	0	"Chromosome"	"S20_LN:i:94221_dp:f:1.020704594614942"	94221
1	0	"Chromosome"	"S18_LN:i:104576_dp:f:0.9831065866768065"	104576
1	0	"Chromosome"	"S19_LN:i:94622_dp:f:1.0399582200936521"	94622
1	0	"Chromosome"	"S22_LN:i:84562_dp:f:1.0522329279629419"	84562
1	0	"Chromosome"	"S21_LN:i:87632_dp:f:1.006932048457751"	87632
1	0	"Chromosome"	"S27_LN:i:45574_dp:f:1.034997619349911"	45574
1	0	"Chromosome"	"S26_LN:i:55092_dp:f:0.9692478832926797"	55092
1	0	"Chromosome"	"S23_LN:i:76733_dp:f:0.9798087766782895"	76733
1	0	"Chromosome"	"S24_LN:i:75328_dp:f:0.9644523443428437"	75328
1	0	"Chromosome"	"S30_LN:i:33015_dp:f:1.0116828322998557"	33015
1	0	"Chromosome"	"S31_LN:i:30867_dp:f:1.0375186658214917"	30867
1	0	"Chromosome"	"S32_LN:i:29870_dp:f:1.0101192098348737"	29870
1	0	"Chromosome"	"S25_LN:i:75163_dp:f:1.016791474776174"	75163
1	0	"Chromosome"	"S33_LN:i:26140_dp:f:1.0467429559327206"	26140
1	0	"Chromosome"	"S35_LN:i:7488_dp:f:1.059888019443486"	7488
1	0	"Chromosome"	"S38_LN:i:2955_dp:f:1.0614182942508346"	2955
1	0	"Chromosome"	"S37_LN:i:4448_dp:f:1.0278380777063567"	4448
1	0	"Chromosome"	"S28_LN:i:43526_dp:f:1.0212771174059452"	43526
1	0	"Chromosome"	"S36_LN:i:6857_dp:f:0.9730026837601247"	6857
1	0	"Chromosome"	"S39_LN:i:2369_dp:f:0.9596445961413055"	2369
1	0	"Chromosome"	"S41_LN:i:1896_dp:f:0.9480891407566071"	1896
1	0	"Chromosome"	"S40_LN:i:2300_dp:f:0.9125347428802143"	2300
1	0	"Chromosome"	"S42_LN:i:1784_dp:f:0.9491622793129181"	1784
1	0	"Chromosome"	"S44_LN:i:1682_dp:f:1.0400775791961117"	1682
1	0	"Chromosome"	"S45_LN:i:1561_dp:f:0.9517291742580538"	1561
1	0	"Chromosome"	"S46_LN:i:1538_dp:f:0.9684448789859658"	1538
1	0	"Chromosome"	"S43_LN:i:1732_dp:f:7.15633476514709"	1732
1	0	"Chromosome"	"S47_LN:i:1536_dp:f:2.5711417966695462"	1536
1	0	"Chromosome"	"S51_LN:i:1088_dp:f:0.8738827667332163"	1088
1	0	"Chromosome"	"S49_LN:i:1295_dp:f:7.373073729369963"	1295
1	0	"Chromosome"	"S29_LN:i:41543_dp:f:0.9516473608776835"	41543
1	0	"Chromosome"	"S48_LN:i:1535_dp:f:1.0283471852795645"	1535
1	0	"Chromosome"	"S52_LN:i:1079_dp:f:2.072226834792248"	1079
1	0	"Chromosome"	"S54_LN:i:1036_dp:f:0.8078810827445949"	1036
1	0	"Chromosome"	"S53_LN:i:1045_dp:f:0.8221078495106262"	1045
1	0	"Chromosome"	"S55_LN:i:974_dp:f:0.7962735467011441"	974
0.5	0.5	"Plasmid"	"S50_LN:i:1258_dp:f:4.011295925970215"	1258
0.5	0.5	"Plasmid"	"S56_LN:i:973_dp:f:6.922151586547737"	973
1	0	"Chromosome"	"S59_LN:i:809_dp:f:0.9503093293989349"	809
1	0	"Chromosome"	"S60_LN:i:808_dp:f:1.8065795398642939"	808
1	0	"Chromosome"	"S61_LN:i:804_dp:f:2.0596298755690814"	804
1	0	"Chromosome"	"S58_LN:i:896_dp:f:0.9201159592765797"	896
0.5	0.5	"Plasmid"	"S63_LN:i:731_dp:f:7.911817165466471"	731
1	0	"Chromosome"	"S64_LN:i:710_dp:f:1.7110643770682428"	710
1	0	"Chromosome"	"S65_LN:i:526_dp:f:0.8578372952554505"	526
1	0	"Chromosome"	"S62_LN:i:797_dp:f:6.98279985989756"	797
1	0	"Chromosome"	"S66_LN:i:526_dp:f:1.9257526607970443"	526
1	0	"Chromosome"	"S57_LN:i:956_dp:f:1.8811871062540582"	956
1	0	"Chromosome"	"S34_LN:i:24357_dp:f:0.9682521550367121"	24357
1	0	"Chromosome"	"S1_LN:i:660372_dp:f:1.0"	660372
