"Prob_Chromosome"	"Prob_Plasmid"	"Prediction"	"Contig_name"	"Contig_length"
1	0	"Chromosome"	"S8_LN:i:259558_dp:f:1.0015107247475403"	259558
1	0	"Chromosome"	"S7_LN:i:276596_dp:f:1.0642841932093638"	276596
1	0	"Chromosome"	"S4_LN:i:317252_dp:f:0.9510422247265632"	317252
1	0	"Chromosome"	"S5_LN:i:300946_dp:f:1.0408875404789537"	300946
1	0	"Chromosome"	"S6_LN:i:294612_dp:f:1.0136965551649235"	294612
1	0	"Chromosome"	"S3_LN:i:352514_dp:f:1.0"	352514
1	0	"Chromosome"	"S2_LN:i:455409_dp:f:0.963114738433083"	455409
1	0	"Chromosome"	"S11_LN:i:157995_dp:f:1.039455173450192"	157995
1	0	"Chromosome"	"S14_LN:i:120922_dp:f:1.0601794321348728"	120922
1	0	"Chromosome"	"S12_LN:i:148319_dp:f:1.0539536649383712"	148319
1	0	"Chromosome"	"S13_LN:i:135160_dp:f:1.039911507840546"	135160
1	0	"Chromosome"	"S1_LN:i:492794_dp:f:0.9830431586452244"	492794
1	0	"Chromosome"	"S10_LN:i:214743_dp:f:1.0655854931908268"	214743
1	0	"Chromosome"	"S9_LN:i:216069_dp:f:1.0711417678817812"	216069
1	0	"Chromosome"	"S15_LN:i:112883_dp:f:1.0855676347818146"	112883
1	0	"Chromosome"	"S18_LN:i:94245_dp:f:1.096726618871476"	94245
1	0	"Chromosome"	"S19_LN:i:90810_dp:f:0.9873427115086606"	90810
1	0	"Chromosome"	"S17_LN:i:95152_dp:f:1.0297417127714183"	95152
1	0	"Chromosome"	"S16_LN:i:99982_dp:f:1.0590978139705274"	99982
1	0	"Chromosome"	"S20_LN:i:79748_dp:f:1.0583122718751083"	79748
0	1	"Plasmid"	"S22_LN:i:65876_dp:f:1.362263477976189"	65876
1	0	"Chromosome"	"S21_LN:i:77699_dp:f:1.0194523451961806"	77699
0	1	"Plasmid"	"S29_LN:i:37038_dp:f:1.3461827373410769"	37038
1	0	"Chromosome"	"S23_LN:i:61766_dp:f:0.937073089694116"	61766
1	0	"Chromosome"	"S28_LN:i:37996_dp:f:1.0182015437883807"	37996
1	0	"Chromosome"	"S27_LN:i:43524_dp:f:0.9905061425812742"	43524
1	0	"Chromosome"	"S26_LN:i:48000_dp:f:1.0386454434936236"	48000
1	0	"Chromosome"	"S30_LN:i:33735_dp:f:1.0017607508329185"	33735
1	0	"Chromosome"	"S24_LN:i:59054_dp:f:0.9492221718162931"	59054
1	0	"Chromosome"	"S25_LN:i:57813_dp:f:1.0953173869843302"	57813
1	0	"Chromosome"	"S31_LN:i:32966_dp:f:1.0185598153051234"	32966
0	1	"Plasmid"	"S32_LN:i:32377_dp:f:1.322774069454189"	32377
1	0	"Chromosome"	"S34_LN:i:30663_dp:f:1.058181863537669"	30663
1	0	"Chromosome"	"S35_LN:i:26059_dp:f:1.1134160082707127"	26059
1	0	"Chromosome"	"S36_LN:i:24725_dp:f:0.9466119983001867"	24725
1	0	"Chromosome"	"S33_LN:i:31940_dp:f:1.083742070933149"	31940
1	0	"Chromosome"	"S39_LN:i:15752_dp:f:1.0666957968275887"	15752
1	0	"Chromosome"	"S38_LN:i:17459_dp:f:0.9462691365341507"	17459
1	0	"Chromosome"	"S37_LN:i:24233_dp:f:1.030625998708858"	24233
1	0	"Chromosome"	"S40_LN:i:12736_dp:f:1.005891414106361"	12736
1	0	"Chromosome"	"S41_LN:i:8743_dp:f:0.9362730453672081"	8743
0	1	"Plasmid"	"S43_LN:i:8085_dp:f:1.3419527566631257"	8085
1	0	"Chromosome"	"S46_LN:i:6539_dp:f:1.0513695702074095"	6539
1	0	"Chromosome"	"S42_LN:i:8591_dp:f:1.0921661795210542"	8591
1	0	"Chromosome"	"S49_LN:i:2572_dp:f:7.196022546100794"	2572
1	0	"Chromosome"	"S48_LN:i:4108_dp:f:1.119835406543785"	4108
1	0	"Chromosome"	"S44_LN:i:7912_dp:f:0.9229307074344074"	7912
1	0	"Chromosome"	"S45_LN:i:6904_dp:f:1.9246556837108284"	6904
0.5	0.5	"Plasmid"	"S53_LN:i:1708_dp:f:1.3233243669571437"	1708
1	0	"Chromosome"	"S51_LN:i:1826_dp:f:2.5978116570132777"	1826
1	0	"Chromosome"	"S52_LN:i:1732_dp:f:7.321208507374981"	1732
1	0	"Chromosome"	"S55_LN:i:1616_dp:f:1.0094537229774"	1616
1	0	"Chromosome"	"S47_LN:i:5536_dp:f:0.896738845763976"	5536
1	0	"Chromosome"	"S56_LN:i:1576_dp:f:0.947696775947017"	1576
1	0	"Chromosome"	"S57_LN:i:1576_dp:f:1.099375491998963"	1576
1	0	"Chromosome"	"S54_LN:i:1646_dp:f:2.120219148131898"	1646
1	0	"Chromosome"	"S50_LN:i:2532_dp:f:3.5506366891560366"	2532
0.5	0.5	"Plasmid"	"S58_LN:i:1315_dp:f:2.498686728656776"	1315
1	0	"Chromosome"	"S59_LN:i:1310_dp:f:10.431687962061586"	1310
0.5	0.5	"Plasmid"	"S64_LN:i:1030_dp:f:1.9351132706592291"	1030
0	1	"Plasmid"	"S61_LN:i:1157_dp:f:1.4459365940203104"	1157
1	0	"Chromosome"	"S60_LN:i:1197_dp:f:1.0551735910145525"	1197
1	0	"Chromosome"	"S62_LN:i:1082_dp:f:0.9510536849955329"	1082
1	0	"Chromosome"	"S63_LN:i:1070_dp:f:1.9351640673832127"	1070
1	0	"Chromosome"	"S66_LN:i:920_dp:f:1.060921667830465"	920
1	0	"Chromosome"	"S65_LN:i:962_dp:f:0.8325285321678052"	962
1	0	"Chromosome"	"S67_LN:i:903_dp:f:1.818819351359029"	903
1	0	"Chromosome"	"S70_LN:i:796_dp:f:0.8655107947564906"	796
1	0	"Chromosome"	"S69_LN:i:808_dp:f:0.8785006738361465"	808
1	0	"Chromosome"	"S71_LN:i:789_dp:f:1.0072124306926482"	789
1	0	"Chromosome"	"S72_LN:i:768_dp:f:2.8197473723005566"	768
0.5	0.5	"Plasmid"	"S75_LN:i:690_dp:f:1.080946641712902"	690
1	0	"Chromosome"	"S68_LN:i:859_dp:f:0.8006199413252574"	859
1	0	"Chromosome"	"S73_LN:i:721_dp:f:0.8841742152610258"	721
1	0	"Chromosome"	"S74_LN:i:702_dp:f:2.013500763359086"	702
1	0	"Chromosome"	"S79_LN:i:626_dp:f:0.9461644248714441"	626
1	0	"Chromosome"	"S80_LN:i:626_dp:f:0.9078261758234553"	626
1	0	"Chromosome"	"S78_LN:i:629_dp:f:1.9492348605142078"	629
1	0	"Chromosome"	"S83_LN:i:619_dp:f:2.1816462685128912"	619
1	0	"Chromosome"	"S81_LN:i:625_dp:f:0.9661008816903058"	625
1	0	"Chromosome"	"S82_LN:i:623_dp:f:1.7911859335120173"	623
0.5	0.5	"Plasmid"	"S84_LN:i:508_dp:f:1.027418864555414"	508
0.5	0.5	"Plasmid"	"S77_LN:i:654_dp:f:6.305487273358597"	654
1	0	"Chromosome"	"S76_LN:i:689_dp:f:0.923162159438142"	689
