"Prob_Chromosome"	"Prob_Plasmid"	"Prediction"	"Contig_name"	"Contig_length"
1	0	"Chromosome"	"S7_LN:i:180136_dp:f:1.065138779815"	180136
1	0	"Chromosome"	"S8_LN:i:167243_dp:f:1.0881892159892033"	167243
1	0	"Chromosome"	"S6_LN:i:218422_dp:f:1.0753194767352534"	218422
1	0	"Chromosome"	"S5_LN:i:227913_dp:f:1.0"	227913
1	0	"Chromosome"	"S4_LN:i:238544_dp:f:0.9330057239046772"	238544
1	0	"Chromosome"	"S2_LN:i:259417_dp:f:0.9912325021812859"	259417
1	0	"Chromosome"	"S3_LN:i:254314_dp:f:1.0325791563612776"	254314
1	0	"Chromosome"	"S1_LN:i:301142_dp:f:0.9264957571868386"	301142
1	0	"Chromosome"	"S10_LN:i:129913_dp:f:0.9571862625162111"	129913
1	0	"Chromosome"	"S13_LN:i:114160_dp:f:1.0334207962402644"	114160
1	0	"Chromosome"	"S11_LN:i:121987_dp:f:1.1048637315375722"	121987
1	0	"Chromosome"	"S15_LN:i:106630_dp:f:1.1430021082329869"	106630
1	0	"Chromosome"	"S14_LN:i:107337_dp:f:1.1243078906016637"	107337
1	0	"Chromosome"	"S12_LN:i:119487_dp:f:0.9522206239824157"	119487
1	0	"Chromosome"	"S9_LN:i:147118_dp:f:1.0978473402355104"	147118
1	0	"Chromosome"	"S16_LN:i:92771_dp:f:0.9741241920725072"	92771
1	0	"Chromosome"	"S21_LN:i:85922_dp:f:0.8814009419878152"	85922
1	0	"Chromosome"	"S18_LN:i:89048_dp:f:1.1182597518493855"	89048
0	1	"Plasmid"	"S23_LN:i:75350_dp:f:2.0720107867763042"	75350
1	0	"Chromosome"	"S22_LN:i:76905_dp:f:1.0064760893321059"	76905
1	0	"Chromosome"	"S17_LN:i:90727_dp:f:1.081790850520755"	90727
1	0	"Chromosome"	"S20_LN:i:86635_dp:f:1.1635830276531127"	86635
1	0	"Chromosome"	"S19_LN:i:87854_dp:f:1.1593653997555184"	87854
1	0	"Chromosome"	"S24_LN:i:74233_dp:f:0.9536980502845336"	74233
1	0	"Chromosome"	"S26_LN:i:68681_dp:f:0.956361549306237"	68681
1	0	"Chromosome"	"S31_LN:i:59043_dp:f:0.9599968741275601"	59043
1	0	"Chromosome"	"S27_LN:i:68275_dp:f:1.006413133229192"	68275
1	0	"Chromosome"	"S29_LN:i:61603_dp:f:0.949286095706037"	61603
1	0	"Chromosome"	"S25_LN:i:70366_dp:f:0.9219629619040886"	70366
1	0	"Chromosome"	"S28_LN:i:66419_dp:f:0.9513461812185074"	66419
1	0	"Chromosome"	"S30_LN:i:59500_dp:f:1.0398323449248208"	59500
1	0	"Chromosome"	"S32_LN:i:55692_dp:f:0.8735380762963962"	55692
1	0	"Chromosome"	"S33_LN:i:53877_dp:f:1.03961777329045"	53877
1	0	"Chromosome"	"S37_LN:i:46945_dp:f:1.0024498337656154"	46945
1	0	"Chromosome"	"S39_LN:i:42307_dp:f:1.071872113143508"	42307
1	0	"Chromosome"	"S38_LN:i:45813_dp:f:0.9886278991811414"	45813
1	0	"Chromosome"	"S35_LN:i:53305_dp:f:1.0198264807288426"	53305
1	0	"Chromosome"	"S40_LN:i:41847_dp:f:1.116796794943251"	41847
1	0	"Chromosome"	"S34_LN:i:53309_dp:f:0.9622591306992835"	53309
1	0	"Chromosome"	"S36_LN:i:52357_dp:f:1.1226785952792706"	52357
1	0	"Chromosome"	"S44_LN:i:33054_dp:f:1.0236220788348322"	33054
1	0	"Chromosome"	"S46_LN:i:31678_dp:f:1.0341199767208877"	31678
1	0	"Chromosome"	"S41_LN:i:41552_dp:f:0.8797674087324429"	41552
1	0	"Chromosome"	"S42_LN:i:40515_dp:f:1.1196247616745394"	40515
1	0	"Chromosome"	"S45_LN:i:32641_dp:f:1.0349494652422393"	32641
1	0	"Chromosome"	"S43_LN:i:38088_dp:f:0.860553955950239"	38088
1	0	"Chromosome"	"S48_LN:i:30712_dp:f:1.1797942115619442"	30712
1	0	"Chromosome"	"S47_LN:i:30720_dp:f:1.03729874772789"	30720
1	0	"Chromosome"	"S49_LN:i:29967_dp:f:1.0441764649465892"	29967
1	0	"Chromosome"	"S51_LN:i:27215_dp:f:1.0895232239583958"	27215
1	0	"Chromosome"	"S50_LN:i:28776_dp:f:0.9658477182944977"	28776
1	0	"Chromosome"	"S52_LN:i:26592_dp:f:1.0004543287248844"	26592
1	0	"Chromosome"	"S53_LN:i:26489_dp:f:0.9922696374738217"	26489
0	1	"Plasmid"	"S56_LN:i:22015_dp:f:0.9028328432130263"	22015
1	0	"Chromosome"	"S55_LN:i:25367_dp:f:0.8958552711640122"	25367
1	0	"Chromosome"	"S54_LN:i:26141_dp:f:1.2510121143665751"	26141
0	1	"Plasmid"	"S61_LN:i:14513_dp:f:2.107067923605583"	14513
1	0	"Chromosome"	"S60_LN:i:17279_dp:f:1.0904863496769588"	17279
1	0	"Chromosome"	"S59_LN:i:18256_dp:f:1.0827342014151562"	18256
0	1	"Plasmid"	"S62_LN:i:14256_dp:f:0.9196085763907056"	14256
1	0	"Chromosome"	"S64_LN:i:12262_dp:f:0.8584164726893295"	12262
1	0	"Chromosome"	"S63_LN:i:13950_dp:f:0.9683390528403639"	13950
1	0	"Chromosome"	"S58_LN:i:19163_dp:f:0.9449956257679691"	19163
1	0	"Chromosome"	"S57_LN:i:21821_dp:f:1.0621113126424846"	21821
1	0	"Chromosome"	"S65_LN:i:11213_dp:f:0.9602002127203121"	11213
1	0	"Chromosome"	"S67_LN:i:10048_dp:f:1.0622589980381232"	10048
1	0	"Chromosome"	"S68_LN:i:9905_dp:f:0.8880819296307453"	9905
0	1	"Plasmid"	"S70_LN:i:9167_dp:f:0.8498920543499587"	9167
0	1	"Plasmid"	"S66_LN:i:10806_dp:f:0.9242895492328953"	10806
0	1	"Plasmid"	"S69_LN:i:9789_dp:f:0.9343364949163078"	9789
0	1	"Plasmid"	"S71_LN:i:8816_dp:f:0.922819704074946"	8816
1	0	"Chromosome"	"S78_LN:i:5364_dp:f:1.0053444675201328"	5364
1	0	"Chromosome"	"S73_LN:i:8587_dp:f:0.9720613525039342"	8587
1	0	"Chromosome"	"S72_LN:i:8713_dp:f:0.8191399568112887"	8713
1	0	"Chromosome"	"S77_LN:i:5844_dp:f:1.0389963788350447"	5844
1	0	"Chromosome"	"S79_LN:i:5360_dp:f:0.9459842932977885"	5360
0	1	"Plasmid"	"S76_LN:i:6185_dp:f:0.8655428019901428"	6185
1	0	"Chromosome"	"S74_LN:i:8497_dp:f:1.754540965140384"	8497
0	1	"Plasmid"	"S75_LN:i:6817_dp:f:0.8410269593679999"	6817
0	1	"Plasmid"	"S83_LN:i:4927_dp:f:0.8673164451851092"	4927
1	0	"Chromosome"	"S80_LN:i:5359_dp:f:0.8981684249624811"	5359
1	0	"Chromosome"	"S85_LN:i:4380_dp:f:1.2123051071789135"	4380
1	0	"Chromosome"	"S84_LN:i:4381_dp:f:1.0481701893021458"	4381
1	0	"Chromosome"	"S82_LN:i:5095_dp:f:0.8686699776642336"	5095
1	0	"Chromosome"	"S86_LN:i:4344_dp:f:0.9127416359889499"	4344
1	0	"Chromosome"	"S81_LN:i:5286_dp:f:0.9436841460794675"	5286
1	0	"Chromosome"	"S87_LN:i:4131_dp:f:0.9651606898141613"	4131
0	1	"Plasmid"	"S88_LN:i:4072_dp:f:31.55198986256992"	4072
1	0	"Chromosome"	"S92_LN:i:3493_dp:f:0.9614509494890259"	3493
1	0	"Chromosome"	"S90_LN:i:3749_dp:f:0.996391812211749"	3749
0	1	"Plasmid"	"S89_LN:i:3763_dp:f:0.982154022253341"	3763
1	0	"Chromosome"	"S93_LN:i:3426_dp:f:1.0771801458441472"	3426
0	1	"Plasmid"	"S91_LN:i:3684_dp:f:1.8974234982119338"	3684
1	0	"Chromosome"	"S94_LN:i:3307_dp:f:0.8631654582599417"	3307
1	0	"Chromosome"	"S98_LN:i:2513_dp:f:1.0438635721592193"	2513
1	0	"Chromosome"	"S101_LN:i:2129_dp:f:1.6801811181220985"	2129
1	0	"Chromosome"	"S95_LN:i:2960_dp:f:1.8641261152846313"	2960
1	0	"Chromosome"	"S96_LN:i:2884_dp:f:1.928790541236355"	2884
1	0	"Chromosome"	"S97_LN:i:2708_dp:f:2.936774822624971"	2708
1	0	"Chromosome"	"S102_LN:i:2116_dp:f:2.0494556004527196"	2116
0.5	0.5	"Plasmid"	"S99_LN:i:2491_dp:f:1.7324705926143003"	2491
1	0	"Chromosome"	"S100_LN:i:2403_dp:f:0.8756380583199251"	2403
1	0	"Chromosome"	"S103_LN:i:2111_dp:f:1.9940607276244273"	2111
1	0	"Chromosome"	"S105_LN:i:2023_dp:f:1.7826967269094696"	2023
1	0	"Chromosome"	"S106_LN:i:1994_dp:f:0.877063597859183"	1994
0	1	"Plasmid"	"S104_LN:i:2069_dp:f:1.9158495458649618"	2069
1	0	"Chromosome"	"S107_LN:i:1990_dp:f:0.9503742945018978"	1990
1	0	"Chromosome"	"S109_LN:i:1858_dp:f:1.8912148709297467"	1858
1	0	"Chromosome"	"S108_LN:i:1876_dp:f:0.8727489617067753"	1876
1	0	"Chromosome"	"S111_LN:i:1791_dp:f:1.904634550546778"	1791
1	0	"Chromosome"	"S110_LN:i:1805_dp:f:9.905213511103437"	1805
1	0	"Chromosome"	"S113_LN:i:1688_dp:f:0.9227468721666222"	1688
1	0	"Chromosome"	"S116_LN:i:1492_dp:f:1.1518989434681037"	1492
1	0	"Chromosome"	"S112_LN:i:1732_dp:f:9.455223620019394"	1732
1	0	"Chromosome"	"S117_LN:i:1467_dp:f:2.0862632232639298"	1467
0	1	"Plasmid"	"S118_LN:i:1460_dp:f:0.826584813067972"	1460
0	1	"Plasmid"	"S115_LN:i:1565_dp:f:35.97535302822965"	1565
0.5	0.5	"Plasmid"	"S114_LN:i:1611_dp:f:4.129678741349259"	1611
1	0	"Chromosome"	"S120_LN:i:1432_dp:f:3.034844266622853"	1432
0.5	0.5	"Plasmid"	"S119_LN:i:1434_dp:f:2.7608957008923767"	1434
1	0	"Chromosome"	"S121_LN:i:1384_dp:f:1.8428729352810813"	1384
1	0	"Chromosome"	"S123_LN:i:1314_dp:f:1.2748094487697246"	1314
1	0	"Chromosome"	"S122_LN:i:1343_dp:f:0.833413342348524"	1343
0.5	0.5	"Plasmid"	"S124_LN:i:1258_dp:f:3.584591220242736"	1258
0.5	0.5	"Plasmid"	"S125_LN:i:1235_dp:f:10.808936826017693"	1235
1	0	"Chromosome"	"S128_LN:i:1183_dp:f:1.118452373259783"	1183
1	0	"Chromosome"	"S126_LN:i:1226_dp:f:0.9672388847701038"	1226
1	0	"Chromosome"	"S129_LN:i:1151_dp:f:2.0052842336264276"	1151
1	0	"Chromosome"	"S131_LN:i:1134_dp:f:0.9361966633967417"	1134
1	0	"Chromosome"	"S132_LN:i:1125_dp:f:1.994153343889489"	1125
0.5	0.5	"Plasmid"	"S130_LN:i:1141_dp:f:2.818462550293477"	1141
1	0	"Chromosome"	"S136_LN:i:959_dp:f:1.9237891794849564"	959
1	0	"Chromosome"	"S127_LN:i:1201_dp:f:2.927013902668253"	1201
1	0	"Chromosome"	"S134_LN:i:1045_dp:f:0.9083699814018927"	1045
0.5	0.5	"Plasmid"	"S133_LN:i:1050_dp:f:4.067583624091264"	1050
1	0	"Chromosome"	"S138_LN:i:947_dp:f:0.948739075076064"	947
1	0	"Chromosome"	"S139_LN:i:944_dp:f:1.9157055317446947"	944
1	0	"Chromosome"	"S137_LN:i:956_dp:f:2.3910192128388563"	956
1	0	"Chromosome"	"S141_LN:i:919_dp:f:0.9590592804604462"	919
1	0	"Chromosome"	"S142_LN:i:892_dp:f:0.8343807663200064"	892
1	0	"Chromosome"	"S143_LN:i:889_dp:f:0.9122344159211039"	889
1	0	"Chromosome"	"S145_LN:i:887_dp:f:0.9183125460514386"	887
1	0	"Chromosome"	"S146_LN:i:887_dp:f:1.1408141115494659"	887
1	0	"Chromosome"	"S144_LN:i:887_dp:f:2.1671942360073686"	887
1	0	"Chromosome"	"S140_LN:i:925_dp:f:0.8676438561978133"	925
0.5	0.5	"Plasmid"	"S135_LN:i:982_dp:f:0.8413026222812439"	982
1	0	"Chromosome"	"S147_LN:i:856_dp:f:1.784132696208306"	856
1	0	"Chromosome"	"S151_LN:i:795_dp:f:0.7997205058489968"	795
1	0	"Chromosome"	"S149_LN:i:808_dp:f:2.1376565728131043"	808
0.5	0.5	"Plasmid"	"S148_LN:i:833_dp:f:1.8312919805587897"	833
1	0	"Chromosome"	"S152_LN:i:783_dp:f:1.0008624243576916"	783
0.5	0.5	"Plasmid"	"S153_LN:i:776_dp:f:2.938283466488554"	776
1	0	"Chromosome"	"S154_LN:i:772_dp:f:1.8047202906745625"	772
1	0	"Chromosome"	"S150_LN:i:797_dp:f:9.446560161084617"	797
0.5	0.5	"Plasmid"	"S158_LN:i:715_dp:f:1.9999465329881252"	715
1	0	"Chromosome"	"S157_LN:i:758_dp:f:1.0386139683611808"	758
1	0	"Chromosome"	"S161_LN:i:697_dp:f:0.7738274178420178"	697
1	0	"Chromosome"	"S162_LN:i:694_dp:f:1.018229058751723"	694
1	0	"Chromosome"	"S160_LN:i:713_dp:f:0.9083824136753109"	713
1	0	"Chromosome"	"S163_LN:i:694_dp:f:1.2154925251443325"	694
0	1	"Plasmid"	"S156_LN:i:764_dp:f:2.6551094863771847"	764
0.5	0.5	"Plasmid"	"S155_LN:i:771_dp:f:3.899175297426069"	771
0	1	"Plasmid"	"S159_LN:i:714_dp:f:2.0865471630387087"	714
1	0	"Chromosome"	"S166_LN:i:674_dp:f:0.9778192472961553"	674
0	1	"Plasmid"	"S164_LN:i:688_dp:f:0.892429136861349"	688
0	1	"Plasmid"	"S168_LN:i:670_dp:f:2.0709934711737374"	670
1	0	"Chromosome"	"S165_LN:i:682_dp:f:2.8364436226838254"	682
0	1	"Plasmid"	"S167_LN:i:671_dp:f:0.7431956311488778"	671
1	0	"Chromosome"	"S171_LN:i:657_dp:f:1.0247771121296492"	657
1	0	"Chromosome"	"S170_LN:i:657_dp:f:0.8547081174252477"	657
1	0	"Chromosome"	"S169_LN:i:659_dp:f:3.8930450184978396"	659
1	0	"Chromosome"	"S173_LN:i:652_dp:f:0.7911086116455781"	652
1	0	"Chromosome"	"S172_LN:i:652_dp:f:1.0972268112595984"	652
1	0	"Chromosome"	"S177_LN:i:592_dp:f:0.8224278446520892"	592
1	0	"Chromosome"	"S179_LN:i:583_dp:f:0.9538969666592243"	583
1	0	"Chromosome"	"S176_LN:i:605_dp:f:2.8828029861936386"	605
0	1	"Plasmid"	"S178_LN:i:584_dp:f:2.866654798032664"	584
1	0	"Chromosome"	"S174_LN:i:634_dp:f:1.704473696943122"	634
1	0	"Chromosome"	"S175_LN:i:629_dp:f:3.1834451448383003"	629
1	0	"Chromosome"	"S182_LN:i:575_dp:f:1.1101305098107372"	575
1	0	"Chromosome"	"S181_LN:i:575_dp:f:0.8459099894347863"	575
1	0	"Chromosome"	"S180_LN:i:579_dp:f:0.8489174314689102"	579
1	0	"Chromosome"	"S185_LN:i:558_dp:f:1.961952003536824"	558
1	0	"Chromosome"	"S184_LN:i:570_dp:f:0.9458058929301426"	570
1	0	"Chromosome"	"S188_LN:i:548_dp:f:0.8659018360338904"	548
0	1	"Plasmid"	"S190_LN:i:538_dp:f:1.0209558150960567"	538
1	0	"Chromosome"	"S187_LN:i:548_dp:f:1.022641764872483"	548
1	0	"Chromosome"	"S189_LN:i:542_dp:f:1.9988948794702557"	542
1	0	"Chromosome"	"S191_LN:i:538_dp:f:1.077543184915573"	538
1	0	"Chromosome"	"S186_LN:i:553_dp:f:1.6704212828603764"	553
1	0	"Chromosome"	"S192_LN:i:533_dp:f:0.8135212471620062"	533
1	0	"Chromosome"	"S193_LN:i:533_dp:f:1.0850742222743006"	533
0.5	0.5	"Plasmid"	"S183_LN:i:574_dp:f:1.9110748853677721"	574
1	0	"Chromosome"	"S197_LN:i:504_dp:f:0.8946782936550413"	504
1	0	"Chromosome"	"S196_LN:i:504_dp:f:1.0329925085929126"	504
1	0	"Chromosome"	"S194_LN:i:525_dp:f:0.8577997484786932"	525
1	0	"Chromosome"	"S195_LN:i:523_dp:f:2.1245104032112727"	523
