"Prob_Chromosome"	"Prob_Plasmid"	"Prediction"	"Contig_name"	"Contig_length"
1	0	"Chromosome"	"S8_LN:i:263060_dp:f:0.9209106182907639"	263060
1	0	"Chromosome"	"S6_LN:i:282248_dp:f:0.9748243257496724"	282248
1	0	"Chromosome"	"S7_LN:i:271252_dp:f:0.9757832182462057"	271252
1	0	"Chromosome"	"S5_LN:i:340072_dp:f:1.0364555452875563"	340072
1	0	"Chromosome"	"S3_LN:i:416595_dp:f:0.9664245335291781"	416595
1	0	"Chromosome"	"S4_LN:i:375436_dp:f:1.0"	375436
1	0	"Chromosome"	"S11_LN:i:175922_dp:f:1.0294873344773483"	175922
1	0	"Chromosome"	"S12_LN:i:162717_dp:f:0.9043391955884873"	162717
1	0	"Chromosome"	"S10_LN:i:211169_dp:f:1.0252737633701594"	211169
1	0	"Chromosome"	"S9_LN:i:259658_dp:f:1.0296594290795609"	259658
1	0	"Chromosome"	"S13_LN:i:137359_dp:f:1.0393933744454031"	137359
1	0	"Chromosome"	"S17_LN:i:57663_dp:f:1.051052545912697"	57663
1	0	"Chromosome"	"S16_LN:i:78528_dp:f:1.0387220338313357"	78528
1	0	"Chromosome"	"S15_LN:i:100334_dp:f:0.9293930796927359"	100334
1	0	"Chromosome"	"S18_LN:i:54822_dp:f:0.98941778862464"	54822
1	0	"Chromosome"	"S2_LN:i:556893_dp:f:0.9345712114518984"	556893
1	0	"Chromosome"	"S19_LN:i:48674_dp:f:1.0153178116758268"	48674
1	0	"Chromosome"	"S21_LN:i:32321_dp:f:0.9276258269185441"	32321
1	0	"Chromosome"	"S22_LN:i:30211_dp:f:1.0254318672391245"	30211
1	0	"Chromosome"	"S14_LN:i:129109_dp:f:0.9512013711817914"	129109
1	0	"Chromosome"	"S28_LN:i:9653_dp:f:10.050977655790918"	9653
1	0	"Chromosome"	"S20_LN:i:48624_dp:f:1.0583869535701915"	48624
1	0	"Chromosome"	"S26_LN:i:18229_dp:f:0.8698750842192665"	18229
1	0	"Chromosome"	"S23_LN:i:29731_dp:f:1.0729578730835567"	29731
0	1	"Plasmid"	"S29_LN:i:6930_dp:f:17.156146085981604"	6930
1	0	"Chromosome"	"S25_LN:i:18726_dp:f:1.0634779925668663"	18726
1	0	"Chromosome"	"S24_LN:i:26053_dp:f:1.0517999790250576"	26053
1	0	"Chromosome"	"S30_LN:i:6889_dp:f:0.8674414262123672"	6889
1	0	"Chromosome"	"S36_LN:i:2215_dp:f:1.0074899535076571"	2215
1	0	"Chromosome"	"S31_LN:i:4478_dp:f:0.9722954486134852"	4478
1	0	"Chromosome"	"S34_LN:i:2565_dp:f:0.9926879293975553"	2565
1	0	"Chromosome"	"S35_LN:i:2215_dp:f:0.9875893800379413"	2215
1	0	"Chromosome"	"S33_LN:i:2904_dp:f:0.9130806143046115"	2904
1	0	"Chromosome"	"S32_LN:i:3037_dp:f:7.084591366143745"	3037
1	0	"Chromosome"	"S37_LN:i:1961_dp:f:1.0446063817362143"	1961
1	0	"Chromosome"	"S39_LN:i:1879_dp:f:1.8990810161263636"	1879
1	0	"Chromosome"	"S38_LN:i:1954_dp:f:3.991526797720607"	1954
0	1	"Plasmid"	"S41_LN:i:1551_dp:f:12.218959964099485"	1551
1	0	"Chromosome"	"S40_LN:i:1732_dp:f:6.778351553571774"	1732
1	0	"Chromosome"	"S42_LN:i:1470_dp:f:1.0370685523265866"	1470
1	0	"Chromosome"	"S44_LN:i:961_dp:f:1.126751684506376"	961
1	0	"Chromosome"	"S45_LN:i:910_dp:f:1.0395112227690129"	910
1	0	"Chromosome"	"S46_LN:i:910_dp:f:2.048976830893342"	910
1	0	"Chromosome"	"S43_LN:i:1120_dp:f:1.9810243545079935"	1120
1	0	"Chromosome"	"S47_LN:i:806_dp:f:1.0362483777772389"	806
1	0	"Chromosome"	"S50_LN:i:678_dp:f:3.0867844887658893"	678
1	0	"Chromosome"	"S51_LN:i:586_dp:f:1.080493084595246"	586
1	0	"Chromosome"	"S52_LN:i:586_dp:f:1.9494139235576056"	586
1	0	"Chromosome"	"S48_LN:i:755_dp:f:1.8246286854059788"	755
1	0	"Chromosome"	"S49_LN:i:702_dp:f:1.8869137131681397"	702
1	0	"Chromosome"	"S56_LN:i:502_dp:f:1.0121165087437969"	502
1	0	"Chromosome"	"S54_LN:i:535_dp:f:0.9372881019637641"	535
1	0	"Chromosome"	"S27_LN:i:15968_dp:f:2.062261718773316"	15968
1	0	"Chromosome"	"S57_LN:i:502_dp:f:1.019280579577198"	502
1	0	"Chromosome"	"S55_LN:i:535_dp:f:0.9999771014193479"	535
1	0	"Chromosome"	"S53_LN:i:575_dp:f:1.8639877938409748"	575
1	0	"Chromosome"	"S1_LN:i:696483_dp:f:1.0148465471304664"	696483
