"Prob_Chromosome"	"Prob_Plasmid"	"Prediction"	"Contig_name"	"Contig_length"
1	0	"Chromosome"	"S4_LN:i:241897_dp:f:1.0364756741449441"	241897
1	0	"Chromosome"	"S8_LN:i:202272_dp:f:1.0186462608743554"	202272
1	0	"Chromosome"	"S6_LN:i:235584_dp:f:0.9842690128488522"	235584
1	0	"Chromosome"	"S7_LN:i:227252_dp:f:0.9899537338121656"	227252
1	0	"Chromosome"	"S3_LN:i:281610_dp:f:1.0330348434852423"	281610
1	0	"Chromosome"	"S5_LN:i:240718_dp:f:0.9759103149491525"	240718
1	0	"Chromosome"	"S2_LN:i:308146_dp:f:1.0172246932174298"	308146
1	0	"Chromosome"	"S13_LN:i:129217_dp:f:0.9884150810955081"	129217
1	0	"Chromosome"	"S14_LN:i:121611_dp:f:0.9974770828268981"	121611
1	0	"Chromosome"	"S12_LN:i:134812_dp:f:1.0213677632078115"	134812
1	0	"Chromosome"	"S10_LN:i:162892_dp:f:1.0796307178949585"	162892
1	0	"Chromosome"	"S9_LN:i:185449_dp:f:1.0"	185449
1	0	"Chromosome"	"S15_LN:i:117258_dp:f:0.9745948238765882"	117258
1	0	"Chromosome"	"S11_LN:i:161023_dp:f:0.976563439490868"	161023
1	0	"Chromosome"	"S17_LN:i:109940_dp:f:0.9722583835010555"	109940
1	0	"Chromosome"	"S21_LN:i:77752_dp:f:1.040872180368183"	77752
1	0	"Chromosome"	"S22_LN:i:75818_dp:f:0.9126624361497098"	75818
1	0	"Chromosome"	"S16_LN:i:111286_dp:f:1.0395646763275246"	111286
1	0	"Chromosome"	"S19_LN:i:97500_dp:f:1.0213166524655592"	97500
1	0	"Chromosome"	"S20_LN:i:89532_dp:f:1.0110270728803354"	89532
1	0	"Chromosome"	"S18_LN:i:102032_dp:f:1.012663324578802"	102032
1	0	"Chromosome"	"S1_LN:i:587695_dp:f:0.9968508903803858"	587695
1	0	"Chromosome"	"S26_LN:i:57130_dp:f:1.0291309278031235"	57130
1	0	"Chromosome"	"S27_LN:i:56571_dp:f:1.0442984173541812"	56571
1	0	"Chromosome"	"S25_LN:i:60278_dp:f:0.9723322342599346"	60278
1	0	"Chromosome"	"S24_LN:i:62255_dp:f:0.9643337136633541"	62255
1	0	"Chromosome"	"S23_LN:i:71870_dp:f:1.0346511867982804"	71870
0	1	"Plasmid"	"S28_LN:i:53098_dp:f:0.41662336707519254"	53098
0	1	"Plasmid"	"S29_LN:i:52596_dp:f:0.35661345405506945"	52596
1	0	"Chromosome"	"S30_LN:i:52508_dp:f:1.0180681267255707"	52508
1	0	"Chromosome"	"S33_LN:i:32947_dp:f:1.0515760933926224"	32947
1	0	"Chromosome"	"S34_LN:i:32067_dp:f:0.9955466455630965"	32067
1	0	"Chromosome"	"S31_LN:i:41310_dp:f:1.176558128167488"	41310
1	0	"Chromosome"	"S35_LN:i:31459_dp:f:0.914504436908624"	31459
1	0	"Chromosome"	"S36_LN:i:31013_dp:f:1.1083675880207449"	31013
0	1	"Plasmid"	"S32_LN:i:39315_dp:f:0.7025578706185985"	39315
0	1	"Plasmid"	"S37_LN:i:30465_dp:f:0.3521577924628952"	30465
1	0	"Chromosome"	"S38_LN:i:29815_dp:f:1.115130179527868"	29815
1	0	"Chromosome"	"S41_LN:i:25376_dp:f:0.9109996190483295"	25376
1	0	"Chromosome"	"S40_LN:i:25402_dp:f:1.0661030303076355"	25402
1	0	"Chromosome"	"S39_LN:i:25850_dp:f:0.9049660790906164"	25850
1	0	"Chromosome"	"S43_LN:i:22759_dp:f:1.1614547248067302"	22759
1	0	"Chromosome"	"S42_LN:i:24746_dp:f:0.9284365323112075"	24746
0	1	"Plasmid"	"S45_LN:i:21555_dp:f:0.7942695755241443"	21555
0	1	"Plasmid"	"S44_LN:i:21725_dp:f:0.3810862337293074"	21725
1	0	"Chromosome"	"S46_LN:i:20974_dp:f:1.0852850553442943"	20974
1	0	"Chromosome"	"S48_LN:i:18865_dp:f:1.0215676824377242"	18865
1	0	"Chromosome"	"S49_LN:i:17369_dp:f:0.8953818199476509"	17369
1	0	"Chromosome"	"S47_LN:i:20706_dp:f:0.9946834511698239"	20706
0	1	"Plasmid"	"S51_LN:i:16525_dp:f:0.7746590174115212"	16525
0	1	"Plasmid"	"S50_LN:i:16660_dp:f:0.6558029419010182"	16660
0	1	"Plasmid"	"S52_LN:i:16513_dp:f:0.6829546040602374"	16513
1	0	"Chromosome"	"S53_LN:i:15913_dp:f:0.9862531032569826"	15913
1	0	"Chromosome"	"S55_LN:i:14618_dp:f:0.888998171704551"	14618
1	0	"Chromosome"	"S58_LN:i:10339_dp:f:0.8629298072825369"	10339
1	0	"Chromosome"	"S57_LN:i:10744_dp:f:1.0944261284434706"	10744
0	1	"Plasmid"	"S56_LN:i:12138_dp:f:0.8955654456822524"	12138
0	1	"Plasmid"	"S59_LN:i:10024_dp:f:0.6412150400092501"	10024
1	0	"Chromosome"	"S60_LN:i:9627_dp:f:0.9376772822186235"	9627
1	0	"Chromosome"	"S54_LN:i:15386_dp:f:0.7655568686485573"	15386
0	1	"Plasmid"	"S64_LN:i:8124_dp:f:0.37945712916513913"	8124
0	1	"Plasmid"	"S62_LN:i:8644_dp:f:0.3187655960832057"	8644
0	1	"Plasmid"	"S66_LN:i:6651_dp:f:0.5509492195224855"	6651
1	0	"Chromosome"	"S61_LN:i:9554_dp:f:1.0904484464997215"	9554
0	1	"Plasmid"	"S63_LN:i:8464_dp:f:0.5192065704156992"	8464
0	1	"Plasmid"	"S65_LN:i:7709_dp:f:0.6482110370399646"	7709
1	0	"Chromosome"	"S67_LN:i:6378_dp:f:1.20398846572163"	6378
1	0	"Chromosome"	"S68_LN:i:5952_dp:f:0.8911456603249558"	5952
1	0	"Chromosome"	"S70_LN:i:5815_dp:f:0.8731978269840064"	5815
0	1	"Plasmid"	"S72_LN:i:5441_dp:f:0.366033514135344"	5441
1	0	"Chromosome"	"S69_LN:i:5824_dp:f:1.111561169497958"	5824
0	1	"Plasmid"	"S73_LN:i:5320_dp:f:0.8552311206025851"	5320
1	0	"Chromosome"	"S71_LN:i:5672_dp:f:0.8049033285435354"	5672
0	1	"Plasmid"	"S74_LN:i:5260_dp:f:0.3839977058259783"	5260
1	0	"Chromosome"	"S76_LN:i:4770_dp:f:0.9611117993091225"	4770
0	1	"Plasmid"	"S75_LN:i:5160_dp:f:0.6652129868440051"	5160
0	1	"Plasmid"	"S77_LN:i:4710_dp:f:0.7957084800874747"	4710
1	0	"Chromosome"	"S79_LN:i:4571_dp:f:0.8096178425683329"	4571
1	0	"Chromosome"	"S78_LN:i:4623_dp:f:0.6929099608457963"	4623
1	0	"Chromosome"	"S80_LN:i:4384_dp:f:1.2522676972885205"	4384
1	0	"Chromosome"	"S81_LN:i:4214_dp:f:1.240011244207092"	4214
1	0	"Chromosome"	"S84_LN:i:3725_dp:f:1.053377777889595"	3725
1	0	"Chromosome"	"S82_LN:i:4046_dp:f:0.7686520302766562"	4046
1	0	"Chromosome"	"S86_LN:i:3425_dp:f:1.023142833536169"	3425
0	1	"Plasmid"	"S83_LN:i:3818_dp:f:0.9881591527279072"	3818
1	0	"Chromosome"	"S85_LN:i:3621_dp:f:0.9720873103069052"	3621
1	0	"Chromosome"	"S88_LN:i:3237_dp:f:0.3306041480336159"	3237
1	0	"Chromosome"	"S89_LN:i:3196_dp:f:0.9106768262492557"	3196
1	0	"Chromosome"	"S90_LN:i:3062_dp:f:1.456478871814963"	3062
0	1	"Plasmid"	"S87_LN:i:3408_dp:f:0.7277962953651501"	3408
0	1	"Plasmid"	"S92_LN:i:2891_dp:f:0.6941881235608961"	2891
1	0	"Chromosome"	"S93_LN:i:2836_dp:f:0.5256720041126555"	2836
1	0	"Chromosome"	"S94_LN:i:2780_dp:f:0.9959202091669266"	2780
1	0	"Chromosome"	"S95_LN:i:2711_dp:f:1.1646417745246693"	2711
1	0	"Chromosome"	"S98_LN:i:2161_dp:f:0.9977281336359236"	2161
0	1	"Plasmid"	"S97_LN:i:2460_dp:f:0.4053246872391089"	2460
1	0	"Chromosome"	"S91_LN:i:3031_dp:f:7.848363446399683"	3031
1	0	"Chromosome"	"S99_LN:i:1979_dp:f:0.7734755638977747"	1979
1	0	"Chromosome"	"S100_LN:i:1915_dp:f:0.9709197909781402"	1915
0.5	0.5	"Plasmid"	"S96_LN:i:2638_dp:f:3.115046902388074"	2638
1	0	"Chromosome"	"S103_LN:i:1819_dp:f:1.1162702371160544"	1819
1	0	"Chromosome"	"S102_LN:i:1840_dp:f:3.087509784705282"	1840
1	0	"Chromosome"	"S104_LN:i:1732_dp:f:8.15019078785554"	1732
1	0	"Chromosome"	"S105_LN:i:1691_dp:f:2.099435487150825"	1691
1	0	"Chromosome"	"S106_LN:i:1603_dp:f:0.30277509412432796"	1603
1	0	"Chromosome"	"S107_LN:i:1502_dp:f:1.0709694097458353"	1502
1	0	"Chromosome"	"S108_LN:i:1368_dp:f:2.263512540812792"	1368
0	1	"Plasmid"	"S101_LN:i:1851_dp:f:0.7816153484144096"	1851
1	0	"Chromosome"	"S109_LN:i:1359_dp:f:1.9428771900327664"	1359
1	0	"Chromosome"	"S112_LN:i:1272_dp:f:2.621746910514948"	1272
0.5	0.5	"Plasmid"	"S111_LN:i:1293_dp:f:4.630557933166115"	1293
1	0	"Chromosome"	"S115_LN:i:1178_dp:f:2.2090028111235016"	1178
0	1	"Plasmid"	"S114_LN:i:1213_dp:f:0.6007615733884994"	1213
0	1	"Plasmid"	"S116_LN:i:1175_dp:f:1.2930919926914088"	1175
0.5	0.5	"Plasmid"	"S110_LN:i:1343_dp:f:7.392879883449303"	1343
1	0	"Chromosome"	"S117_LN:i:1135_dp:f:4.117049355369664"	1135
0	1	"Plasmid"	"S119_LN:i:1103_dp:f:0.38446882060131543"	1103
1	0	"Chromosome"	"S118_LN:i:1132_dp:f:0.9157014420573657"	1132
1	0	"Chromosome"	"S113_LN:i:1223_dp:f:0.6763764273045442"	1223
1	0	"Chromosome"	"S120_LN:i:1047_dp:f:2.50748708827757"	1047
1	0	"Chromosome"	"S121_LN:i:1032_dp:f:0.8260321182928458"	1032
1	0	"Chromosome"	"S124_LN:i:999_dp:f:1.1498320721138429"	999
1	0	"Chromosome"	"S122_LN:i:1016_dp:f:2.39325753559488"	1016
1	0	"Chromosome"	"S125_LN:i:995_dp:f:0.9410227852996983"	995
1	0	"Chromosome"	"S126_LN:i:995_dp:f:1.1459254346101944"	995
1	0	"Chromosome"	"S127_LN:i:995_dp:f:0.8863123584207928"	995
1	0	"Chromosome"	"S128_LN:i:992_dp:f:1.0766409344369334"	992
0	1	"Plasmid"	"S123_LN:i:1013_dp:f:1.2970690678791894"	1013
0	1	"Plasmid"	"S129_LN:i:983_dp:f:2.5244044698233696"	983
1	0	"Chromosome"	"S132_LN:i:882_dp:f:1.075431443367851"	882
1	0	"Chromosome"	"S130_LN:i:937_dp:f:0.9411164631158662"	937
0	1	"Plasmid"	"S131_LN:i:911_dp:f:0.30639539024808193"	911
1	0	"Chromosome"	"S133_LN:i:882_dp:f:0.9663006608876682"	882
1	0	"Chromosome"	"S135_LN:i:855_dp:f:1.039185731763974"	855
1	0	"Chromosome"	"S134_LN:i:879_dp:f:2.02316861841934"	879
1	0	"Chromosome"	"S136_LN:i:838_dp:f:2.6705723477862806"	838
0	1	"Plasmid"	"S139_LN:i:796_dp:f:0.26313596459925365"	796
1	0	"Chromosome"	"S140_LN:i:788_dp:f:1.8588191387651785"	788
1	0	"Chromosome"	"S142_LN:i:695_dp:f:1.0702183374540335"	695
1	0	"Chromosome"	"S143_LN:i:695_dp:f:1.0724158927786382"	695
1	0	"Chromosome"	"S141_LN:i:765_dp:f:1.9933701785064497"	765
1	0	"Chromosome"	"S137_LN:i:828_dp:f:1.1676112752226264"	828
0.5	0.5	"Plasmid"	"S138_LN:i:799_dp:f:2.4878199830849135"	799
1	0	"Chromosome"	"S144_LN:i:687_dp:f:1.5001447128592025"	687
1	0	"Chromosome"	"S145_LN:i:651_dp:f:1.186083665479531"	651
1	0	"Chromosome"	"S146_LN:i:639_dp:f:0.9050098336601895"	639
1	0	"Chromosome"	"S150_LN:i:544_dp:f:1.1340700981199807"	544
1	0	"Chromosome"	"S147_LN:i:639_dp:f:1.0092997827119383"	639
1	0	"Chromosome"	"S151_LN:i:544_dp:f:1.4681213889479257"	544
1	0	"Chromosome"	"S149_LN:i:580_dp:f:0.8490807344254713"	580
0.5	0.5	"Plasmid"	"S148_LN:i:599_dp:f:2.0895952996402585"	599
1	0	"Chromosome"	"S152_LN:i:512_dp:f:6.013545080746372"	512
0.5	0.5	"Plasmid"	"S153_LN:i:511_dp:f:7.809224983916609"	511
