"Prob_Chromosome"	"Prob_Plasmid"	"Prediction"	"Contig_name"	"Contig_length"
1	0	"Chromosome"	"S7_LN:i:246240_dp:f:0.9944464783803951"	246240
1	0	"Chromosome"	"S6_LN:i:247189_dp:f:0.9167658169323516"	247189
1	0	"Chromosome"	"S8_LN:i:245271_dp:f:1.0"	245271
1	0	"Chromosome"	"S3_LN:i:317820_dp:f:0.9716645045189105"	317820
1	0	"Chromosome"	"S4_LN:i:297804_dp:f:1.103830752399453"	297804
1	0	"Chromosome"	"S2_LN:i:349906_dp:f:1.054438822908232"	349906
1	0	"Chromosome"	"S5_LN:i:297663_dp:f:0.9528439628985981"	297663
1	0	"Chromosome"	"S1_LN:i:370414_dp:f:1.0703606826780092"	370414
1	0	"Chromosome"	"S12_LN:i:174956_dp:f:1.0081232339991004"	174956
1	0	"Chromosome"	"S13_LN:i:172190_dp:f:1.103987528785897"	172190
1	0	"Chromosome"	"S10_LN:i:239588_dp:f:1.0393617030005042"	239588
1	0	"Chromosome"	"S11_LN:i:196106_dp:f:1.0830044757642732"	196106
1	0	"Chromosome"	"S9_LN:i:241611_dp:f:0.9337046065267829"	241611
1	0	"Chromosome"	"S16_LN:i:140047_dp:f:1.0777448337435116"	140047
1	0	"Chromosome"	"S15_LN:i:147617_dp:f:1.0094337500763118"	147617
1	0	"Chromosome"	"S14_LN:i:168325_dp:f:1.076099648111848"	168325
1	0	"Chromosome"	"S23_LN:i:56334_dp:f:1.0945551115765741"	56334
1	0	"Chromosome"	"S24_LN:i:50993_dp:f:0.9930278856223956"	50993
1	0	"Chromosome"	"S22_LN:i:56521_dp:f:1.0959358754988937"	56521
1	0	"Chromosome"	"S18_LN:i:97591_dp:f:0.9874386772538675"	97591
1	0	"Chromosome"	"S20_LN:i:78023_dp:f:0.9300343433209387"	78023
1	0	"Chromosome"	"S21_LN:i:76174_dp:f:0.9216390013011918"	76174
1	0	"Chromosome"	"S19_LN:i:94355_dp:f:1.0396548140596242"	94355
1	0	"Chromosome"	"S26_LN:i:41325_dp:f:1.1192460655873135"	41325
0	1	"Plasmid"	"S27_LN:i:39529_dp:f:4.710191853480257"	39529
1	0	"Chromosome"	"S17_LN:i:125439_dp:f:0.9453406706137648"	125439
1	0	"Chromosome"	"S25_LN:i:46103_dp:f:1.0233096840655145"	46103
1	0	"Chromosome"	"S30_LN:i:31540_dp:f:0.893314377125588"	31540
1	0	"Chromosome"	"S28_LN:i:36768_dp:f:0.9412694623544948"	36768
1	0	"Chromosome"	"S29_LN:i:36051_dp:f:1.0933803434493656"	36051
1	0	"Chromosome"	"S33_LN:i:26027_dp:f:0.9308318926224831"	26027
1	0	"Chromosome"	"S37_LN:i:16295_dp:f:0.9627208402874754"	16295
1	0	"Chromosome"	"S35_LN:i:17647_dp:f:0.9781452968626683"	17647
1	0	"Chromosome"	"S38_LN:i:16252_dp:f:1.0440536816588102"	16252
0	1	"Plasmid"	"S34_LN:i:21876_dp:f:1.1792308976105843"	21876
1	0	"Chromosome"	"S32_LN:i:29837_dp:f:1.0814176304954526"	29837
1	0	"Chromosome"	"S36_LN:i:16396_dp:f:1.1356611597237778"	16396
1	0	"Chromosome"	"S40_LN:i:15316_dp:f:0.9734780911793468"	15316
1	0	"Chromosome"	"S31_LN:i:30715_dp:f:1.0147267834494564"	30715
1	0	"Chromosome"	"S41_LN:i:15144_dp:f:0.9242818323384915"	15144
0	1	"Plasmid"	"S39_LN:i:15778_dp:f:2.0892303304980713"	15778
0	1	"Plasmid"	"S42_LN:i:13362_dp:f:1.0943266013216801"	13362
1	0	"Chromosome"	"S43_LN:i:11881_dp:f:0.9559094912903068"	11881
1	0	"Chromosome"	"S46_LN:i:11336_dp:f:1.0713819852635216"	11336
0	1	"Plasmid"	"S47_LN:i:10543_dp:f:1.1422415539251756"	10543
1	0	"Chromosome"	"S44_LN:i:11689_dp:f:1.032936284952477"	11689
0	1	"Plasmid"	"S45_LN:i:11422_dp:f:2.002895574539848"	11422
1	0	"Chromosome"	"S51_LN:i:9158_dp:f:0.8901843516133708"	9158
1	0	"Chromosome"	"S48_LN:i:10262_dp:f:0.9218705561435626"	10262
1	0	"Chromosome"	"S49_LN:i:9999_dp:f:0.9431714385529468"	9999
0	1	"Plasmid"	"S50_LN:i:9353_dp:f:1.087585537025965"	9353
1	0	"Chromosome"	"S57_LN:i:6647_dp:f:1.0514216224952955"	6647
1	0	"Chromosome"	"S54_LN:i:7506_dp:f:1.0551911177569362"	7506
1	0	"Chromosome"	"S58_LN:i:6506_dp:f:1.0395404571204099"	6506
1	0	"Chromosome"	"S53_LN:i:9054_dp:f:0.9845992782553686"	9054
1	0	"Chromosome"	"S52_LN:i:9066_dp:f:1.1092026378160342"	9066
1	0	"Chromosome"	"S55_LN:i:7441_dp:f:0.949742423517895"	7441
0	1	"Plasmid"	"S56_LN:i:6978_dp:f:3.198039322790612"	6978
0	1	"Plasmid"	"S59_LN:i:6494_dp:f:3.0553813219989228"	6494
1	0	"Chromosome"	"S61_LN:i:6312_dp:f:0.8909004973610436"	6312
1	0	"Chromosome"	"S62_LN:i:5643_dp:f:1.0534101611649374"	5643
1	0	"Chromosome"	"S63_LN:i:5628_dp:f:0.836291901658309"	5628
1	0	"Chromosome"	"S64_LN:i:5547_dp:f:1.013418850476863"	5547
1	0	"Chromosome"	"S67_LN:i:4195_dp:f:0.9156069479970008"	4195
1	0	"Chromosome"	"S66_LN:i:4504_dp:f:1.0838724619185802"	4504
0	1	"Plasmid"	"S65_LN:i:5054_dp:f:2.1363459641478943"	5054
1	0	"Chromosome"	"S60_LN:i:6426_dp:f:0.8692659881417857"	6426
1	0	"Chromosome"	"S69_LN:i:4040_dp:f:1.0362385006955166"	4040
1	0	"Chromosome"	"S71_LN:i:3721_dp:f:1.0349981489954092"	3721
1	0	"Chromosome"	"S70_LN:i:3739_dp:f:1.087262692226298"	3739
1	0	"Chromosome"	"S68_LN:i:4143_dp:f:1.115071388506306"	4143
1	0	"Chromosome"	"S72_LN:i:3602_dp:f:1.1289942593964999"	3602
0	1	"Plasmid"	"S73_LN:i:3561_dp:f:2.0856530400337743"	3561
0	1	"Plasmid"	"S75_LN:i:3100_dp:f:3.2400434389993227"	3100
1	0	"Chromosome"	"S77_LN:i:2768_dp:f:1.8205853025253376"	2768
1	0	"Chromosome"	"S78_LN:i:2657_dp:f:1.0825972272703017"	2657
1	0	"Chromosome"	"S79_LN:i:2444_dp:f:0.9906489533486822"	2444
1	0	"Chromosome"	"S76_LN:i:2923_dp:f:1.0957279670783946"	2923
1	0	"Chromosome"	"S74_LN:i:3246_dp:f:7.203338845426579"	3246
0.5	0.5	"Plasmid"	"S81_LN:i:2260_dp:f:3.9320917546481553"	2260
0	1	"Plasmid"	"S80_LN:i:2382_dp:f:1.0051758872088126"	2382
1	0	"Chromosome"	"S82_LN:i:2235_dp:f:1.0526920580810444"	2235
1	0	"Chromosome"	"S84_LN:i:2104_dp:f:1.152938253152191"	2104
0	1	"Plasmid"	"S86_LN:i:1964_dp:f:3.2661867258285833"	1964
1	0	"Chromosome"	"S83_LN:i:2131_dp:f:5.408630706952262"	2131
1	0	"Chromosome"	"S87_LN:i:1835_dp:f:0.8572651990978287"	1835
1	0	"Chromosome"	"S85_LN:i:2089_dp:f:1.628882461368568"	2089
1	0	"Chromosome"	"S89_LN:i:1737_dp:f:1.0089195862521627"	1737
1	0	"Chromosome"	"S88_LN:i:1804_dp:f:1.0863780103957992"	1804
1	0	"Chromosome"	"S92_LN:i:1654_dp:f:1.0770605000273117"	1654
0	1	"Plasmid"	"S93_LN:i:1615_dp:f:1.1324907750088786"	1615
1	0	"Chromosome"	"S90_LN:i:1673_dp:f:7.147814696643029"	1673
0.5	0.5	"Plasmid"	"S91_LN:i:1669_dp:f:2.1752223186791286"	1669
1	0	"Chromosome"	"S97_LN:i:1391_dp:f:0.9971762968368748"	1391
0	1	"Plasmid"	"S94_LN:i:1540_dp:f:1.1968972755365566"	1540
0	1	"Plasmid"	"S96_LN:i:1486_dp:f:1.020864464285554"	1486
0	1	"Plasmid"	"S95_LN:i:1513_dp:f:2.1563007623371755"	1513
1	0	"Chromosome"	"S99_LN:i:1333_dp:f:3.095890576664246"	1333
0	1	"Plasmid"	"S98_LN:i:1345_dp:f:3.1376615834317905"	1345
0	1	"Plasmid"	"S104_LN:i:1176_dp:f:1.0515575711331886"	1176
0	1	"Plasmid"	"S100_LN:i:1329_dp:f:2.204303099479832"	1329
0	1	"Plasmid"	"S103_LN:i:1230_dp:f:1.1373422864999454"	1230
1	0	"Chromosome"	"S101_LN:i:1274_dp:f:2.8435187983548524"	1274
0	1	"Plasmid"	"S105_LN:i:1176_dp:f:2.0369213223504765"	1176
1	0	"Chromosome"	"S102_LN:i:1259_dp:f:1.1258637886093026"	1259
0	1	"Plasmid"	"S106_LN:i:1168_dp:f:3.535284421554357"	1168
0	1	"Plasmid"	"S110_LN:i:1072_dp:f:0.9345378287166008"	1072
0	1	"Plasmid"	"S111_LN:i:1056_dp:f:0.8216758136921304"	1056
0	1	"Plasmid"	"S112_LN:i:1031_dp:f:2.7337113990453727"	1031
1	0	"Chromosome"	"S109_LN:i:1114_dp:f:1.9638029549834797"	1114
1	0	"Chromosome"	"S107_LN:i:1130_dp:f:2.2396998860850865"	1130
0	1	"Plasmid"	"S113_LN:i:1022_dp:f:2.1270077889424597"	1022
0	1	"Plasmid"	"S108_LN:i:1128_dp:f:2.7052074696077266"	1128
0	1	"Plasmid"	"S116_LN:i:985_dp:f:2.129848826007302"	985
0	1	"Plasmid"	"S114_LN:i:1022_dp:f:1.1546081357841076"	1022
1	0	"Chromosome"	"S117_LN:i:971_dp:f:1.8214508315801299"	971
0	1	"Plasmid"	"S115_LN:i:1003_dp:f:2.0862762612748575"	1003
1	0	"Chromosome"	"S119_LN:i:928_dp:f:1.9883164918062348"	928
1	0	"Chromosome"	"S120_LN:i:914_dp:f:1.0139114044257906"	914
0	1	"Plasmid"	"S118_LN:i:955_dp:f:3.4199428781065064"	955
0	1	"Plasmid"	"S123_LN:i:905_dp:f:1.22622987753627"	905
1	0	"Chromosome"	"S122_LN:i:905_dp:f:2.031224946641564"	905
0	1	"Plasmid"	"S124_LN:i:896_dp:f:2.141162950240648"	896
1	0	"Chromosome"	"S127_LN:i:887_dp:f:0.9323632326432854"	887
0.5	0.5	"Plasmid"	"S128_LN:i:849_dp:f:2.073221754554281"	849
1	0	"Chromosome"	"S125_LN:i:895_dp:f:1.9497157104359886"	895
0.5	0.5	"Plasmid"	"S121_LN:i:905_dp:f:2.3574129715827623"	905
1	0	"Chromosome"	"S129_LN:i:843_dp:f:0.9210445092236681"	843
1	0	"Chromosome"	"S130_LN:i:822_dp:f:1.0478738119372575"	822
1	0	"Chromosome"	"S131_LN:i:821_dp:f:1.0519697968287414"	821
1	0	"Chromosome"	"S132_LN:i:817_dp:f:0.8778978417404883"	817
1	0	"Chromosome"	"S133_LN:i:768_dp:f:2.1180062363705794"	768
1	0	"Chromosome"	"S126_LN:i:894_dp:f:3.064371849124261"	894
0	1	"Plasmid"	"S136_LN:i:752_dp:f:1.2246434732853115"	752
1	0	"Chromosome"	"S134_LN:i:755_dp:f:0.9569764395027762"	755
0	1	"Plasmid"	"S135_LN:i:752_dp:f:2.1280383846826183"	752
1	0	"Chromosome"	"S138_LN:i:717_dp:f:1.1232220286153811"	717
1	0	"Chromosome"	"S137_LN:i:746_dp:f:0.799425643537989"	746
1	0	"Chromosome"	"S139_LN:i:713_dp:f:3.9394871831704052"	713
1	0	"Chromosome"	"S141_LN:i:672_dp:f:0.9865931200079534"	672
1	0	"Chromosome"	"S142_LN:i:669_dp:f:0.9409225073024683"	669
1	0	"Chromosome"	"S144_LN:i:648_dp:f:2.078600471397692"	648
1	0	"Chromosome"	"S140_LN:i:693_dp:f:1.0313144732674817"	693
1	0	"Chromosome"	"S143_LN:i:660_dp:f:1.9449230433281777"	660
1	0	"Chromosome"	"S146_LN:i:634_dp:f:1.0111040107235383"	634
1	0	"Chromosome"	"S148_LN:i:624_dp:f:1.9463605095469974"	624
0.5	0.5	"Plasmid"	"S145_LN:i:644_dp:f:1.979401252730137"	644
1	0	"Chromosome"	"S147_LN:i:633_dp:f:2.006695785185996"	633
0	1	"Plasmid"	"S149_LN:i:606_dp:f:1.1418675077759324"	606
1	0	"Chromosome"	"S151_LN:i:604_dp:f:1.5921022017312725"	604
0	1	"Plasmid"	"S152_LN:i:583_dp:f:3.3700838557662425"	583
0	1	"Plasmid"	"S154_LN:i:548_dp:f:2.201822500013073"	548
1	0	"Chromosome"	"S157_LN:i:534_dp:f:0.8603041271774547"	534
1	0	"Chromosome"	"S156_LN:i:540_dp:f:0.820355595221962"	540
0	1	"Plasmid"	"S150_LN:i:606_dp:f:2.215059714133482"	606
1	0	"Chromosome"	"S155_LN:i:543_dp:f:2.191458958279269"	543
1	0	"Chromosome"	"S158_LN:i:530_dp:f:1.8059688995464005"	530
0	1	"Plasmid"	"S159_LN:i:530_dp:f:2.2845856760044634"	530
1	0	"Chromosome"	"S160_LN:i:518_dp:f:2.0539075033077916"	518
1	0	"Chromosome"	"S161_LN:i:512_dp:f:0.8166668588244493"	512
0.5	0.5	"Plasmid"	"S153_LN:i:574_dp:f:2.9719727478682616"	574
1	0	"Chromosome"	"S162_LN:i:507_dp:f:0.7644773090954957"	507
1	0	"Chromosome"	"S163_LN:i:501_dp:f:2.0408446802503946"	501
