"Prob_Chromosome"	"Prob_Plasmid"	"Prediction"	"Contig_name"	"Contig_length"
1	0	"Chromosome"	"S7_LN:i:213475_dp:f:0.9868002769029566"	213475
1	0	"Chromosome"	"S6_LN:i:215028_dp:f:1.0385275197154489"	215028
1	0	"Chromosome"	"S8_LN:i:192595_dp:f:1.0330002609241946"	192595
1	0	"Chromosome"	"S5_LN:i:288696_dp:f:0.983449163000056"	288696
1	0	"Chromosome"	"S4_LN:i:293611_dp:f:1.025917638116312"	293611
1	0	"Chromosome"	"S3_LN:i:355905_dp:f:0.9925276958180613"	355905
1	0	"Chromosome"	"S10_LN:i:154365_dp:f:1.031915689475217"	154365
1	0	"Chromosome"	"S2_LN:i:443096_dp:f:1.0206981813666511"	443096
1	0	"Chromosome"	"S9_LN:i:189883_dp:f:1.0242649908405703"	189883
1	0	"Chromosome"	"S13_LN:i:120586_dp:f:1.0609913741219614"	120586
1	0	"Chromosome"	"S14_LN:i:119091_dp:f:1.0086515681748975"	119091
1	0	"Chromosome"	"S12_LN:i:134888_dp:f:0.9867740670042534"	134888
0	1	"Plasmid"	"S11_LN:i:142555_dp:f:1.3663180303639406"	142555
1	0	"Chromosome"	"S16_LN:i:110345_dp:f:1.0461896441137364"	110345
1	0	"Chromosome"	"S15_LN:i:116351_dp:f:1.0124730086624465"	116351
1	0	"Chromosome"	"S18_LN:i:94489_dp:f:1.0383903375436858"	94489
1	0	"Chromosome"	"S19_LN:i:88132_dp:f:1.0659589895190429"	88132
1	0	"Chromosome"	"S17_LN:i:104098_dp:f:1.0748535997250055"	104098
1	0	"Chromosome"	"S20_LN:i:79801_dp:f:0.9568549930822512"	79801
1	0	"Chromosome"	"S21_LN:i:69081_dp:f:1.0547621061914898"	69081
1	0	"Chromosome"	"S22_LN:i:55873_dp:f:0.9957154023778202"	55873
1	0	"Chromosome"	"S23_LN:i:50162_dp:f:1.0090958111939818"	50162
1	0	"Chromosome"	"S24_LN:i:45451_dp:f:1.0229661406932822"	45451
1	0	"Chromosome"	"S25_LN:i:44238_dp:f:1.0141223783420072"	44238
1	0	"Chromosome"	"S27_LN:i:35624_dp:f:0.9486464397512535"	35624
1	0	"Chromosome"	"S26_LN:i:40537_dp:f:1.061250406769868"	40537
1	0	"Chromosome"	"S28_LN:i:32919_dp:f:1.0115223440581702"	32919
1	0	"Chromosome"	"S29_LN:i:30862_dp:f:1.0912517972957356"	30862
1	0	"Chromosome"	"S30_LN:i:30165_dp:f:0.960044241299505"	30165
1	0	"Chromosome"	"S32_LN:i:25729_dp:f:1.0753277141600404"	25729
1	0	"Chromosome"	"S31_LN:i:26140_dp:f:1.019970984441772"	26140
1	0	"Chromosome"	"S35_LN:i:24126_dp:f:1.0263781365454747"	24126
1	0	"Chromosome"	"S33_LN:i:25547_dp:f:1.0329035982337131"	25547
1	0	"Chromosome"	"S34_LN:i:24481_dp:f:1.0120856378560623"	24481
1	0	"Chromosome"	"S39_LN:i:10233_dp:f:0.9552308847548331"	10233
1	0	"Chromosome"	"S37_LN:i:18780_dp:f:1.0377587446922094"	18780
1	0	"Chromosome"	"S40_LN:i:9114_dp:f:1.120757828036923"	9114
1	0	"Chromosome"	"S36_LN:i:18841_dp:f:0.9707105384464891"	18841
1	0	"Chromosome"	"S41_LN:i:8462_dp:f:1.015966199529637"	8462
1	0	"Chromosome"	"S42_LN:i:7489_dp:f:1.0770010227208322"	7489
1	0	"Chromosome"	"S46_LN:i:3040_dp:f:1.0332571398339068"	3040
1	0	"Chromosome"	"S43_LN:i:7342_dp:f:0.8614875746023223"	7342
1	0	"Chromosome"	"S45_LN:i:4253_dp:f:0.9761970222282012"	4253
0	1	"Plasmid"	"S48_LN:i:2590_dp:f:40.03597895756122"	2590
1	0	"Chromosome"	"S47_LN:i:3028_dp:f:7.2296704147209"	3028
0	1	"Plasmid"	"S44_LN:i:6760_dp:f:20.58685138348167"	6760
1	0	"Chromosome"	"S38_LN:i:14029_dp:f:1.0502113303950908"	14029
1	0	"Chromosome"	"S49_LN:i:2011_dp:f:0.7674579940817414"	2011
1	0	"Chromosome"	"S51_LN:i:1859_dp:f:2.14783622152783"	1859
1	0	"Chromosome"	"S52_LN:i:1856_dp:f:1.023345162111435"	1856
1	0	"Chromosome"	"S55_LN:i:1564_dp:f:0.7450722948188545"	1564
1	0	"Chromosome"	"S53_LN:i:1796_dp:f:1.2811544137153759"	1796
1	0	"Chromosome"	"S50_LN:i:1979_dp:f:0.7659763682202386"	1979
1	0	"Chromosome"	"S54_LN:i:1708_dp:f:7.362475569904788"	1708
1	0	"Chromosome"	"S56_LN:i:1538_dp:f:0.9493320220737351"	1538
1	0	"Chromosome"	"S57_LN:i:1353_dp:f:3.080650349292886"	1353
0.5	0.5	"Plasmid"	"S58_LN:i:1178_dp:f:9.059666568492492"	1178
1	0	"Chromosome"	"S60_LN:i:1095_dp:f:0.7381483185566035"	1095
1	0	"Chromosome"	"S59_LN:i:1153_dp:f:4.781427540998257"	1153
1	0	"Chromosome"	"S61_LN:i:1038_dp:f:0.9322230178908245"	1038
1	0	"Chromosome"	"S63_LN:i:935_dp:f:2.1461145086137234"	935
1	0	"Chromosome"	"S64_LN:i:890_dp:f:3.0363858823315826"	890
1	0	"Chromosome"	"S66_LN:i:784_dp:f:2.045476491978199"	784
1	0	"Chromosome"	"S67_LN:i:762_dp:f:2.899292451882734"	762
1	0	"Chromosome"	"S68_LN:i:739_dp:f:0.9068281813301833"	739
1	0	"Chromosome"	"S69_LN:i:712_dp:f:0.9932432759711808"	712
1	0	"Chromosome"	"S72_LN:i:581_dp:f:1.1455611531789238"	581
1	0	"Chromosome"	"S73_LN:i:581_dp:f:1.0788971154206"	581
1	0	"Chromosome"	"S71_LN:i:617_dp:f:2.1698055922465556"	617
1	0	"Chromosome"	"S74_LN:i:536_dp:f:3.7677444134666476"	536
1	0	"Chromosome"	"S65_LN:i:784_dp:f:1.1181125994859247"	784
1	0	"Chromosome"	"S70_LN:i:643_dp:f:1.9881413529562977"	643
1	0	"Chromosome"	"S62_LN:i:956_dp:f:1.881772202481808"	956
1	0	"Chromosome"	"S1_LN:i:749781_dp:f:1.0"	749781
