"Prob_Chromosome"	"Prob_Plasmid"	"Prediction"	"Contig_name"	"Contig_length"
1	0	"Chromosome"	"S8_LN:i:134963_dp:f:0.9802836130750402"	134963
1	0	"Chromosome"	"S7_LN:i:143410_dp:f:0.9515114942851757"	143410
1	0	"Chromosome"	"S6_LN:i:143471_dp:f:1.0538651115595712"	143471
1	0	"Chromosome"	"S2_LN:i:198577_dp:f:0.9300612809899281"	198577
1	0	"Chromosome"	"S5_LN:i:159952_dp:f:1.0308841566800946"	159952
1	0	"Chromosome"	"S4_LN:i:165044_dp:f:1.0354116101623403"	165044
1	0	"Chromosome"	"S3_LN:i:177481_dp:f:1.0012293681017301"	177481
1	0	"Chromosome"	"S1_LN:i:205680_dp:f:0.9847280101543674"	205680
1	0	"Chromosome"	"S12_LN:i:103632_dp:f:1.0246924818521368"	103632
1	0	"Chromosome"	"S16_LN:i:92923_dp:f:0.9506428442556104"	92923
1	0	"Chromosome"	"S13_LN:i:100245_dp:f:0.9428292250136578"	100245
1	0	"Chromosome"	"S14_LN:i:97943_dp:f:0.9886617642310623"	97943
1	0	"Chromosome"	"S11_LN:i:119991_dp:f:1.0590228321681394"	119991
1	0	"Chromosome"	"S9_LN:i:127704_dp:f:1.0"	127704
1	0	"Chromosome"	"S15_LN:i:94734_dp:f:1.0968792478815201"	94734
1	0	"Chromosome"	"S10_LN:i:124301_dp:f:1.0440217967455931"	124301
1	0	"Chromosome"	"S23_LN:i:72839_dp:f:1.071845283077906"	72839
1	0	"Chromosome"	"S22_LN:i:74103_dp:f:0.9859353340115466"	74103
1	0	"Chromosome"	"S19_LN:i:80902_dp:f:1.0431307323703893"	80902
1	0	"Chromosome"	"S21_LN:i:77639_dp:f:1.0651295015424038"	77639
1	0	"Chromosome"	"S18_LN:i:81467_dp:f:1.0058709954750176"	81467
1	0	"Chromosome"	"S24_LN:i:68342_dp:f:0.996424817702492"	68342
1	0	"Chromosome"	"S17_LN:i:87532_dp:f:1.0063207126626885"	87532
1	0	"Chromosome"	"S20_LN:i:78485_dp:f:0.946665207659889"	78485
1	0	"Chromosome"	"S26_LN:i:61645_dp:f:1.0236983901594299"	61645
1	0	"Chromosome"	"S30_LN:i:51934_dp:f:1.0280677492142603"	51934
1	0	"Chromosome"	"S28_LN:i:56151_dp:f:1.0224770514182977"	56151
1	0	"Chromosome"	"S27_LN:i:56181_dp:f:0.982882546780819"	56181
1	0	"Chromosome"	"S29_LN:i:53402_dp:f:0.9832607783277728"	53402
1	0	"Chromosome"	"S32_LN:i:49865_dp:f:0.9975346456568958"	49865
1	0	"Chromosome"	"S31_LN:i:50147_dp:f:1.0339626721692605"	50147
1	0	"Chromosome"	"S25_LN:i:67581_dp:f:1.0601805199779861"	67581
1	0	"Chromosome"	"S38_LN:i:43212_dp:f:0.9450283452244516"	43212
1	0	"Chromosome"	"S33_LN:i:49282_dp:f:1.0002062572417838"	49282
1	0	"Chromosome"	"S37_LN:i:43562_dp:f:0.9296961195161119"	43562
1	0	"Chromosome"	"S35_LN:i:44880_dp:f:0.9870127525468099"	44880
1	0	"Chromosome"	"S36_LN:i:43961_dp:f:0.9650237159330959"	43961
1	0	"Chromosome"	"S34_LN:i:45806_dp:f:0.9436796316265614"	45806
0	1	"Plasmid"	"S39_LN:i:42679_dp:f:1.3721991613308524"	42679
1	0	"Chromosome"	"S40_LN:i:41255_dp:f:1.0224815770579074"	41255
1	0	"Chromosome"	"S41_LN:i:39531_dp:f:0.934254889813693"	39531
1	0	"Chromosome"	"S48_LN:i:30707_dp:f:1.1310901149008803"	30707
1	0	"Chromosome"	"S44_LN:i:34406_dp:f:1.0746194771966453"	34406
1	0	"Chromosome"	"S45_LN:i:32300_dp:f:1.007247252212898"	32300
0	1	"Plasmid"	"S47_LN:i:30850_dp:f:1.2734728688314831"	30850
1	0	"Chromosome"	"S46_LN:i:31741_dp:f:0.9972280944018251"	31741
1	0	"Chromosome"	"S43_LN:i:39230_dp:f:0.986227919045456"	39230
1	0	"Chromosome"	"S42_LN:i:39394_dp:f:1.0703785411046998"	39394
1	0	"Chromosome"	"S49_LN:i:30523_dp:f:0.9791565584924442"	30523
1	0	"Chromosome"	"S50_LN:i:30417_dp:f:0.9306585392018812"	30417
1	0	"Chromosome"	"S51_LN:i:29715_dp:f:1.1006976468109582"	29715
1	0	"Chromosome"	"S52_LN:i:29549_dp:f:0.8865526774839674"	29549
1	0	"Chromosome"	"S53_LN:i:28787_dp:f:0.8923097776954727"	28787
1	0	"Chromosome"	"S56_LN:i:26077_dp:f:0.9152097087719281"	26077
1	0	"Chromosome"	"S54_LN:i:27516_dp:f:0.9885277955660557"	27516
1	0	"Chromosome"	"S55_LN:i:27461_dp:f:0.9403575931704499"	27461
1	0	"Chromosome"	"S61_LN:i:24896_dp:f:0.946410711418468"	24896
1	0	"Chromosome"	"S60_LN:i:24975_dp:f:0.8432164014272168"	24975
1	0	"Chromosome"	"S57_LN:i:26045_dp:f:0.8301505804071014"	26045
0	1	"Plasmid"	"S58_LN:i:25768_dp:f:3.5137898307077453"	25768
1	0	"Chromosome"	"S59_LN:i:25653_dp:f:1.0156621924392961"	25653
1	0	"Chromosome"	"S62_LN:i:23946_dp:f:1.0418076397322253"	23946
1	0	"Chromosome"	"S63_LN:i:23714_dp:f:0.9082301262436902"	23714
0	1	"Plasmid"	"S64_LN:i:23417_dp:f:0.8187970322300498"	23417
1	0	"Chromosome"	"S67_LN:i:21404_dp:f:0.9628072474371315"	21404
1	0	"Chromosome"	"S65_LN:i:22398_dp:f:1.0399860454579088"	22398
1	0	"Chromosome"	"S71_LN:i:18544_dp:f:0.9117866220292613"	18544
1	0	"Chromosome"	"S69_LN:i:20582_dp:f:1.0552641668152707"	20582
1	0	"Chromosome"	"S68_LN:i:21291_dp:f:1.0308775631270157"	21291
1	0	"Chromosome"	"S72_LN:i:18375_dp:f:1.0213445466030537"	18375
0	1	"Plasmid"	"S70_LN:i:19400_dp:f:1.951675251661216"	19400
1	0	"Chromosome"	"S66_LN:i:21853_dp:f:0.9567833778026089"	21853
1	0	"Chromosome"	"S73_LN:i:16802_dp:f:0.9732356836561369"	16802
0	1	"Plasmid"	"S75_LN:i:15920_dp:f:0.9874590146762844"	15920
1	0	"Chromosome"	"S76_LN:i:15511_dp:f:0.8887845477534421"	15511
1	0	"Chromosome"	"S74_LN:i:16566_dp:f:1.0297769293540129"	16566
1	0	"Chromosome"	"S77_LN:i:15451_dp:f:0.9618011685542113"	15451
1	0	"Chromosome"	"S79_LN:i:14835_dp:f:0.7740511062775511"	14835
1	0	"Chromosome"	"S80_LN:i:14698_dp:f:1.004534836877335"	14698
1	0	"Chromosome"	"S78_LN:i:15339_dp:f:0.9790420306126429"	15339
1	0	"Chromosome"	"S82_LN:i:14138_dp:f:1.1275346167025349"	14138
1	0	"Chromosome"	"S81_LN:i:14293_dp:f:1.0472405240953448"	14293
1	0	"Chromosome"	"S83_LN:i:13896_dp:f:0.9491364580831001"	13896
0	1	"Plasmid"	"S86_LN:i:10693_dp:f:1.8258797630501624"	10693
0	1	"Plasmid"	"S84_LN:i:13743_dp:f:3.220628835047667"	13743
0	1	"Plasmid"	"S88_LN:i:10625_dp:f:1.1283274211401368"	10625
1	0	"Chromosome"	"S85_LN:i:12026_dp:f:0.9615464431720909"	12026
1	0	"Chromosome"	"S87_LN:i:10660_dp:f:0.8371550534982914"	10660
1	0	"Chromosome"	"S90_LN:i:9983_dp:f:0.6058332386857572"	9983
1	0	"Chromosome"	"S91_LN:i:9677_dp:f:1.0932587118623316"	9677
1	0	"Chromosome"	"S92_LN:i:9582_dp:f:0.4856154613173023"	9582
1	0	"Chromosome"	"S89_LN:i:10113_dp:f:0.8243427244491573"	10113
1	0	"Chromosome"	"S94_LN:i:9239_dp:f:0.7756801032663366"	9239
1	0	"Chromosome"	"S95_LN:i:9145_dp:f:4.721793336764548"	9145
1	0	"Chromosome"	"S97_LN:i:7398_dp:f:1.0170329016189454"	7398
1	0	"Chromosome"	"S93_LN:i:9529_dp:f:1.070285835261414"	9529
0	1	"Plasmid"	"S99_LN:i:5974_dp:f:1.5146932555013466"	5974
1	0	"Chromosome"	"S100_LN:i:5823_dp:f:0.8358879977761484"	5823
1	0	"Chromosome"	"S98_LN:i:6039_dp:f:0.7874812681708384"	6039
0	1	"Plasmid"	"S96_LN:i:8367_dp:f:3.7380148106665825"	8367
1	0	"Chromosome"	"S101_LN:i:5688_dp:f:1.1866325112265668"	5688
1	0	"Chromosome"	"S102_LN:i:5624_dp:f:0.8263618896569742"	5624
1	0	"Chromosome"	"S103_LN:i:5511_dp:f:0.9632079855251553"	5511
0	1	"Plasmid"	"S104_LN:i:4791_dp:f:1.2814320792589258"	4791
1	0	"Chromosome"	"S106_LN:i:4530_dp:f:0.6852888220618994"	4530
0	1	"Plasmid"	"S109_LN:i:4072_dp:f:50.99129174479783"	4072
1	0	"Chromosome"	"S105_LN:i:4559_dp:f:0.9155170386316627"	4559
0	1	"Plasmid"	"S107_LN:i:4286_dp:f:1.0017357044473145"	4286
1	0	"Chromosome"	"S108_LN:i:4148_dp:f:0.9724609963468114"	4148
0	1	"Plasmid"	"S110_LN:i:4018_dp:f:47.74911671558859"	4018
0	1	"Plasmid"	"S111_LN:i:3751_dp:f:65.86862352890252"	3751
0	1	"Plasmid"	"S113_LN:i:3649_dp:f:1.858007149242731"	3649
1	0	"Chromosome"	"S115_LN:i:3302_dp:f:1.9095995215279689"	3302
1	0	"Chromosome"	"S116_LN:i:3295_dp:f:0.840110870531114"	3295
1	0	"Chromosome"	"S112_LN:i:3741_dp:f:0.9699002142695705"	3741
1	0	"Chromosome"	"S117_LN:i:3073_dp:f:0.7902570667923335"	3073
0	1	"Plasmid"	"S118_LN:i:3003_dp:f:1.7565546529499885"	3003
0	1	"Plasmid"	"S119_LN:i:2881_dp:f:2.9834554051623874"	2881
0	1	"Plasmid"	"S120_LN:i:2601_dp:f:23.898070527616344"	2601
1	0	"Chromosome"	"S114_LN:i:3417_dp:f:0.7537830393285626"	3417
0	1	"Plasmid"	"S122_LN:i:2577_dp:f:1.059920563345779"	2577
0	1	"Plasmid"	"S125_LN:i:2372_dp:f:1.0529634873586111"	2372
1	0	"Chromosome"	"S124_LN:i:2373_dp:f:0.9029520382203405"	2373
0	1	"Plasmid"	"S123_LN:i:2557_dp:f:0.782002300144166"	2557
1	0	"Chromosome"	"S121_LN:i:2579_dp:f:0.8604919521110442"	2579
0	1	"Plasmid"	"S128_LN:i:2313_dp:f:1.6646998139597153"	2313
1	0	"Chromosome"	"S127_LN:i:2335_dp:f:0.8747171809800605"	2335
0.5	0.5	"Plasmid"	"S129_LN:i:2204_dp:f:1.5600984623458147"	2204
0	1	"Plasmid"	"S126_LN:i:2347_dp:f:7.519646932955789"	2347
1	0	"Chromosome"	"S131_LN:i:2054_dp:f:1.055032288613761"	2054
1	0	"Chromosome"	"S132_LN:i:2054_dp:f:2.5186429952356937"	2054
0	1	"Plasmid"	"S135_LN:i:1906_dp:f:1.705965666502746"	1906
0	1	"Plasmid"	"S134_LN:i:1960_dp:f:1.4287249596786193"	1960
0	1	"Plasmid"	"S133_LN:i:1991_dp:f:2.553827945352561"	1991
1	0	"Chromosome"	"S130_LN:i:2159_dp:f:7.33375777020082"	2159
0.5	0.5	"Plasmid"	"S136_LN:i:1789_dp:f:6.068426575986475"	1789
0.5	0.5	"Plasmid"	"S137_LN:i:1729_dp:f:2.037911891295694"	1729
0.5	0.5	"Plasmid"	"S143_LN:i:1552_dp:f:0.8401770615133939"	1552
1	0	"Chromosome"	"S138_LN:i:1693_dp:f:7.450914657313095"	1693
0	1	"Plasmid"	"S141_LN:i:1596_dp:f:1.4985167946120947"	1596
0	1	"Plasmid"	"S142_LN:i:1569_dp:f:0.8714588421180257"	1569
1	0	"Chromosome"	"S140_LN:i:1617_dp:f:1.0218903728039426"	1617
1	0	"Chromosome"	"S139_LN:i:1622_dp:f:0.701424284479954"	1622
0	1	"Plasmid"	"S145_LN:i:1454_dp:f:1.7265627039655287"	1454
0	1	"Plasmid"	"S144_LN:i:1536_dp:f:2.717879899403304"	1536
1	0	"Chromosome"	"S149_LN:i:1328_dp:f:0.8989836966880587"	1328
1	0	"Chromosome"	"S146_LN:i:1445_dp:f:1.8305101736500087"	1445
0	1	"Plasmid"	"S150_LN:i:1322_dp:f:3.3391987812501194"	1322
0	1	"Plasmid"	"S147_LN:i:1443_dp:f:2.368085865884909"	1443
0.5	0.5	"Plasmid"	"S151_LN:i:1301_dp:f:5.206348095215468"	1301
0.5	0.5	"Plasmid"	"S153_LN:i:1164_dp:f:10.058235297881858"	1164
1	0	"Chromosome"	"S152_LN:i:1252_dp:f:1.1225302812127829"	1252
0	1	"Plasmid"	"S157_LN:i:1100_dp:f:62.22368426006521"	1100
0	1	"Plasmid"	"S158_LN:i:1087_dp:f:43.41432196893349"	1087
1	0	"Chromosome"	"S155_LN:i:1132_dp:f:0.8607501325513612"	1132
1	0	"Chromosome"	"S154_LN:i:1133_dp:f:2.4007451441286043"	1133
0	1	"Plasmid"	"S156_LN:i:1119_dp:f:1.1341288385848636"	1119
0.5	0.5	"Plasmid"	"S148_LN:i:1328_dp:f:6.176052928377155"	1328
0	1	"Plasmid"	"S159_LN:i:1078_dp:f:3.3810366162444723"	1078
1	0	"Chromosome"	"S160_LN:i:1069_dp:f:0.9962630625835373"	1069
1	0	"Chromosome"	"S166_LN:i:960_dp:f:0.9522081508083267"	960
0	1	"Plasmid"	"S162_LN:i:1036_dp:f:1.689254523261216"	1036
0	1	"Plasmid"	"S161_LN:i:1068_dp:f:2.907817003475229"	1068
1	0	"Chromosome"	"S165_LN:i:974_dp:f:1.9681769918282765"	974
0	1	"Plasmid"	"S167_LN:i:948_dp:f:1.9509693177936496"	948
1	0	"Chromosome"	"S163_LN:i:1031_dp:f:1.8940569665615818"	1031
0	1	"Plasmid"	"S164_LN:i:1015_dp:f:1.694870379720385"	1015
0	1	"Plasmid"	"S170_LN:i:859_dp:f:1.2555100939646875"	859
1	0	"Chromosome"	"S171_LN:i:844_dp:f:0.9955404201297239"	844
1	0	"Chromosome"	"S172_LN:i:835_dp:f:1.6003574574012616"	835
0	1	"Plasmid"	"S173_LN:i:817_dp:f:2.158647999717172"	817
1	0	"Chromosome"	"S169_LN:i:896_dp:f:1.7719362070706892"	896
0	1	"Plasmid"	"S174_LN:i:814_dp:f:2.0716445490629583"	814
0	1	"Plasmid"	"S175_LN:i:810_dp:f:1.0818051696089286"	810
1	0	"Chromosome"	"S168_LN:i:931_dp:f:0.7538488800854656"	931
0	1	"Plasmid"	"S176_LN:i:810_dp:f:1.6563922725141629"	810
0	1	"Plasmid"	"S179_LN:i:796_dp:f:1.4091192319415362"	796
0	1	"Plasmid"	"S177_LN:i:798_dp:f:1.0756358955533962"	798
0	1	"Plasmid"	"S178_LN:i:796_dp:f:2.2765078938468895"	796
0	1	"Plasmid"	"S180_LN:i:786_dp:f:1.6011039202915154"	786
0	1	"Plasmid"	"S183_LN:i:735_dp:f:1.2528972670319345"	735
1	0	"Chromosome"	"S181_LN:i:761_dp:f:2.2883845834038032"	761
1	0	"Chromosome"	"S182_LN:i:754_dp:f:1.929279606010468"	754
0	1	"Plasmid"	"S185_LN:i:711_dp:f:0.909512342136992"	711
0	1	"Plasmid"	"S186_LN:i:706_dp:f:1.5778595783082008"	706
0	1	"Plasmid"	"S184_LN:i:735_dp:f:1.4475446616759569"	735
0.5	0.5	"Plasmid"	"S188_LN:i:703_dp:f:2.884617601579867"	703
0.5	0.5	"Plasmid"	"S187_LN:i:705_dp:f:7.690185831764993"	705
1	0	"Chromosome"	"S189_LN:i:700_dp:f:1.6885496183949051"	700
0	1	"Plasmid"	"S191_LN:i:680_dp:f:1.0482286707395965"	680
0	1	"Plasmid"	"S195_LN:i:613_dp:f:3.4784327359659373"	613
0	1	"Plasmid"	"S192_LN:i:680_dp:f:1.5443479956027328"	680
0	1	"Plasmid"	"S196_LN:i:596_dp:f:2.08772373296264"	596
1	0	"Chromosome"	"S194_LN:i:653_dp:f:1.1077828275967567"	653
1	0	"Chromosome"	"S197_LN:i:561_dp:f:1.452163612188404"	561
1	0	"Chromosome"	"S193_LN:i:660_dp:f:2.578863953993418"	660
0	1	"Plasmid"	"S198_LN:i:560_dp:f:2.5126328728397707"	560
1	0	"Chromosome"	"S199_LN:i:552_dp:f:0.6698377531435373"	552
0	1	"Plasmid"	"S200_LN:i:550_dp:f:0.9789220525001934"	550
0	1	"Plasmid"	"S202_LN:i:536_dp:f:1.1641872609425161"	536
0	1	"Plasmid"	"S203_LN:i:535_dp:f:3.2681385019933376"	535
0	1	"Plasmid"	"S190_LN:i:699_dp:f:3.179768186520003"	699
0	1	"Plasmid"	"S201_LN:i:549_dp:f:1.7685512476251646"	549
0	1	"Plasmid"	"S205_LN:i:513_dp:f:1.7925567243303713"	513
0	1	"Plasmid"	"S207_LN:i:511_dp:f:1.1462922006465193"	511
0	1	"Plasmid"	"S208_LN:i:511_dp:f:1.9396610826356733"	511
0	1	"Plasmid"	"S206_LN:i:513_dp:f:1.0457005900582452"	513
0.5	0.5	"Plasmid"	"S204_LN:i:527_dp:f:4.876533106039167"	527
