"Prob_Chromosome"	"Prob_Plasmid"	"Prediction"	"Contig_name"	"Contig_length"
1	0	"Chromosome"	"S1_LN:i:407710_dp:f:0.9800188988847832"	407710
1	0	"Chromosome"	"S10_LN:i:195183_dp:f:0.9851328171978108"	195183
1	0	"Chromosome"	"S100_LN:i:1777_dp:f:0.9646067484203024"	1777
0.67	0.33	"Chromosome"	"S101_LN:i:1770_dp:f:14.146834556515032"	1770
1	0	"Chromosome"	"S102_LN:i:1673_dp:f:6.967174627363006"	1673
0.67	0.33	"Chromosome"	"S103_LN:i:1431_dp:f:0.7911091887735814"	1431
0	1	"Plasmid"	"S104_LN:i:1310_dp:f:1.5410341521086695"	1310
1	0	"Chromosome"	"S105_LN:i:1293_dp:f:10.061052232764428"	1293
1	0	"Chromosome"	"S106_LN:i:1146_dp:f:0.8907445409926102"	1146
1	0	"Chromosome"	"S107_LN:i:1135_dp:f:2.6305951975206567"	1135
0.33	0.67	"Plasmid"	"S108_LN:i:1132_dp:f:0.9247614085706317"	1132
1	0	"Chromosome"	"S109_LN:i:1109_dp:f:1.8005730854971111"	1109
1	0	"Chromosome"	"S11_LN:i:177282_dp:f:0.9526562879570133"	177282
1	0	"Chromosome"	"S110_LN:i:1075_dp:f:1.9442859288539456"	1075
1	0	"Chromosome"	"S111_LN:i:1054_dp:f:1.850210435992292"	1054
0.67	0.33	"Chromosome"	"S112_LN:i:1041_dp:f:0.8449570404063551"	1041
1	0	"Chromosome"	"S113_LN:i:1039_dp:f:1.6911143550888814"	1039
1	0	"Chromosome"	"S114_LN:i:960_dp:f:0.9774974997985172"	960
0.67	0.33	"Chromosome"	"S115_LN:i:951_dp:f:0.68357087706755"	951
0.5	0.5	"Plasmid"	"S116_LN:i:904_dp:f:2.138900843941882"	904
0.67	0.33	"Chromosome"	"S117_LN:i:903_dp:f:3.025802181118291"	903
0.67	0.33	"Chromosome"	"S118_LN:i:894_dp:f:1.5091802856172838"	894
1	0	"Chromosome"	"S119_LN:i:872_dp:f:1.5710298314933653"	872
1	0	"Chromosome"	"S12_LN:i:148311_dp:f:0.8652936558137313"	148311
0.67	0.33	"Chromosome"	"S120_LN:i:870_dp:f:1.7222403737285816"	870
0.67	0.33	"Chromosome"	"S121_LN:i:857_dp:f:0.7080024174139499"	857
1	0	"Chromosome"	"S122_LN:i:844_dp:f:2.0188830330195455"	844
1	0	"Chromosome"	"S123_LN:i:842_dp:f:1.7898255983241085"	842
0.67	0.33	"Chromosome"	"S124_LN:i:828_dp:f:1.8077584683666383"	828
0.5	0.5	"Plasmid"	"S125_LN:i:820_dp:f:3.6732384030913847"	820
0.67	0.33	"Chromosome"	"S126_LN:i:787_dp:f:0.7779335113444058"	787
0.67	0.33	"Chromosome"	"S127_LN:i:772_dp:f:0.9610030053389254"	772
0.67	0.33	"Chromosome"	"S128_LN:i:772_dp:f:0.8146599204372621"	772
1	0	"Chromosome"	"S129_LN:i:766_dp:f:1.8750541851351603"	766
1	0	"Chromosome"	"S13_LN:i:136760_dp:f:0.890505870135816"	136760
1	0	"Chromosome"	"S130_LN:i:725_dp:f:0.8074780620108465"	725
1	0	"Chromosome"	"S131_LN:i:713_dp:f:4.942296869055328"	713
1	0	"Chromosome"	"S132_LN:i:708_dp:f:1.7207617187957995"	708
0.67	0.33	"Chromosome"	"S133_LN:i:684_dp:f:0.7717518395238099"	684
0.67	0.33	"Chromosome"	"S134_LN:i:684_dp:f:0.960980348204638"	684
0.67	0.33	"Chromosome"	"S135_LN:i:656_dp:f:1.5183754066472894"	656
1	0	"Chromosome"	"S136_LN:i:648_dp:f:1.6866494395078344"	648
1	0	"Chromosome"	"S137_LN:i:608_dp:f:5.427306713479889"	608
0.67	0.33	"Chromosome"	"S138_LN:i:606_dp:f:0.7976190365970331"	606
0.67	0.33	"Chromosome"	"S139_LN:i:560_dp:f:0.7125838913636086"	560
1	0	"Chromosome"	"S14_LN:i:133622_dp:f:0.9188776441907871"	133622
0.5	0.5	"Plasmid"	"S140_LN:i:559_dp:f:3.762086592977814"	559
1	0	"Chromosome"	"S141_LN:i:526_dp:f:1.8130754935936404"	526
0.67	0.33	"Chromosome"	"S142_LN:i:520_dp:f:1.4793946630420254"	520
1	0	"Chromosome"	"S15_LN:i:128119_dp:f:1.0195747687722447"	128119
1	0	"Chromosome"	"S16_LN:i:114969_dp:f:0.9745744777295077"	114969
1	0	"Chromosome"	"S17_LN:i:111410_dp:f:1.0580100292822427"	111410
1	0	"Chromosome"	"S18_LN:i:108243_dp:f:0.9417977609840031"	108243
1	0	"Chromosome"	"S19_LN:i:105383_dp:f:0.8719035226586548"	105383
1	0	"Chromosome"	"S2_LN:i:263173_dp:f:1.0056673162547736"	263173
1	0	"Chromosome"	"S20_LN:i:97784_dp:f:0.9599766875048941"	97784
1	0	"Chromosome"	"S21_LN:i:97473_dp:f:0.9743049585298625"	97473
1	0	"Chromosome"	"S22_LN:i:86423_dp:f:0.9484523627209578"	86423
0	1	"Plasmid"	"S23_LN:i:83549_dp:f:0.6784946216542421"	83549
1	0	"Chromosome"	"S24_LN:i:82616_dp:f:1.0250130348422775"	82616
1	0	"Chromosome"	"S25_LN:i:82284_dp:f:1.026360781888066"	82284
1	0	"Chromosome"	"S26_LN:i:78768_dp:f:0.9232652132710216"	78768
1	0	"Chromosome"	"S27_LN:i:78653_dp:f:0.9249989517830979"	78653
1	0	"Chromosome"	"S28_LN:i:72382_dp:f:0.8503026523328364"	72382
1	0	"Chromosome"	"S29_LN:i:72337_dp:f:0.8405262641134352"	72337
1	0	"Chromosome"	"S3_LN:i:240379_dp:f:0.9986497975757225"	240379
1	0	"Chromosome"	"S30_LN:i:56514_dp:f:0.9306843862668529"	56514
1	0	"Chromosome"	"S31_LN:i:48525_dp:f:0.9281507144632754"	48525
1	0	"Chromosome"	"S32_LN:i:46020_dp:f:1.0201706514040028"	46020
1	0	"Chromosome"	"S33_LN:i:43802_dp:f:1.0128990203766215"	43802
0.67	0.33	"Chromosome"	"S34_LN:i:41662_dp:f:0.969202763518805"	41662
1	0	"Chromosome"	"S35_LN:i:41336_dp:f:0.9729938153432451"	41336
1	0	"Chromosome"	"S36_LN:i:40489_dp:f:0.961134240729533"	40489
0	1	"Plasmid"	"S37_LN:i:40078_dp:f:0.6883481086574518"	40078
1	0	"Chromosome"	"S38_LN:i:37804_dp:f:0.9004181509136703"	37804
1	0	"Chromosome"	"S39_LN:i:36144_dp:f:1.0100162273082691"	36144
1	0	"Chromosome"	"S4_LN:i:237809_dp:f:1.0"	237809
0.67	0.33	"Chromosome"	"S40_LN:i:35010_dp:f:0.7252727425007292"	35010
1	0	"Chromosome"	"S41_LN:i:32401_dp:f:0.8561699964275532"	32401
1	0	"Chromosome"	"S42_LN:i:32038_dp:f:0.8860198236050679"	32038
0	1	"Plasmid"	"S43_LN:i:31880_dp:f:0.916933570071089"	31880
1	0	"Chromosome"	"S44_LN:i:30171_dp:f:1.0848440314501027"	30171
0	1	"Plasmid"	"S45_LN:i:29889_dp:f:0.7733068741737342"	29889
1	0	"Chromosome"	"S46_LN:i:29352_dp:f:0.934333645013554"	29352
0.33	0.67	"Plasmid"	"S47_LN:i:28414_dp:f:0.7432720442627327"	28414
0	1	"Plasmid"	"S48_LN:i:26144_dp:f:0.7012281356587706"	26144
0	1	"Plasmid"	"S49_LN:i:24938_dp:f:0.7978587490777937"	24938
1	0	"Chromosome"	"S5_LN:i:233872_dp:f:0.8858123288587973"	233872
0	1	"Plasmid"	"S50_LN:i:23305_dp:f:0.7128107332429707"	23305
0	1	"Plasmid"	"S51_LN:i:21320_dp:f:0.8284322846175087"	21320
0	1	"Plasmid"	"S52_LN:i:20832_dp:f:0.7490255254530661"	20832
1	0	"Chromosome"	"S53_LN:i:18817_dp:f:0.9508795459933846"	18817
0	1	"Plasmid"	"S54_LN:i:16172_dp:f:0.7307249396751981"	16172
0.67	0.33	"Chromosome"	"S55_LN:i:16038_dp:f:0.9186861963421679"	16038
0	1	"Plasmid"	"S56_LN:i:15482_dp:f:0.7865782150587898"	15482
0	1	"Plasmid"	"S57_LN:i:14885_dp:f:0.8149235412105682"	14885
1	0	"Chromosome"	"S58_LN:i:14848_dp:f:0.8897735065662401"	14848
1	0	"Chromosome"	"S59_LN:i:14743_dp:f:0.9305677271998665"	14743
1	0	"Chromosome"	"S6_LN:i:230832_dp:f:1.0120362876981577"	230832
0.33	0.67	"Plasmid"	"S60_LN:i:13567_dp:f:0.5981845941493191"	13567
0	1	"Plasmid"	"S61_LN:i:10574_dp:f:0.7613461729834231"	10574
1	0	"Chromosome"	"S62_LN:i:10272_dp:f:1.0739884949211425"	10272
0.67	0.33	"Chromosome"	"S63_LN:i:9932_dp:f:0.9308064830460683"	9932
1	0	"Chromosome"	"S64_LN:i:9512_dp:f:0.9724751683648132"	9512
1	0	"Chromosome"	"S65_LN:i:8880_dp:f:1.006243713751045"	8880
1	0	"Chromosome"	"S66_LN:i:8780_dp:f:0.9841394135402708"	8780
1	0	"Chromosome"	"S67_LN:i:8519_dp:f:0.929647092309989"	8519
1	0	"Chromosome"	"S68_LN:i:7819_dp:f:0.8003998725610922"	7819
0	1	"Plasmid"	"S69_LN:i:7797_dp:f:0.6640854156724891"	7797
1	0	"Chromosome"	"S7_LN:i:212921_dp:f:1.0093460796252356"	212921
0.33	0.67	"Plasmid"	"S70_LN:i:7787_dp:f:0.9481539430877993"	7787
0	1	"Plasmid"	"S71_LN:i:7608_dp:f:1.2569259733465474"	7608
0	1	"Plasmid"	"S72_LN:i:6929_dp:f:0.9656505039962571"	6929
0	1	"Plasmid"	"S73_LN:i:6888_dp:f:46.593977102232124"	6888
0.5	0.5	"Plasmid"	"S74_LN:i:6570_dp:f:0.5997313236358773"	6570
1	0	"Chromosome"	"S75_LN:i:6222_dp:f:0.9879236012918454"	6222
0	1	"Plasmid"	"S76_LN:i:6026_dp:f:1.8636886113387978"	6026
0	1	"Plasmid"	"S77_LN:i:5784_dp:f:0.9462632883561586"	5784
0	1	"Plasmid"	"S78_LN:i:5177_dp:f:0.8225125307369591"	5177
1	0	"Chromosome"	"S79_LN:i:4213_dp:f:0.9699991463807003"	4213
1	0	"Chromosome"	"S8_LN:i:210019_dp:f:1.0280877094021956"	210019
0	1	"Plasmid"	"S80_LN:i:4202_dp:f:0.7144955493072163"	4202
1	0	"Chromosome"	"S81_LN:i:4092_dp:f:0.8193565933274755"	4092
0	1	"Plasmid"	"S82_LN:i:3959_dp:f:0.5427139403130473"	3959
1	0	"Chromosome"	"S83_LN:i:3713_dp:f:1.9716635008479533"	3713
0	1	"Plasmid"	"S84_LN:i:3455_dp:f:0.7557301742822021"	3455
0	1	"Plasmid"	"S85_LN:i:3311_dp:f:0.7635358087901433"	3311
0	1	"Plasmid"	"S86_LN:i:3269_dp:f:0.6185863390439036"	3269
1	0	"Chromosome"	"S87_LN:i:3191_dp:f:0.8786980447871308"	3191
1	0	"Chromosome"	"S88_LN:i:3031_dp:f:7.05719106944248"	3031
0.33	0.67	"Plasmid"	"S89_LN:i:2833_dp:f:1.7220687333490579"	2833
1	0	"Chromosome"	"S9_LN:i:200304_dp:f:1.0095980269585114"	200304
0	1	"Plasmid"	"S90_LN:i:2704_dp:f:2.102544098582221"	2704
1	0	"Chromosome"	"S91_LN:i:2581_dp:f:2.80666967892285"	2581
0.33	0.67	"Plasmid"	"S92_LN:i:2225_dp:f:1.877799122128671"	2225
0	1	"Plasmid"	"S93_LN:i:2001_dp:f:1.5887667424989032"	2001
0.33	0.67	"Plasmid"	"S94_LN:i:1949_dp:f:1.9723499616676738"	1949
1	0	"Chromosome"	"S95_LN:i:1924_dp:f:5.750825617906862"	1924
0.33	0.67	"Plasmid"	"S96_LN:i:1850_dp:f:0.7600511415367432"	1850
0.33	0.67	"Plasmid"	"S97_LN:i:1834_dp:f:1.972677885924593"	1834
0.33	0.67	"Plasmid"	"S98_LN:i:1832_dp:f:1.0815180144859011"	1832
0.33	0.67	"Plasmid"	"S99_LN:i:1832_dp:f:0.8826914402290634"	1832
