"Prob_Chromosome"	"Prob_Plasmid"	"Prediction"	"Contig_name"	"Contig_length"
1	0	"Chromosome"	"S1_LN:i:374712_dp:f:1.0048033215604808"	374712
1	0	"Chromosome"	"S10_LN:i:151506_dp:f:0.9619935133395412"	151506
1	0	"Chromosome"	"S11_LN:i:139077_dp:f:1.0229623472804885"	139077
1	0	"Chromosome"	"S12_LN:i:133677_dp:f:1.0227207390525073"	133677
1	0	"Chromosome"	"S13_LN:i:130294_dp:f:1.02620355960992"	130294
1	0	"Chromosome"	"S14_LN:i:121866_dp:f:1.0093518836416593"	121866
1	0	"Chromosome"	"S15_LN:i:112592_dp:f:1.0351773546443408"	112592
1	0	"Chromosome"	"S16_LN:i:110041_dp:f:0.9925296549216018"	110041
1	0	"Chromosome"	"S17_LN:i:101830_dp:f:0.9970070847398983"	101830
1	0	"Chromosome"	"S18_LN:i:97333_dp:f:1.0378797059602443"	97333
0	1	"Plasmid"	"S19_LN:i:95081_dp:f:0.8169168114066612"	95081
1	0	"Chromosome"	"S2_LN:i:339533_dp:f:0.9680030488299062"	339533
1	0	"Chromosome"	"S20_LN:i:88119_dp:f:1.0446804190523071"	88119
1	0	"Chromosome"	"S21_LN:i:83443_dp:f:1.0020282280383965"	83443
1	0	"Chromosome"	"S22_LN:i:73610_dp:f:0.9836522395879556"	73610
1	0	"Chromosome"	"S23_LN:i:73389_dp:f:1.0163005359594448"	73389
1	0	"Chromosome"	"S24_LN:i:73052_dp:f:0.9647490272351507"	73052
1	0	"Chromosome"	"S25_LN:i:71944_dp:f:0.969789076078528"	71944
1	0	"Chromosome"	"S26_LN:i:69214_dp:f:1.0279823061874098"	69214
1	0	"Chromosome"	"S27_LN:i:64692_dp:f:1.0273871515251118"	64692
1	0	"Chromosome"	"S28_LN:i:64600_dp:f:1.0132789514780038"	64600
1	0	"Chromosome"	"S29_LN:i:62712_dp:f:0.9985794323135639"	62712
1	0	"Chromosome"	"S3_LN:i:255206_dp:f:0.9672137705101008"	255206
1	0	"Chromosome"	"S30_LN:i:53156_dp:f:1.004747451339868"	53156
0	1	"Plasmid"	"S31_LN:i:50400_dp:f:1.7644424420962377"	50400
1	0	"Chromosome"	"S32_LN:i:49555_dp:f:1.0129537819971788"	49555
1	0	"Chromosome"	"S33_LN:i:48876_dp:f:0.9283186023539287"	48876
1	0	"Chromosome"	"S34_LN:i:45954_dp:f:1.0234723384659803"	45954
1	0	"Chromosome"	"S35_LN:i:43699_dp:f:0.9897283780358054"	43699
1	0	"Chromosome"	"S36_LN:i:41169_dp:f:1.0249060841724986"	41169
1	0	"Chromosome"	"S37_LN:i:40185_dp:f:1.0033771385234096"	40185
1	0	"Chromosome"	"S38_LN:i:39727_dp:f:0.9998876786660037"	39727
1	0	"Chromosome"	"S39_LN:i:37993_dp:f:0.9669266785780916"	37993
1	0	"Chromosome"	"S4_LN:i:195254_dp:f:1.0330635968001542"	195254
1	0	"Chromosome"	"S40_LN:i:37754_dp:f:0.9742735557351911"	37754
1	0	"Chromosome"	"S41_LN:i:34719_dp:f:1.0425382684369748"	34719
1	0	"Chromosome"	"S42_LN:i:28730_dp:f:1.0626030922188225"	28730
0.67	0.33	"Chromosome"	"S43_LN:i:26469_dp:f:1.0093305597722704"	26469
1	0	"Chromosome"	"S44_LN:i:23649_dp:f:1.0292684948148434"	23649
1	0	"Chromosome"	"S45_LN:i:22724_dp:f:1.004165418706087"	22724
1	0	"Chromosome"	"S46_LN:i:20492_dp:f:1.0021180538618288"	20492
1	0	"Chromosome"	"S47_LN:i:18838_dp:f:0.895104605881584"	18838
1	0	"Chromosome"	"S48_LN:i:17877_dp:f:1.0800912427281604"	17877
1	0	"Chromosome"	"S49_LN:i:13084_dp:f:0.9829107542561135"	13084
1	0	"Chromosome"	"S5_LN:i:192433_dp:f:1.0"	192433
1	0	"Chromosome"	"S50_LN:i:12861_dp:f:1.0430487524970116"	12861
1	0	"Chromosome"	"S51_LN:i:12283_dp:f:0.8170637352100317"	12283
1	0	"Chromosome"	"S52_LN:i:11447_dp:f:1.0308962949542608"	11447
1	0	"Chromosome"	"S53_LN:i:9118_dp:f:1.0175310325763502"	9118
1	0	"Chromosome"	"S54_LN:i:7267_dp:f:0.9406066968900622"	7267
1	0	"Chromosome"	"S55_LN:i:5060_dp:f:0.9814810395847172"	5060
1	0	"Chromosome"	"S56_LN:i:4983_dp:f:0.7629430126620435"	4983
1	0	"Chromosome"	"S57_LN:i:4734_dp:f:1.0540453860204229"	4734
1	0	"Chromosome"	"S58_LN:i:4568_dp:f:1.1953995196817948"	4568
1	0	"Chromosome"	"S59_LN:i:4113_dp:f:0.9827324695239532"	4113
1	0	"Chromosome"	"S6_LN:i:186501_dp:f:0.9853025169930084"	186501
1	0	"Chromosome"	"S60_LN:i:3892_dp:f:0.9514262954319"	3892
0.67	0.33	"Chromosome"	"S61_LN:i:3545_dp:f:0.9149351795378025"	3545
1	0	"Chromosome"	"S62_LN:i:3063_dp:f:1.019331493570287"	3063
1	0	"Chromosome"	"S63_LN:i:3031_dp:f:7.162503936226165"	3031
1	0	"Chromosome"	"S64_LN:i:2916_dp:f:2.0197262194822136"	2916
1	0	"Chromosome"	"S65_LN:i:2631_dp:f:0.8001250077762156"	2631
0.5	0.5	"Plasmid"	"S66_LN:i:2533_dp:f:2.1130121726878803"	2533
1	0	"Chromosome"	"S67_LN:i:2261_dp:f:0.9131268685479917"	2261
1	0	"Chromosome"	"S68_LN:i:1962_dp:f:0.929116489994243"	1962
0.67	0.33	"Chromosome"	"S69_LN:i:1956_dp:f:2.937003548783956"	1956
1	0	"Chromosome"	"S7_LN:i:173975_dp:f:1.001444906951968"	173975
1	0	"Chromosome"	"S70_LN:i:1870_dp:f:0.8516742107991027"	1870
1	0	"Chromosome"	"S71_LN:i:1788_dp:f:1.2357315487311538"	1788
1	0	"Chromosome"	"S72_LN:i:1753_dp:f:0.8620911162690228"	1753
1	0	"Chromosome"	"S73_LN:i:1348_dp:f:2.0440228549700765"	1348
0.5	0.5	"Plasmid"	"S74_LN:i:1331_dp:f:9.128875295941915"	1331
1	0	"Chromosome"	"S75_LN:i:1283_dp:f:7.254783254388802"	1283
1	0	"Chromosome"	"S76_LN:i:1133_dp:f:2.0253708351719966"	1133
1	0	"Chromosome"	"S77_LN:i:1031_dp:f:1.9448725252448644"	1031
1	0	"Chromosome"	"S78_LN:i:950_dp:f:0.9562033498861497"	950
1	0	"Chromosome"	"S79_LN:i:884_dp:f:1.7738678245814148"	884
1	0	"Chromosome"	"S8_LN:i:170508_dp:f:1.0289440091767328"	170508
1	0	"Chromosome"	"S80_LN:i:779_dp:f:2.255085967413769"	779
1	0	"Chromosome"	"S81_LN:i:765_dp:f:4.061750606099744"	765
1	0	"Chromosome"	"S82_LN:i:682_dp:f:1.1252842157399134"	682
1	0	"Chromosome"	"S83_LN:i:641_dp:f:25.75019602533229"	641
1	0	"Chromosome"	"S84_LN:i:630_dp:f:1.8887570054866785"	630
1	0	"Chromosome"	"S85_LN:i:565_dp:f:2.806856358236944"	565
1	0	"Chromosome"	"S86_LN:i:523_dp:f:1.0718949878323112"	523
1	0	"Chromosome"	"S87_LN:i:522_dp:f:2.276546332999403"	522
1	0	"Chromosome"	"S88_LN:i:522_dp:f:0.9875003461223305"	522
1	0	"Chromosome"	"S9_LN:i:158596_dp:f:0.9726545979554315"	158596
