"Prob_Chromosome"	"Prob_Plasmid"	"Prediction"	"Contig_name"	"Contig_length"
1	0	"Chromosome"	"S1_LN:i:559804_dp:f:0.8884083687088166"	559804
1	0	"Chromosome"	"S10_LN:i:173911_dp:f:1.1020119805261561"	173911
1	0	"Chromosome"	"S11_LN:i:167029_dp:f:1.1157385908348327"	167029
1	0	"Chromosome"	"S12_LN:i:130503_dp:f:1.2526715638423522"	130503
1	0	"Chromosome"	"S13_LN:i:127382_dp:f:1.0873152236330985"	127382
1	0	"Chromosome"	"S14_LN:i:123012_dp:f:0.9762355806520343"	123012
1	0	"Chromosome"	"S15_LN:i:110280_dp:f:1.0710184200724984"	110280
1	0	"Chromosome"	"S16_LN:i:94960_dp:f:0.9829902819956975"	94960
1	0	"Chromosome"	"S17_LN:i:68093_dp:f:1.126115881715882"	68093
1	0	"Chromosome"	"S18_LN:i:67736_dp:f:0.9375463188693495"	67736
1	0	"Chromosome"	"S19_LN:i:66056_dp:f:0.9689453318988468"	66056
1	0	"Chromosome"	"S2_LN:i:450618_dp:f:0.8833393898491606"	450618
1	0	"Chromosome"	"S20_LN:i:61873_dp:f:0.9706452975921454"	61873
0	1	"Plasmid"	"S21_LN:i:61316_dp:f:0.5805581629597978"	61316
1	0	"Chromosome"	"S22_LN:i:50362_dp:f:0.8823235940639491"	50362
1	0	"Chromosome"	"S23_LN:i:41213_dp:f:1.1097691095412694"	41213
1	0	"Chromosome"	"S24_LN:i:39079_dp:f:0.9852945199608505"	39079
1	0	"Chromosome"	"S25_LN:i:32629_dp:f:1.0822061113911934"	32629
1	0	"Chromosome"	"S26_LN:i:32529_dp:f:0.9582699005608873"	32529
1	0	"Chromosome"	"S27_LN:i:31044_dp:f:0.878710555327877"	31044
1	0	"Chromosome"	"S28_LN:i:30726_dp:f:0.908173734886395"	30726
0.67	0.33	"Chromosome"	"S29_LN:i:30326_dp:f:0.997471700663232"	30326
1	0	"Chromosome"	"S3_LN:i:369706_dp:f:1.0297505158084128"	369706
1	0	"Chromosome"	"S30_LN:i:29665_dp:f:1.120238019784535"	29665
1	0	"Chromosome"	"S31_LN:i:28878_dp:f:0.888793154639677"	28878
1	0	"Chromosome"	"S32_LN:i:27328_dp:f:0.90309460793472"	27328
1	0	"Chromosome"	"S33_LN:i:27255_dp:f:1.0854392642240145"	27255
1	0	"Chromosome"	"S34_LN:i:24277_dp:f:1.0703794528352963"	24277
1	0	"Chromosome"	"S35_LN:i:17618_dp:f:1.108625201216128"	17618
1	0	"Chromosome"	"S36_LN:i:17540_dp:f:1.0267968955930487"	17540
1	0	"Chromosome"	"S37_LN:i:15150_dp:f:1.071238907493017"	15150
1	0	"Chromosome"	"S38_LN:i:13972_dp:f:1.069600129468446"	13972
1	0	"Chromosome"	"S39_LN:i:13857_dp:f:1.1902240276368734"	13857
1	0	"Chromosome"	"S4_LN:i:362777_dp:f:0.9467716446939207"	362777
0.67	0.33	"Chromosome"	"S40_LN:i:12925_dp:f:2.0246928334879195"	12925
1	0	"Chromosome"	"S41_LN:i:10382_dp:f:1.157018119092467"	10382
1	0	"Chromosome"	"S42_LN:i:9187_dp:f:1.04214190124111"	9187
1	0	"Chromosome"	"S43_LN:i:7427_dp:f:0.9292634314192136"	7427
0.67	0.33	"Chromosome"	"S44_LN:i:5925_dp:f:1.03063635481148"	5925
1	0	"Chromosome"	"S45_LN:i:5171_dp:f:2.69638993476729"	5171
0	1	"Plasmid"	"S46_LN:i:4574_dp:f:0.7207796027544633"	4574
1	0	"Chromosome"	"S47_LN:i:4562_dp:f:1.160107259510138"	4562
1	0	"Chromosome"	"S48_LN:i:4477_dp:f:1.1870493445546955"	4477
1	0	"Chromosome"	"S49_LN:i:4110_dp:f:1.0886793265707613"	4110
1	0	"Chromosome"	"S5_LN:i:341497_dp:f:1.0771191920909668"	341497
1	0	"Chromosome"	"S50_LN:i:3226_dp:f:1.1195028555276576"	3226
1	0	"Chromosome"	"S51_LN:i:3030_dp:f:7.198372834603646"	3030
1	0	"Chromosome"	"S52_LN:i:2630_dp:f:1.214272004423137"	2630
0.67	0.33	"Chromosome"	"S53_LN:i:2414_dp:f:2.3203213126244573"	2414
1	0	"Chromosome"	"S54_LN:i:2103_dp:f:1.098952570444381"	2103
1	0	"Chromosome"	"S55_LN:i:2054_dp:f:1.9443777954434454"	2054
1	0	"Chromosome"	"S56_LN:i:1975_dp:f:2.1241054339326357"	1975
1	0	"Chromosome"	"S57_LN:i:1673_dp:f:7.271599696157883"	1673
1	0	"Chromosome"	"S58_LN:i:1595_dp:f:1.1801528195565145"	1595
1	0	"Chromosome"	"S59_LN:i:1388_dp:f:1.1420241651418637"	1388
1	0	"Chromosome"	"S6_LN:i:339678_dp:f:1.0559600567384215"	339678
1	0	"Chromosome"	"S60_LN:i:1303_dp:f:2.2635429918506405"	1303
1	0	"Chromosome"	"S61_LN:i:1276_dp:f:1.7796283001784472"	1276
1	0	"Chromosome"	"S62_LN:i:1095_dp:f:5.588548767253542"	1095
1	0	"Chromosome"	"S63_LN:i:1031_dp:f:2.389772034180443"	1031
0.33	0.67	"Plasmid"	"S64_LN:i:910_dp:f:0.4991992453933826"	910
1	0	"Chromosome"	"S65_LN:i:901_dp:f:1.513139473114792"	901
1	0	"Chromosome"	"S66_LN:i:888_dp:f:1.963658320398226"	888
1	0	"Chromosome"	"S67_LN:i:872_dp:f:3.514304771981018"	872
1	0	"Chromosome"	"S68_LN:i:858_dp:f:2.0218708604722035"	858
1	0	"Chromosome"	"S69_LN:i:841_dp:f:2.8496522813911613"	841
1	0	"Chromosome"	"S7_LN:i:252849_dp:f:1.0"	252849
1	0	"Chromosome"	"S70_LN:i:814_dp:f:1.8596513576028673"	814
1	0	"Chromosome"	"S71_LN:i:695_dp:f:2.9823490155026593"	695
1	0	"Chromosome"	"S72_LN:i:686_dp:f:0.8466102700126859"	686
1	0	"Chromosome"	"S73_LN:i:673_dp:f:2.7283170386191835"	673
1	0	"Chromosome"	"S74_LN:i:663_dp:f:0.9816326307985493"	663
1	0	"Chromosome"	"S75_LN:i:612_dp:f:1.8103062876013938"	612
1	0	"Chromosome"	"S76_LN:i:603_dp:f:0.7921335491324882"	603
1	0	"Chromosome"	"S77_LN:i:547_dp:f:1.4267958534195146"	547
1	0	"Chromosome"	"S78_LN:i:540_dp:f:2.418968024911629"	540
1	0	"Chromosome"	"S79_LN:i:539_dp:f:2.1774709162032884"	539
1	0	"Chromosome"	"S8_LN:i:202999_dp:f:1.0858795852314835"	202999
1	0	"Chromosome"	"S80_LN:i:520_dp:f:1.1441996244365615"	520
1	0	"Chromosome"	"S81_LN:i:513_dp:f:0.834580654657971"	513
1	0	"Chromosome"	"S82_LN:i:513_dp:f:0.9681421457489375"	513
1	0	"Chromosome"	"S9_LN:i:196946_dp:f:0.9041865812570398"	196946
