"Prob_Chromosome"	"Prob_Plasmid"	"Prediction"	"Contig_name"	"Contig_length"
1	0	"Chromosome"	"S1_LN:i:312495_dp:f:1.0"	312495
1	0	"Chromosome"	"S10_LN:i:171417_dp:f:1.0001209750890752"	171417
1	0	"Chromosome"	"S100_LN:i:979_dp:f:1.0009392544859317"	979
1	0	"Chromosome"	"S101_LN:i:976_dp:f:0.9161627115895865"	976
1	0	"Chromosome"	"S102_LN:i:909_dp:f:1.9190796167277282"	909
0.5	0.5	"Plasmid"	"S103_LN:i:902_dp:f:3.032595454752086"	902
0.67	0.33	"Chromosome"	"S104_LN:i:899_dp:f:6.995262224668951"	899
1	0	"Chromosome"	"S105_LN:i:841_dp:f:2.0895354082396507"	841
0.67	0.33	"Chromosome"	"S106_LN:i:841_dp:f:2.0817465213418576"	841
1	0	"Chromosome"	"S107_LN:i:808_dp:f:12.554577836619872"	808
1	0	"Chromosome"	"S108_LN:i:800_dp:f:0.9652960141806562"	800
1	0	"Chromosome"	"S109_LN:i:798_dp:f:4.439296652759367"	798
1	0	"Chromosome"	"S11_LN:i:167145_dp:f:1.0474874945765102"	167145
1	0	"Chromosome"	"S110_LN:i:798_dp:f:0.7754178399700935"	798
1	0	"Chromosome"	"S111_LN:i:732_dp:f:0.8337928672268878"	732
1	0	"Chromosome"	"S112_LN:i:709_dp:f:0.8605779595954466"	709
1	0	"Chromosome"	"S113_LN:i:627_dp:f:3.4420372316620074"	627
1	0	"Chromosome"	"S114_LN:i:597_dp:f:0.9649995330807314"	597
1	0	"Chromosome"	"S115_LN:i:597_dp:f:0.9446195003536744"	597
1	0	"Chromosome"	"S116_LN:i:560_dp:f:0.9911030748805048"	560
1	0	"Chromosome"	"S12_LN:i:130530_dp:f:1.061096670539621"	130530
1	0	"Chromosome"	"S13_LN:i:125453_dp:f:1.0635385058728712"	125453
1	0	"Chromosome"	"S14_LN:i:115819_dp:f:0.9558089634614886"	115819
1	0	"Chromosome"	"S15_LN:i:112961_dp:f:1.0206758488487189"	112961
1	0	"Chromosome"	"S16_LN:i:109394_dp:f:1.062683854894273"	109394
1	0	"Chromosome"	"S17_LN:i:104859_dp:f:1.0411178977675168"	104859
1	0	"Chromosome"	"S18_LN:i:98889_dp:f:1.0029723087518956"	98889
1	0	"Chromosome"	"S19_LN:i:95328_dp:f:1.0165984974296192"	95328
1	0	"Chromosome"	"S2_LN:i:212823_dp:f:1.038361381390756"	212823
1	0	"Chromosome"	"S20_LN:i:90594_dp:f:1.0593641803668792"	90594
1	0	"Chromosome"	"S21_LN:i:90545_dp:f:0.9777740198905659"	90545
1	0	"Chromosome"	"S22_LN:i:89162_dp:f:0.9989324119124504"	89162
1	0	"Chromosome"	"S23_LN:i:88119_dp:f:1.059921941688815"	88119
1	0	"Chromosome"	"S24_LN:i:86560_dp:f:1.0139835042734848"	86560
1	0	"Chromosome"	"S25_LN:i:77285_dp:f:1.043888480346733"	77285
1	0	"Chromosome"	"S26_LN:i:75405_dp:f:1.0621585252923538"	75405
1	0	"Chromosome"	"S27_LN:i:71824_dp:f:1.0443936579606443"	71824
1	0	"Chromosome"	"S28_LN:i:70717_dp:f:0.9577416596789111"	70717
1	0	"Chromosome"	"S29_LN:i:57007_dp:f:1.0341759110837032"	57007
1	0	"Chromosome"	"S3_LN:i:209774_dp:f:0.9633816327329618"	209774
1	0	"Chromosome"	"S30_LN:i:51629_dp:f:1.0006937561932752"	51629
1	0	"Chromosome"	"S31_LN:i:48852_dp:f:1.014002967304638"	48852
0	1	"Plasmid"	"S32_LN:i:48811_dp:f:1.3855415531857473"	48811
1	0	"Chromosome"	"S33_LN:i:48512_dp:f:0.9523389577310585"	48512
1	0	"Chromosome"	"S34_LN:i:45900_dp:f:0.969874228678269"	45900
1	0	"Chromosome"	"S35_LN:i:43206_dp:f:1.0392451982095483"	43206
0	1	"Plasmid"	"S36_LN:i:41460_dp:f:1.3655572113457317"	41460
1	0	"Chromosome"	"S37_LN:i:41164_dp:f:1.065425386459438"	41164
1	0	"Chromosome"	"S38_LN:i:40576_dp:f:0.9798143352473091"	40576
1	0	"Chromosome"	"S39_LN:i:39529_dp:f:1.0366884219076598"	39529
1	0	"Chromosome"	"S4_LN:i:203644_dp:f:1.0037102394367043"	203644
1	0	"Chromosome"	"S40_LN:i:39449_dp:f:1.0670887005465648"	39449
1	0	"Chromosome"	"S41_LN:i:37836_dp:f:1.0484486857698216"	37836
1	0	"Chromosome"	"S42_LN:i:37788_dp:f:0.9602365208694332"	37788
1	0	"Chromosome"	"S43_LN:i:32562_dp:f:0.9691833859899301"	32562
1	0	"Chromosome"	"S44_LN:i:30733_dp:f:1.0926641569169988"	30733
1	0	"Chromosome"	"S45_LN:i:24614_dp:f:1.0392560506518689"	24614
1	0	"Chromosome"	"S46_LN:i:24164_dp:f:1.0359268949306257"	24164
1	0	"Chromosome"	"S47_LN:i:19588_dp:f:1.0244966414019974"	19588
1	0	"Chromosome"	"S48_LN:i:18851_dp:f:0.9003678570815833"	18851
1	0	"Chromosome"	"S49_LN:i:16725_dp:f:3.0290158465315806"	16725
1	0	"Chromosome"	"S5_LN:i:198732_dp:f:1.0343043441240851"	198732
1	0	"Chromosome"	"S50_LN:i:16448_dp:f:1.0280030299023284"	16448
1	0	"Chromosome"	"S51_LN:i:14354_dp:f:0.9675166943634588"	14354
1	0	"Chromosome"	"S52_LN:i:13251_dp:f:1.0433832453197502"	13251
1	0	"Chromosome"	"S53_LN:i:12856_dp:f:1.0892515813750867"	12856
1	0	"Chromosome"	"S54_LN:i:12704_dp:f:0.92974980196579"	12704
1	0	"Chromosome"	"S55_LN:i:12521_dp:f:0.9529489313172678"	12521
1	0	"Chromosome"	"S56_LN:i:12086_dp:f:0.9598699568936044"	12086
1	0	"Chromosome"	"S57_LN:i:11560_dp:f:0.9678827885265572"	11560
1	0	"Chromosome"	"S58_LN:i:11448_dp:f:0.9706684423226909"	11448
1	0	"Chromosome"	"S59_LN:i:8743_dp:f:0.9352133446518953"	8743
1	0	"Chromosome"	"S6_LN:i:190552_dp:f:0.9567782144365367"	190552
1	0	"Chromosome"	"S60_LN:i:8289_dp:f:1.0704504655204221"	8289
0	1	"Plasmid"	"S61_LN:i:7868_dp:f:3.1663362761577467"	7868
1	0	"Chromosome"	"S62_LN:i:7611_dp:f:1.009986234013983"	7611
1	0	"Chromosome"	"S63_LN:i:7427_dp:f:1.0471115927535264"	7427
1	0	"Chromosome"	"S64_LN:i:7394_dp:f:0.9460599368982164"	7394
0.33	0.67	"Plasmid"	"S65_LN:i:6603_dp:f:2.531955884818226"	6603
1	0	"Chromosome"	"S66_LN:i:6219_dp:f:1.0592227653071564"	6219
0	1	"Plasmid"	"S67_LN:i:6200_dp:f:24.8812230819707"	6200
0.5	0.5	"Plasmid"	"S68_LN:i:5588_dp:f:1.0210944576259813"	5588
1	0	"Chromosome"	"S69_LN:i:4877_dp:f:1.0823741843964272"	4877
1	0	"Chromosome"	"S7_LN:i:189642_dp:f:1.0182199371174636"	189642
0.33	0.67	"Plasmid"	"S70_LN:i:4497_dp:f:3.0543207331515556"	4497
0	1	"Plasmid"	"S71_LN:i:4298_dp:f:3.087370050897845"	4298
0	1	"Plasmid"	"S72_LN:i:4197_dp:f:41.75302337308723"	4197
1	0	"Chromosome"	"S73_LN:i:4113_dp:f:1.0868673313522985"	4113
1	0	"Chromosome"	"S74_LN:i:3833_dp:f:1.0458489070775683"	3833
1	0	"Chromosome"	"S75_LN:i:3767_dp:f:0.9701643555571332"	3767
1	0	"Chromosome"	"S76_LN:i:3671_dp:f:1.967142911909948"	3671
1	0	"Chromosome"	"S77_LN:i:3065_dp:f:0.8859677995065358"	3065
1	0	"Chromosome"	"S78_LN:i:3030_dp:f:7.292745584578573"	3030
1	0	"Chromosome"	"S79_LN:i:2594_dp:f:0.9750713359305601"	2594
1	0	"Chromosome"	"S8_LN:i:187442_dp:f:0.9953599589031977"	187442
0.5	0.5	"Plasmid"	"S80_LN:i:2543_dp:f:2.1039418979687063"	2543
1	0	"Chromosome"	"S81_LN:i:2085_dp:f:1.7048281010325224"	2085
0.5	0.5	"Plasmid"	"S82_LN:i:2081_dp:f:2.83282879762819"	2081
0.33	0.67	"Plasmid"	"S83_LN:i:2050_dp:f:1.3247926676720607"	2050
0.67	0.33	"Chromosome"	"S84_LN:i:1867_dp:f:1.057477350528145"	1867
1	0	"Chromosome"	"S85_LN:i:1760_dp:f:1.872235660352674"	1760
1	0	"Chromosome"	"S86_LN:i:1730_dp:f:0.870471207793694"	1730
1	0	"Chromosome"	"S87_LN:i:1649_dp:f:3.72215503215045"	1649
1	0	"Chromosome"	"S88_LN:i:1443_dp:f:3.901296732385346"	1443
0.5	0.5	"Plasmid"	"S89_LN:i:1339_dp:f:6.191822557362545"	1339
1	0	"Chromosome"	"S9_LN:i:181683_dp:f:0.967792162279307"	181683
1	0	"Chromosome"	"S90_LN:i:1333_dp:f:0.9838977918519479"	1333
1	0	"Chromosome"	"S91_LN:i:1313_dp:f:7.332414055309049"	1313
0.67	0.33	"Chromosome"	"S92_LN:i:1196_dp:f:3.0022363986983374"	1196
1	0	"Chromosome"	"S93_LN:i:1160_dp:f:9.134236200799497"	1160
1	0	"Chromosome"	"S94_LN:i:1133_dp:f:1.9915373239917387"	1133
1	0	"Chromosome"	"S95_LN:i:1120_dp:f:1.8877510261398136"	1120
0	1	"Plasmid"	"S96_LN:i:1100_dp:f:6.41928883966691"	1100
1	0	"Chromosome"	"S97_LN:i:1069_dp:f:3.068490968092426"	1069
1	0	"Chromosome"	"S98_LN:i:1031_dp:f:2.319068905587373"	1031
1	0	"Chromosome"	"S99_LN:i:990_dp:f:1.038279854829584"	990
