"Prob_Chromosome"	"Prob_Plasmid"	"Prediction"	"Contig_name"	"Contig_length"
1	0	"Chromosome"	"S1_LN:i:285309_dp:f:1.037641730540094"	285309
1	0	"Chromosome"	"S10_LN:i:140723_dp:f:0.9298824406037791"	140723
1	0	"Chromosome"	"S100_LN:i:2708_dp:f:2.9863084681163095"	2708
1	0	"Chromosome"	"S101_LN:i:2675_dp:f:0.8711955604351317"	2675
1	0	"Chromosome"	"S102_LN:i:2513_dp:f:1.1716763347365426"	2513
0	1	"Plasmid"	"S103_LN:i:2491_dp:f:1.9067990486124904"	2491
1	0	"Chromosome"	"S104_LN:i:2403_dp:f:0.9100964475216832"	2403
1	0	"Chromosome"	"S105_LN:i:2182_dp:f:8.237663839796149"	2182
1	0	"Chromosome"	"S106_LN:i:2129_dp:f:1.599602444680058"	2129
1	0	"Chromosome"	"S107_LN:i:2116_dp:f:2.165995883359208"	2116
1	0	"Chromosome"	"S108_LN:i:2111_dp:f:1.9679713480528929"	2111
0	1	"Plasmid"	"S109_LN:i:2069_dp:f:1.8772830366184075"	2069
1	0	"Chromosome"	"S11_LN:i:129913_dp:f:0.946440333659625"	129913
1	0	"Chromosome"	"S110_LN:i:2023_dp:f:1.7244976205128324"	2023
1	0	"Chromosome"	"S111_LN:i:1994_dp:f:0.8180794533534199"	1994
1	0	"Chromosome"	"S112_LN:i:1990_dp:f:0.9038418942208805"	1990
1	0	"Chromosome"	"S113_LN:i:1911_dp:f:1.1530802827464894"	1911
1	0	"Chromosome"	"S114_LN:i:1876_dp:f:1.0444530976474589"	1876
1	0	"Chromosome"	"S115_LN:i:1858_dp:f:2.059783358328346"	1858
1	0	"Chromosome"	"S116_LN:i:1791_dp:f:1.8081027665083833"	1791
1	0	"Chromosome"	"S117_LN:i:1732_dp:f:8.035856571610754"	1732
0	1	"Plasmid"	"S118_LN:i:1611_dp:f:3.957064546775051"	1611
0	1	"Plasmid"	"S119_LN:i:1565_dp:f:30.33301346742832"	1565
1	0	"Chromosome"	"S12_LN:i:119487_dp:f:0.9524474999315989"	119487
1	0	"Chromosome"	"S120_LN:i:1492_dp:f:1.1451196994806596"	1492
1	0	"Chromosome"	"S121_LN:i:1467_dp:f:1.9119452539214408"	1467
0.33	0.67	"Plasmid"	"S122_LN:i:1460_dp:f:0.8974360015706446"	1460
1	0	"Chromosome"	"S123_LN:i:1435_dp:f:0.9008891917649051"	1435
1	0	"Chromosome"	"S124_LN:i:1434_dp:f:2.996821714047303"	1434
1	0	"Chromosome"	"S125_LN:i:1432_dp:f:3.3034500862768748"	1432
1	0	"Chromosome"	"S126_LN:i:1384_dp:f:1.8726618470349161"	1384
1	0	"Chromosome"	"S127_LN:i:1258_dp:f:3.3147164415283386"	1258
1	0	"Chromosome"	"S128_LN:i:1235_dp:f:10.48132333968642"	1235
1	0	"Chromosome"	"S129_LN:i:1226_dp:f:0.9570055249729793"	1226
1	0	"Chromosome"	"S13_LN:i:114160_dp:f:1.044516992087745"	114160
1	0	"Chromosome"	"S130_LN:i:1201_dp:f:2.9830747783786964"	1201
1	0	"Chromosome"	"S131_LN:i:1183_dp:f:1.2197123119033235"	1183
1	0	"Chromosome"	"S132_LN:i:1171_dp:f:0.9366748576233227"	1171
1	0	"Chromosome"	"S133_LN:i:1151_dp:f:2.074795821335184"	1151
1	0	"Chromosome"	"S134_LN:i:1141_dp:f:2.687566928333991"	1141
1	0	"Chromosome"	"S135_LN:i:1125_dp:f:1.785938976955397"	1125
1	0	"Chromosome"	"S136_LN:i:1117_dp:f:0.8524598490895373"	1117
1	0	"Chromosome"	"S137_LN:i:1050_dp:f:3.6725725995413465"	1050
1	0	"Chromosome"	"S138_LN:i:1045_dp:f:0.9438152550323291"	1045
1	0	"Chromosome"	"S139_LN:i:982_dp:f:0.8021626251052062"	982
1	0	"Chromosome"	"S14_LN:i:114133_dp:f:1.0678590427388819"	114133
1	0	"Chromosome"	"S140_LN:i:959_dp:f:1.9968698220841838"	959
1	0	"Chromosome"	"S141_LN:i:956_dp:f:2.2623320558403184"	956
1	0	"Chromosome"	"S142_LN:i:947_dp:f:1.0075121017240263"	947
1	0	"Chromosome"	"S143_LN:i:944_dp:f:1.9567410339254399"	944
1	0	"Chromosome"	"S144_LN:i:919_dp:f:0.9169959867709245"	919
1	0	"Chromosome"	"S145_LN:i:892_dp:f:0.8503323382020536"	892
1	0	"Chromosome"	"S146_LN:i:889_dp:f:0.8605620105670475"	889
1	0	"Chromosome"	"S147_LN:i:887_dp:f:2.0696861577214105"	887
1	0	"Chromosome"	"S148_LN:i:887_dp:f:1.032736550247964"	887
1	0	"Chromosome"	"S149_LN:i:887_dp:f:0.8894106777672404"	887
1	0	"Chromosome"	"S15_LN:i:106630_dp:f:1.155638952265655"	106630
1	0	"Chromosome"	"S150_LN:i:872_dp:f:0.8993411754315355"	872
1	0	"Chromosome"	"S151_LN:i:856_dp:f:1.904436352705132"	856
1	0	"Chromosome"	"S152_LN:i:837_dp:f:0.9255756931415743"	837
1	0	"Chromosome"	"S153_LN:i:833_dp:f:1.8893085080443435"	833
1	0	"Chromosome"	"S154_LN:i:808_dp:f:1.9036650559656008"	808
1	0	"Chromosome"	"S155_LN:i:797_dp:f:7.949742562927136"	797
1	0	"Chromosome"	"S156_LN:i:795_dp:f:0.8191740356381848"	795
1	0	"Chromosome"	"S157_LN:i:789_dp:f:0.9122951229433821"	789
1	0	"Chromosome"	"S158_LN:i:783_dp:f:1.0811193398048182"	783
1	0	"Chromosome"	"S159_LN:i:776_dp:f:2.967418664279865"	776
1	0	"Chromosome"	"S16_LN:i:95815_dp:f:0.8954962048707158"	95815
1	0	"Chromosome"	"S160_LN:i:772_dp:f:1.6997430414574763"	772
0.5	0.5	"Plasmid"	"S161_LN:i:771_dp:f:3.6073769593476834"	771
0.67	0.33	"Chromosome"	"S162_LN:i:764_dp:f:2.16822634505"	764
1	0	"Chromosome"	"S163_LN:i:715_dp:f:1.8504797866343412"	715
0.67	0.33	"Chromosome"	"S164_LN:i:714_dp:f:1.8147936510095917"	714
1	0	"Chromosome"	"S165_LN:i:713_dp:f:0.8999356036921262"	713
1	0	"Chromosome"	"S166_LN:i:697_dp:f:0.7081299977052421"	697
1	0	"Chromosome"	"S167_LN:i:694_dp:f:0.8626367111964324"	694
1	0	"Chromosome"	"S168_LN:i:694_dp:f:1.1553987615341126"	694
0.67	0.33	"Chromosome"	"S169_LN:i:688_dp:f:0.854349088101618"	688
1	0	"Chromosome"	"S17_LN:i:92771_dp:f:0.9439022709868268"	92771
1	0	"Chromosome"	"S170_LN:i:682_dp:f:2.5745592331421676"	682
1	0	"Chromosome"	"S171_LN:i:674_dp:f:1.013953451498578"	674
0.67	0.33	"Chromosome"	"S172_LN:i:671_dp:f:0.8023584318599579"	671
0.67	0.33	"Chromosome"	"S173_LN:i:670_dp:f:1.7234577673423055"	670
1	0	"Chromosome"	"S174_LN:i:659_dp:f:4.028719724162326"	659
1	0	"Chromosome"	"S175_LN:i:657_dp:f:0.741917967465436"	657
1	0	"Chromosome"	"S176_LN:i:657_dp:f:0.8168333648621664"	657
1	0	"Chromosome"	"S177_LN:i:652_dp:f:0.7246179776547896"	652
1	0	"Chromosome"	"S178_LN:i:652_dp:f:1.062508854679455"	652
1	0	"Chromosome"	"S179_LN:i:646_dp:f:1.511916058532951"	646
1	0	"Chromosome"	"S18_LN:i:89048_dp:f:1.162023854135733"	89048
1	0	"Chromosome"	"S180_LN:i:634_dp:f:1.5074729054277896"	634
1	0	"Chromosome"	"S181_LN:i:606_dp:f:0.7820428344833735"	606
1	0	"Chromosome"	"S182_LN:i:605_dp:f:2.9116207471719515"	605
1	0	"Chromosome"	"S183_LN:i:592_dp:f:0.7964581160882034"	592
1	0	"Chromosome"	"S184_LN:i:585_dp:f:0.7236721484350961"	585
1	0	"Chromosome"	"S185_LN:i:584_dp:f:0.7980273232676348"	584
0.67	0.33	"Chromosome"	"S186_LN:i:584_dp:f:2.4902593777956072"	584
1	0	"Chromosome"	"S187_LN:i:583_dp:f:0.9416848241463722"	583
1	0	"Chromosome"	"S188_LN:i:582_dp:f:0.8658210112455866"	582
1	0	"Chromosome"	"S189_LN:i:579_dp:f:0.7534564665745908"	579
1	0	"Chromosome"	"S19_LN:i:87854_dp:f:1.1562524022305845"	87854
1	0	"Chromosome"	"S190_LN:i:575_dp:f:0.8683935299003672"	575
1	0	"Chromosome"	"S191_LN:i:575_dp:f:0.9702429097842301"	575
1	0	"Chromosome"	"S192_LN:i:574_dp:f:1.866448006855681"	574
1	0	"Chromosome"	"S193_LN:i:571_dp:f:0.8661921013372507"	571
1	0	"Chromosome"	"S194_LN:i:558_dp:f:1.812652207557965"	558
1	0	"Chromosome"	"S195_LN:i:553_dp:f:1.69678241329136"	553
1	0	"Chromosome"	"S196_LN:i:548_dp:f:0.951826813128646"	548
1	0	"Chromosome"	"S197_LN:i:548_dp:f:0.8719826251664176"	548
1	0	"Chromosome"	"S198_LN:i:542_dp:f:2.319514135652998"	542
0.67	0.33	"Chromosome"	"S199_LN:i:538_dp:f:1.0673833332733538"	538
1	0	"Chromosome"	"S2_LN:i:259417_dp:f:0.984387799530453"	259417
1	0	"Chromosome"	"S20_LN:i:83259_dp:f:0.8909553554515894"	83259
1	0	"Chromosome"	"S200_LN:i:538_dp:f:1.246911513680339"	538
1	0	"Chromosome"	"S201_LN:i:533_dp:f:1.166356097518597"	533
1	0	"Chromosome"	"S202_LN:i:533_dp:f:0.8890194814003758"	533
1	0	"Chromosome"	"S203_LN:i:525_dp:f:0.880861923380405"	525
1	0	"Chromosome"	"S204_LN:i:524_dp:f:1.5782071987251851"	524
1	0	"Chromosome"	"S205_LN:i:523_dp:f:2.2671070042005494"	523
1	0	"Chromosome"	"S206_LN:i:504_dp:f:1.095809268123173"	504
1	0	"Chromosome"	"S207_LN:i:504_dp:f:0.7078864698325875"	504
1	0	"Chromosome"	"S21_LN:i:76905_dp:f:0.9868056917526815"	76905
0	1	"Plasmid"	"S22_LN:i:75350_dp:f:1.7267336488041145"	75350
1	0	"Chromosome"	"S23_LN:i:68681_dp:f:0.9266952237116353"	68681
1	0	"Chromosome"	"S24_LN:i:68275_dp:f:1.0331330174160103"	68275
1	0	"Chromosome"	"S25_LN:i:65919_dp:f:1.095041642238865"	65919
1	0	"Chromosome"	"S26_LN:i:64337_dp:f:0.906377850345453"	64337
1	0	"Chromosome"	"S27_LN:i:63019_dp:f:1.1049313433530648"	63019
1	0	"Chromosome"	"S28_LN:i:59501_dp:f:1.0657435455594015"	59501
1	0	"Chromosome"	"S29_LN:i:59043_dp:f:0.993763747770447"	59043
1	0	"Chromosome"	"S3_LN:i:238544_dp:f:0.907360579733459"	238544
1	0	"Chromosome"	"S30_LN:i:58881_dp:f:1.1178505845973457"	58881
1	0	"Chromosome"	"S31_LN:i:56236_dp:f:0.9223454239736013"	56236
1	0	"Chromosome"	"S32_LN:i:53877_dp:f:1.065017296074578"	53877
1	0	"Chromosome"	"S33_LN:i:53305_dp:f:1.0575637955510355"	53305
1	0	"Chromosome"	"S34_LN:i:53296_dp:f:0.9534151254409442"	53296
1	0	"Chromosome"	"S35_LN:i:52480_dp:f:1.155161907943682"	52480
1	0	"Chromosome"	"S36_LN:i:52357_dp:f:1.1426502150577147"	52357
1	0	"Chromosome"	"S37_LN:i:47809_dp:f:0.8932998262007639"	47809
1	0	"Chromosome"	"S38_LN:i:46945_dp:f:0.9927449185889266"	46945
0.67	0.33	"Chromosome"	"S39_LN:i:42307_dp:f:1.1444424582355954"	42307
1	0	"Chromosome"	"S4_LN:i:236281_dp:f:0.8988606908262727"	236281
1	0	"Chromosome"	"S40_LN:i:41847_dp:f:1.112401533732473"	41847
1	0	"Chromosome"	"S41_LN:i:41552_dp:f:0.8859998692651031"	41552
1	0	"Chromosome"	"S42_LN:i:38536_dp:f:1.119131879927332"	38536
1	0	"Chromosome"	"S43_LN:i:38088_dp:f:0.8537134461482931"	38088
1	0	"Chromosome"	"S44_LN:i:34063_dp:f:1.1491111705363"	34063
1	0	"Chromosome"	"S45_LN:i:33055_dp:f:1.0258457709941418"	33055
1	0	"Chromosome"	"S46_LN:i:32641_dp:f:1.0332192677098275"	32641
1	0	"Chromosome"	"S47_LN:i:31679_dp:f:1.1384778436915914"	31679
1	0	"Chromosome"	"S48_LN:i:31230_dp:f:1.0366009946044927"	31230
1	0	"Chromosome"	"S49_LN:i:30712_dp:f:1.141230511800105"	30712
1	0	"Chromosome"	"S5_LN:i:227913_dp:f:1.0"	227913
1	0	"Chromosome"	"S5_LN:i:227913_dp:f:1.0"	227913
1	0	"Chromosome"	"S5_LN:i:227913_dp:f:1.0"	227913
1	0	"Chromosome"	"S5_LN:i:227913_dp:f:1.0"	227913
1	0	"Chromosome"	"S50_LN:i:29967_dp:f:1.0322277196568983"	29967
1	0	"Chromosome"	"S51_LN:i:28776_dp:f:0.9760637676089943"	28776
1	0	"Chromosome"	"S52_LN:i:27215_dp:f:1.0939119365438952"	27215
1	0	"Chromosome"	"S53_LN:i:26592_dp:f:1.0389176030157727"	26592
1	0	"Chromosome"	"S54_LN:i:26489_dp:f:1.018845199797732"	26489
1	0	"Chromosome"	"S55_LN:i:26141_dp:f:1.1808750807834851"	26141
0	1	"Plasmid"	"S56_LN:i:22015_dp:f:0.9244635097316802"	22015
1	0	"Chromosome"	"S57_LN:i:21821_dp:f:1.0745918083610466"	21821
1	0	"Chromosome"	"S58_LN:i:19163_dp:f:0.9304268117476885"	19163
1	0	"Chromosome"	"S59_LN:i:18256_dp:f:1.0906930970842312"	18256
1	0	"Chromosome"	"S6_LN:i:218422_dp:f:1.0721169010837945"	218422
1	0	"Chromosome"	"S60_LN:i:17279_dp:f:1.073382511850554"	17279
1	0	"Chromosome"	"S61_LN:i:14781_dp:f:1.0278614876543706"	14781
0	1	"Plasmid"	"S62_LN:i:14513_dp:f:1.7946365678358311"	14513
0.33	0.67	"Plasmid"	"S63_LN:i:14256_dp:f:0.9546852352779616"	14256
1	0	"Chromosome"	"S64_LN:i:13418_dp:f:0.985251201364678"	13418
1	0	"Chromosome"	"S65_LN:i:12262_dp:f:0.8509864256823081"	12262
1	0	"Chromosome"	"S66_LN:i:11216_dp:f:0.9742895270967478"	11216
0	1	"Plasmid"	"S67_LN:i:10806_dp:f:0.9829319717203048"	10806
1	0	"Chromosome"	"S68_LN:i:10048_dp:f:1.0451198466296434"	10048
1	0	"Chromosome"	"S69_LN:i:9905_dp:f:0.9005723302163124"	9905
1	0	"Chromosome"	"S7_LN:i:198159_dp:f:1.1076388493658296"	198159
0.33	0.67	"Plasmid"	"S70_LN:i:9789_dp:f:0.9195227031639418"	9789
0.33	0.67	"Plasmid"	"S71_LN:i:9167_dp:f:0.8652598462112938"	9167
0.33	0.67	"Plasmid"	"S72_LN:i:8816_dp:f:0.9323882164363181"	8816
1	0	"Chromosome"	"S73_LN:i:8713_dp:f:0.7881311943798814"	8713
1	0	"Chromosome"	"S74_LN:i:8597_dp:f:0.9701722458211817"	8597
1	0	"Chromosome"	"S75_LN:i:8497_dp:f:1.7584129022064523"	8497
0	1	"Plasmid"	"S76_LN:i:6817_dp:f:0.9128631787212065"	6817
0	1	"Plasmid"	"S77_LN:i:6185_dp:f:0.8723971815210666"	6185
1	0	"Chromosome"	"S78_LN:i:5844_dp:f:1.0449615827124028"	5844
1	0	"Chromosome"	"S79_LN:i:5364_dp:f:1.00287439329203"	5364
1	0	"Chromosome"	"S8_LN:i:167243_dp:f:1.108202492499661"	167243
1	0	"Chromosome"	"S80_LN:i:5360_dp:f:0.9713700440975148"	5360
1	0	"Chromosome"	"S81_LN:i:5359_dp:f:0.7786256854131234"	5359
1	0	"Chromosome"	"S82_LN:i:5113_dp:f:0.9704080148407505"	5113
1	0	"Chromosome"	"S83_LN:i:5095_dp:f:0.8308983300787549"	5095
0.33	0.67	"Plasmid"	"S84_LN:i:4927_dp:f:0.9575360775717334"	4927
1	0	"Chromosome"	"S85_LN:i:4381_dp:f:1.124843513503167"	4381
1	0	"Chromosome"	"S86_LN:i:4380_dp:f:1.1677772190611795"	4380
0.33	0.67	"Plasmid"	"S87_LN:i:4344_dp:f:0.9337462660118823"	4344
1	0	"Chromosome"	"S88_LN:i:4131_dp:f:0.9173206071726029"	4131
0	1	"Plasmid"	"S89_LN:i:4072_dp:f:24.32677116363619"	4072
1	0	"Chromosome"	"S9_LN:i:147291_dp:f:1.1042997059690742"	147291
0	1	"Plasmid"	"S90_LN:i:3763_dp:f:0.904650566940867"	3763
1	0	"Chromosome"	"S91_LN:i:3749_dp:f:1.1090225949279566"	3749
0	1	"Plasmid"	"S92_LN:i:3684_dp:f:2.016891417328793"	3684
1	0	"Chromosome"	"S93_LN:i:3493_dp:f:0.9356209884601254"	3493
1	0	"Chromosome"	"S94_LN:i:3426_dp:f:1.1345856798462435"	3426
1	0	"Chromosome"	"S95_LN:i:3307_dp:f:0.7745138503971529"	3307
1	0	"Chromosome"	"S96_LN:i:3238_dp:f:0.82774269470581"	3238
1	0	"Chromosome"	"S97_LN:i:2963_dp:f:0.7688052228170883"	2963
1	0	"Chromosome"	"S98_LN:i:2960_dp:f:1.8218607147426598"	2960
1	0	"Chromosome"	"S99_LN:i:2884_dp:f:2.1141884361646017"	2884
