"Prob_Chromosome"	"Prob_Plasmid"	"Prediction"	"Contig_name"	"Contig_length"
1	0	"Chromosome"	"S1_LN:i:593581_dp:f:0.9663014916604808"	593581
1	0	"Chromosome"	"S10_LN:i:209548_dp:f:1.055311402433203"	209548
1	0	"Chromosome"	"S11_LN:i:164588_dp:f:1.0381555981352895"	164588
1	0	"Chromosome"	"S12_LN:i:138385_dp:f:1.0674708557264627"	138385
1	0	"Chromosome"	"S13_LN:i:129639_dp:f:1.0133248950709535"	129639
1	0	"Chromosome"	"S14_LN:i:123575_dp:f:0.9854701151812898"	123575
1	0	"Chromosome"	"S15_LN:i:117378_dp:f:1.0958971480461475"	117378
1	0	"Chromosome"	"S16_LN:i:111863_dp:f:0.9682127721046224"	111863
1	0	"Chromosome"	"S17_LN:i:103570_dp:f:1.0472575243806306"	103570
1	0	"Chromosome"	"S18_LN:i:91181_dp:f:1.1127856123071298"	91181
0	1	"Plasmid"	"S19_LN:i:88899_dp:f:0.701306007521505"	88899
1	0	"Chromosome"	"S2_LN:i:580343_dp:f:0.9545787690298723"	580343
1	0	"Chromosome"	"S20_LN:i:84393_dp:f:1.05467425277285"	84393
1	0	"Chromosome"	"S21_LN:i:74922_dp:f:1.032262050245568"	74922
0	1	"Plasmid"	"S22_LN:i:73955_dp:f:0.8175321816427682"	73955
1	0	"Chromosome"	"S23_LN:i:73720_dp:f:0.9825267822371941"	73720
1	0	"Chromosome"	"S24_LN:i:71504_dp:f:0.9982502651580013"	71504
1	0	"Chromosome"	"S25_LN:i:68618_dp:f:1.0113348832391793"	68618
1	0	"Chromosome"	"S26_LN:i:37542_dp:f:1.015786234596416"	37542
1	0	"Chromosome"	"S27_LN:i:37144_dp:f:0.975714140851102"	37144
0	1	"Plasmid"	"S28_LN:i:36298_dp:f:2.1481028680547234"	36298
1	0	"Chromosome"	"S29_LN:i:33825_dp:f:0.9172704456351211"	33825
1	0	"Chromosome"	"S3_LN:i:358823_dp:f:1.0273569119569097"	358823
1	0	"Chromosome"	"S30_LN:i:33805_dp:f:1.0373909691322674"	33805
1	0	"Chromosome"	"S31_LN:i:30583_dp:f:1.109302511026999"	30583
1	0	"Chromosome"	"S32_LN:i:29868_dp:f:1.0248374655682773"	29868
1	0	"Chromosome"	"S33_LN:i:26059_dp:f:1.0782193909001503"	26059
0.67	0.33	"Chromosome"	"S34_LN:i:19155_dp:f:0.6390884828055847"	19155
0	1	"Plasmid"	"S35_LN:i:17345_dp:f:0.7526950853769794"	17345
1	0	"Chromosome"	"S36_LN:i:10301_dp:f:1.0453116856234088"	10301
1	0	"Chromosome"	"S37_LN:i:8993_dp:f:1.1299355367438895"	8993
0.67	0.33	"Chromosome"	"S38_LN:i:6635_dp:f:0.7461204847843164"	6635
0	1	"Plasmid"	"S39_LN:i:4671_dp:f:29.772037926490707"	4671
1	0	"Chromosome"	"S4_LN:i:299604_dp:f:1.0543279338919336"	299604
1	0	"Chromosome"	"S40_LN:i:4325_dp:f:1.0531604602839593"	4325
1	0	"Chromosome"	"S41_LN:i:3158_dp:f:0.6388782901219754"	3158
1	0	"Chromosome"	"S42_LN:i:3060_dp:f:7.295639915108583"	3060
0.67	0.33	"Chromosome"	"S43_LN:i:2971_dp:f:0.9515689604224963"	2971
0.67	0.33	"Chromosome"	"S44_LN:i:2862_dp:f:0.7413738556938289"	2862
1	0	"Chromosome"	"S45_LN:i:2453_dp:f:0.8085174725303635"	2453
1	0	"Chromosome"	"S46_LN:i:2335_dp:f:0.8477950586001846"	2335
0.67	0.33	"Chromosome"	"S47_LN:i:2254_dp:f:0.8931261051866802"	2254
1	0	"Chromosome"	"S48_LN:i:1984_dp:f:0.9931974880027172"	1984
1	0	"Chromosome"	"S49_LN:i:1698_dp:f:7.347428249835903"	1698
1	0	"Chromosome"	"S5_LN:i:293821_dp:f:1.0336446345662194"	293821
0.33	0.67	"Plasmid"	"S50_LN:i:1689_dp:f:1.5410285986834475"	1689
0	1	"Plasmid"	"S51_LN:i:1611_dp:f:2.4192713917923743"	1611
1	0	"Chromosome"	"S52_LN:i:1512_dp:f:0.8525212169638489"	1512
1	0	"Chromosome"	"S53_LN:i:1096_dp:f:4.0338220708101975"	1096
1	0	"Chromosome"	"S54_LN:i:878_dp:f:2.0742582353370373"	878
1	0	"Chromosome"	"S55_LN:i:861_dp:f:2.082044110306418"	861
0.5	0.5	"Plasmid"	"S56_LN:i:756_dp:f:1.5074552832419432"	756
0.67	0.33	"Chromosome"	"S57_LN:i:679_dp:f:1.3154676379776074"	679
1	0	"Chromosome"	"S58_LN:i:599_dp:f:2.2444136102620376"	599
1	0	"Chromosome"	"S59_LN:i:586_dp:f:6.6185442074453285"	586
1	0	"Chromosome"	"S6_LN:i:289896_dp:f:1.0095205791652409"	289896
1	0	"Chromosome"	"S60_LN:i:582_dp:f:1.042584566491662"	582
0.67	0.33	"Chromosome"	"S61_LN:i:500_dp:f:1.1195795201123964"	500
1	0	"Chromosome"	"S7_LN:i:237580_dp:f:0.984286516380848"	237580
1	0	"Chromosome"	"S8_LN:i:222619_dp:f:0.9632479747800524"	222619
1	0	"Chromosome"	"S9_LN:i:210596_dp:f:1.0"	210596
