"Prob_Chromosome"	"Prob_Plasmid"	"Prediction"	"Contig_name"	"Contig_length"
1	0	"Chromosome"	"S1_LN:i:424018_dp:f:0.9368103279469464"	424018
1	0	"Chromosome"	"S10_LN:i:147394_dp:f:1.0584780844525574"	147394
1	0	"Chromosome"	"S100_LN:i:713_dp:f:2.0351206987743398"	713
1	0	"Chromosome"	"S101_LN:i:705_dp:f:7.399517385105818"	705
1	0	"Chromosome"	"S102_LN:i:643_dp:f:1.1628670178513214"	643
1	0	"Chromosome"	"S103_LN:i:643_dp:f:1.0690348184125018"	643
1	0	"Chromosome"	"S104_LN:i:615_dp:f:1.097303623118667"	615
1	0	"Chromosome"	"S105_LN:i:613_dp:f:1.2527094783162402"	613
1	0	"Chromosome"	"S106_LN:i:613_dp:f:1.216727755741749"	613
1	0	"Chromosome"	"S107_LN:i:606_dp:f:1.0433632518810103"	606
1	0	"Chromosome"	"S108_LN:i:606_dp:f:1.139917504184598"	606
1	0	"Chromosome"	"S109_LN:i:603_dp:f:1.274724161453132"	603
1	0	"Chromosome"	"S11_LN:i:140245_dp:f:1.0159499396603426"	140245
1	0	"Chromosome"	"S110_LN:i:603_dp:f:1.1963812386561425"	603
1	0	"Chromosome"	"S111_LN:i:602_dp:f:2.5388795799619412"	602
1	0	"Chromosome"	"S112_LN:i:526_dp:f:2.7389004362903306"	526
1	0	"Chromosome"	"S113_LN:i:526_dp:f:1.0508200437054678"	526
1	0	"Chromosome"	"S12_LN:i:135442_dp:f:1.0256798747327098"	135442
1	0	"Chromosome"	"S13_LN:i:135030_dp:f:0.996846007937833"	135030
1	0	"Chromosome"	"S14_LN:i:127996_dp:f:0.9687951864233454"	127996
1	0	"Chromosome"	"S15_LN:i:122742_dp:f:1.0452623447958302"	122742
1	0	"Chromosome"	"S16_LN:i:119211_dp:f:0.9911552469171919"	119211
1	0	"Chromosome"	"S17_LN:i:117297_dp:f:1.0302149889356869"	117297
1	0	"Chromosome"	"S18_LN:i:111257_dp:f:1.067171358713624"	111257
0	1	"Plasmid"	"S19_LN:i:101468_dp:f:1.2593070697549928"	101468
1	0	"Chromosome"	"S2_LN:i:416016_dp:f:1.0345074625936457"	416016
1	0	"Chromosome"	"S20_LN:i:94628_dp:f:1.0979846900277863"	94628
1	0	"Chromosome"	"S21_LN:i:94221_dp:f:1.061424370648583"	94221
1	0	"Chromosome"	"S22_LN:i:78601_dp:f:0.8655237275429035"	78601
1	0	"Chromosome"	"S23_LN:i:78444_dp:f:1.0031614048577242"	78444
1	0	"Chromosome"	"S24_LN:i:75328_dp:f:0.9271055045446885"	75328
1	0	"Chromosome"	"S25_LN:i:69495_dp:f:0.9855402503118388"	69495
1	0	"Chromosome"	"S26_LN:i:66309_dp:f:1.0603921885978498"	66309
1	0	"Chromosome"	"S27_LN:i:55105_dp:f:0.9266709171182163"	55105
1	0	"Chromosome"	"S28_LN:i:46840_dp:f:0.986380977759125"	46840
1	0	"Chromosome"	"S29_LN:i:43526_dp:f:1.076254924966981"	43526
1	0	"Chromosome"	"S3_LN:i:393787_dp:f:0.9374435539596426"	393787
1	0	"Chromosome"	"S30_LN:i:41543_dp:f:0.9715805357903106"	41543
1	0	"Chromosome"	"S31_LN:i:39442_dp:f:1.0111151231532567"	39442
1	0	"Chromosome"	"S32_LN:i:32943_dp:f:1.0859075108784972"	32943
1	0	"Chromosome"	"S33_LN:i:32401_dp:f:0.9237555265307796"	32401
1	0	"Chromosome"	"S34_LN:i:30867_dp:f:1.155050743969905"	30867
1	0	"Chromosome"	"S35_LN:i:26140_dp:f:1.0341634839386498"	26140
1	0	"Chromosome"	"S36_LN:i:24357_dp:f:0.9559532505756092"	24357
1	0	"Chromosome"	"S37_LN:i:21891_dp:f:1.083188587713752"	21891
1	0	"Chromosome"	"S38_LN:i:18940_dp:f:1.0061824274428177"	18940
1	0	"Chromosome"	"S39_LN:i:17646_dp:f:0.9521409394241805"	17646
1	0	"Chromosome"	"S4_LN:i:287926_dp:f:1.0656574884247385"	287926
1	0	"Chromosome"	"S40_LN:i:14315_dp:f:2.1627352540462277"	14315
1	0	"Chromosome"	"S41_LN:i:8150_dp:f:1.9131380126557695"	8150
1	0	"Chromosome"	"S42_LN:i:8131_dp:f:0.9604734519824114"	8131
1	0	"Chromosome"	"S43_LN:i:7488_dp:f:1.0699526198087481"	7488
1	0	"Chromosome"	"S44_LN:i:7389_dp:f:1.1312663949445294"	7389
1	0	"Chromosome"	"S45_LN:i:7346_dp:f:1.0464999386683638"	7346
1	0	"Chromosome"	"S46_LN:i:6857_dp:f:1.0458291787019096"	6857
1	0	"Chromosome"	"S47_LN:i:4827_dp:f:0.7832665580614226"	4827
1	0	"Chromosome"	"S48_LN:i:4448_dp:f:0.9686161339965988"	4448
1	0	"Chromosome"	"S49_LN:i:4227_dp:f:0.7701568393745643"	4227
1	0	"Chromosome"	"S5_LN:i:262114_dp:f:1.0"	262114
1	0	"Chromosome"	"S50_LN:i:3495_dp:f:0.9301253211614561"	3495
1	0	"Chromosome"	"S51_LN:i:2955_dp:f:0.7614831043216866"	2955
1	0	"Chromosome"	"S52_LN:i:2569_dp:f:2.153804507040797"	2569
1	0	"Chromosome"	"S53_LN:i:2183_dp:f:1.0556677465513624"	2183
1	0	"Chromosome"	"S54_LN:i:2153_dp:f:1.0032551143095931"	2153
1	0	"Chromosome"	"S55_LN:i:2037_dp:f:2.2394833443440767"	2037
1	0	"Chromosome"	"S56_LN:i:1856_dp:f:0.792359384369536"	1856
1	0	"Chromosome"	"S57_LN:i:1828_dp:f:1.7103321055117764"	1828
1	0	"Chromosome"	"S58_LN:i:1732_dp:f:7.535835501022932"	1732
1	0	"Chromosome"	"S59_LN:i:1682_dp:f:0.5856269330710743"	1682
1	0	"Chromosome"	"S6_LN:i:240048_dp:f:0.8986941952490684"	240048
1	0	"Chromosome"	"S60_LN:i:1561_dp:f:0.7962215032758444"	1561
1	0	"Chromosome"	"S61_LN:i:1538_dp:f:0.7391625366031951"	1538
1	0	"Chromosome"	"S62_LN:i:1536_dp:f:3.519602935766294"	1536
1	0	"Chromosome"	"S63_LN:i:1530_dp:f:1.9365176842055474"	1530
1	0	"Chromosome"	"S64_LN:i:1524_dp:f:0.9810639876932103"	1524
1	0	"Chromosome"	"S65_LN:i:1258_dp:f:2.102890793603632"	1258
1	0	"Chromosome"	"S66_LN:i:1216_dp:f:1.0869550776993768"	1216
1	0	"Chromosome"	"S67_LN:i:1216_dp:f:1.0503811743870244"	1216
1	0	"Chromosome"	"S68_LN:i:1164_dp:f:1.187857992511404"	1164
1	0	"Chromosome"	"S69_LN:i:1129_dp:f:2.4008341389803345"	1129
1	0	"Chromosome"	"S7_LN:i:209722_dp:f:1.0482842777500088"	209722
1	0	"Chromosome"	"S70_LN:i:1079_dp:f:2.3476890184376877"	1079
1	0	"Chromosome"	"S71_LN:i:1029_dp:f:1.182558060945336"	1029
1	0	"Chromosome"	"S72_LN:i:1007_dp:f:2.3352418537811634"	1007
1	0	"Chromosome"	"S73_LN:i:1005_dp:f:2.1200103390919476"	1005
1	0	"Chromosome"	"S74_LN:i:973_dp:f:7.49828503103832"	973
1	0	"Chromosome"	"S75_LN:i:956_dp:f:2.0812501607998306"	956
1	0	"Chromosome"	"S76_LN:i:918_dp:f:1.0600290644718575"	918
1	0	"Chromosome"	"S77_LN:i:918_dp:f:1.057909675597707"	918
1	0	"Chromosome"	"S78_LN:i:914_dp:f:1.1404573178758264"	914
1	0	"Chromosome"	"S79_LN:i:914_dp:f:0.8565958847627012"	914
1	0	"Chromosome"	"S8_LN:i:195172_dp:f:1.0552420076826847"	195172
1	0	"Chromosome"	"S80_LN:i:905_dp:f:1.297053096086969"	905
1	0	"Chromosome"	"S81_LN:i:905_dp:f:1.160322884980517"	905
1	0	"Chromosome"	"S82_LN:i:896_dp:f:1.243431405889676"	896
1	0	"Chromosome"	"S83_LN:i:877_dp:f:1.1947413724655844"	877
1	0	"Chromosome"	"S84_LN:i:877_dp:f:1.1932707640507496"	877
1	0	"Chromosome"	"S85_LN:i:854_dp:f:2.3825297398448058"	854
1	0	"Chromosome"	"S86_LN:i:841_dp:f:0.9933897336429277"	841
1	0	"Chromosome"	"S87_LN:i:835_dp:f:2.407677931212865"	835
1	0	"Chromosome"	"S88_LN:i:821_dp:f:1.718770631809149"	821
1	0	"Chromosome"	"S89_LN:i:813_dp:f:7.43250695110133"	813
1	0	"Chromosome"	"S9_LN:i:193945_dp:f:0.9479289121636412"	193945
1	0	"Chromosome"	"S90_LN:i:809_dp:f:1.280802676234449"	809
1	0	"Chromosome"	"S91_LN:i:808_dp:f:2.0880741185212774"	808
1	0	"Chromosome"	"S92_LN:i:799_dp:f:1.7384200371950325"	799
1	0	"Chromosome"	"S93_LN:i:799_dp:f:1.0404696772516608"	799
1	0	"Chromosome"	"S94_LN:i:799_dp:f:1.0436055479059847"	799
1	0	"Chromosome"	"S95_LN:i:764_dp:f:2.369608712476835"	764
1	0	"Chromosome"	"S96_LN:i:764_dp:f:1.1750894570050974"	764
1	0	"Chromosome"	"S97_LN:i:732_dp:f:1.142880622645613"	732
1	0	"Chromosome"	"S98_LN:i:732_dp:f:0.98961418770187"	732
1	0	"Chromosome"	"S99_LN:i:731_dp:f:8.881495305900582"	731
