"Prob_Chromosome"	"Prob_Plasmid"	"Prediction"	"Contig_name"	"Contig_length"
1	0	"Chromosome"	"S1_LN:i:374865_dp:f:1.0749885035087077"	374865
1	0	"Chromosome"	"S10_LN:i:198295_dp:f:0.8919341045340952"	198295
1	0	"Chromosome"	"S100_LN:i:644_dp:f:0.8141903691766748"	644
1	0	"Chromosome"	"S101_LN:i:632_dp:f:2.5763383710102534"	632
1	0	"Chromosome"	"S102_LN:i:606_dp:f:0.9226759763317592"	606
1	0	"Chromosome"	"S103_LN:i:606_dp:f:1.1969352566100218"	606
1	0	"Chromosome"	"S104_LN:i:568_dp:f:1.6545140628769073"	568
1	0	"Chromosome"	"S105_LN:i:562_dp:f:1.7600513033603464"	562
0.67	0.33	"Chromosome"	"S106_LN:i:542_dp:f:1.5695053407122288"	542
0.67	0.33	"Chromosome"	"S107_LN:i:504_dp:f:1.395967477403657"	504
1	0	"Chromosome"	"S108_LN:i:503_dp:f:1.6035947204587295"	503
1	0	"Chromosome"	"S11_LN:i:173581_dp:f:0.8682632509656248"	173581
1	0	"Chromosome"	"S12_LN:i:169985_dp:f:1.0893451820087325"	169985
1	0	"Chromosome"	"S13_LN:i:169238_dp:f:1.1143772255735436"	169238
1	0	"Chromosome"	"S14_LN:i:135734_dp:f:0.8900147755192753"	135734
1	0	"Chromosome"	"S15_LN:i:114916_dp:f:0.8135597349289454"	114916
1	0	"Chromosome"	"S16_LN:i:112152_dp:f:0.9565731810452665"	112152
1	0	"Chromosome"	"S17_LN:i:107357_dp:f:1.0935311833495955"	107357
1	0	"Chromosome"	"S18_LN:i:105440_dp:f:0.9191174721979478"	105440
1	0	"Chromosome"	"S19_LN:i:94836_dp:f:0.9849712911453193"	94836
1	0	"Chromosome"	"S2_LN:i:332824_dp:f:0.788889869557017"	332824
0	1	"Plasmid"	"S20_LN:i:91233_dp:f:0.5815421095375989"	91233
1	0	"Chromosome"	"S21_LN:i:87586_dp:f:1.0561987862615512"	87586
1	0	"Chromosome"	"S22_LN:i:79481_dp:f:0.9447472755496805"	79481
1	0	"Chromosome"	"S23_LN:i:65862_dp:f:0.9465198073582025"	65862
1	0	"Chromosome"	"S24_LN:i:65650_dp:f:1.0599861334609215"	65650
1	0	"Chromosome"	"S25_LN:i:63911_dp:f:1.1439725460507764"	63911
1	0	"Chromosome"	"S26_LN:i:62043_dp:f:1.033373781135444"	62043
1	0	"Chromosome"	"S27_LN:i:61053_dp:f:1.0695667640952826"	61053
1	0	"Chromosome"	"S28_LN:i:55787_dp:f:1.1885393621365452"	55787
1	0	"Chromosome"	"S29_LN:i:51756_dp:f:0.9078018856314322"	51756
1	0	"Chromosome"	"S3_LN:i:238550_dp:f:0.8358643284639595"	238550
1	0	"Chromosome"	"S30_LN:i:45303_dp:f:0.9695858376721255"	45303
1	0	"Chromosome"	"S31_LN:i:43362_dp:f:0.7800709641571311"	43362
0	1	"Plasmid"	"S32_LN:i:42460_dp:f:0.6016122804021161"	42460
1	0	"Chromosome"	"S33_LN:i:38097_dp:f:0.8123975769516084"	38097
1	0	"Chromosome"	"S34_LN:i:36932_dp:f:1.0463859468968062"	36932
1	0	"Chromosome"	"S35_LN:i:36188_dp:f:1.09786689034757"	36188
1	0	"Chromosome"	"S36_LN:i:32716_dp:f:1.0335694288161226"	32716
1	0	"Chromosome"	"S37_LN:i:31363_dp:f:1.1272535949175273"	31363
1	0	"Chromosome"	"S38_LN:i:30746_dp:f:1.0634117381192143"	30746
1	0	"Chromosome"	"S39_LN:i:30336_dp:f:0.8331720102279012"	30336
1	0	"Chromosome"	"S4_LN:i:227812_dp:f:0.9867525218240114"	227812
1	0	"Chromosome"	"S40_LN:i:26220_dp:f:1.12562000749569"	26220
1	0	"Chromosome"	"S41_LN:i:25473_dp:f:0.9150129996589607"	25473
1	0	"Chromosome"	"S42_LN:i:25024_dp:f:1.045149330784049"	25024
1	0	"Chromosome"	"S43_LN:i:22432_dp:f:1.1140446447467707"	22432
0.67	0.33	"Chromosome"	"S44_LN:i:21171_dp:f:0.5924640018897323"	21171
1	0	"Chromosome"	"S45_LN:i:20492_dp:f:1.0634064460541277"	20492
1	0	"Chromosome"	"S46_LN:i:20180_dp:f:1.0780942959199684"	20180
0	1	"Plasmid"	"S47_LN:i:17888_dp:f:0.5893320957724726"	17888
1	0	"Chromosome"	"S48_LN:i:11703_dp:f:1.1884320594277211"	11703
1	0	"Chromosome"	"S49_LN:i:11677_dp:f:0.8022376312592674"	11677
1	0	"Chromosome"	"S5_LN:i:212310_dp:f:1.2067943993411803"	212310
0	1	"Plasmid"	"S50_LN:i:11225_dp:f:0.6758514700227541"	11225
1	0	"Chromosome"	"S51_LN:i:9907_dp:f:1.0970443395783982"	9907
1	0	"Chromosome"	"S52_LN:i:9079_dp:f:1.0365346459544242"	9079
1	0	"Chromosome"	"S53_LN:i:8462_dp:f:1.3249959916832676"	8462
1	0	"Chromosome"	"S54_LN:i:7107_dp:f:1.2732231205053706"	7107
1	0	"Chromosome"	"S55_LN:i:6898_dp:f:1.9413352664058778"	6898
0.33	0.67	"Plasmid"	"S56_LN:i:6837_dp:f:0.5759570101860518"	6837
1	0	"Chromosome"	"S57_LN:i:6465_dp:f:1.0410719607039145"	6465
1	0	"Chromosome"	"S58_LN:i:6386_dp:f:0.9030018276002849"	6386
0	1	"Plasmid"	"S59_LN:i:5519_dp:f:0.5544497698217399"	5519
1	0	"Chromosome"	"S6_LN:i:211304_dp:f:0.9529009164819032"	211304
0.67	0.33	"Chromosome"	"S60_LN:i:4526_dp:f:0.619243755484982"	4526
1	0	"Chromosome"	"S61_LN:i:4221_dp:f:1.257943312195925"	4221
1	0	"Chromosome"	"S62_LN:i:3636_dp:f:1.0457065033102864"	3636
1	0	"Chromosome"	"S63_LN:i:3627_dp:f:1.2316237689804121"	3627
1	0	"Chromosome"	"S64_LN:i:3278_dp:f:1.078403073525118"	3278
1	0	"Chromosome"	"S65_LN:i:3061_dp:f:0.8101610705329535"	3061
1	0	"Chromosome"	"S66_LN:i:2919_dp:f:8.757458545748486"	2919
0.33	0.67	"Plasmid"	"S67_LN:i:2826_dp:f:0.6746421335091037"	2826
1	0	"Chromosome"	"S68_LN:i:2270_dp:f:3.7109334773247413"	2270
1	0	"Chromosome"	"S69_LN:i:2264_dp:f:1.9721670147398849"	2264
1	0	"Chromosome"	"S7_LN:i:210993_dp:f:1.0"	210993
0.5	0.5	"Plasmid"	"S70_LN:i:2125_dp:f:9.215759397832965"	2125
1	0	"Chromosome"	"S71_LN:i:1898_dp:f:1.112243969780404"	1898
1	0	"Chromosome"	"S72_LN:i:1856_dp:f:1.2393465969165107"	1856
1	0	"Chromosome"	"S73_LN:i:1743_dp:f:1.293981589016277"	1743
1	0	"Chromosome"	"S74_LN:i:1659_dp:f:8.731225203409046"	1659
1	0	"Chromosome"	"S75_LN:i:1633_dp:f:0.9381010617919677"	1633
0.67	0.33	"Chromosome"	"S76_LN:i:1486_dp:f:1.3509551203209675"	1486
1	0	"Chromosome"	"S77_LN:i:1455_dp:f:0.8353137023256346"	1455
1	0	"Chromosome"	"S78_LN:i:1455_dp:f:1.128849230039958"	1455
1	0	"Chromosome"	"S79_LN:i:1432_dp:f:10.247529745945005"	1432
1	0	"Chromosome"	"S8_LN:i:208963_dp:f:1.0734171056502733"	208963
1	0	"Chromosome"	"S80_LN:i:1427_dp:f:0.9617101819819399"	1427
1	0	"Chromosome"	"S81_LN:i:1343_dp:f:4.494970368199747"	1343
1	0	"Chromosome"	"S82_LN:i:1253_dp:f:1.182459332915489"	1253
1	0	"Chromosome"	"S83_LN:i:1242_dp:f:0.9224653122847608"	1242
1	0	"Chromosome"	"S84_LN:i:1063_dp:f:3.2697611578099566"	1063
1	0	"Chromosome"	"S85_LN:i:980_dp:f:1.1643531411417674"	980
1	0	"Chromosome"	"S86_LN:i:980_dp:f:0.9237256209064824"	980
1	0	"Chromosome"	"S87_LN:i:956_dp:f:2.088235730455773"	956
0.67	0.33	"Chromosome"	"S88_LN:i:843_dp:f:1.3101302259862362"	843
1	0	"Chromosome"	"S89_LN:i:827_dp:f:2.0640319061482595"	827
1	0	"Chromosome"	"S9_LN:i:207624_dp:f:1.136556779629154"	207624
1	0	"Chromosome"	"S90_LN:i:827_dp:f:1.1659412256608739"	827
1	0	"Chromosome"	"S91_LN:i:811_dp:f:1.1058964366333661"	811
1	0	"Chromosome"	"S92_LN:i:781_dp:f:2.020726096129499"	781
0.67	0.33	"Chromosome"	"S93_LN:i:771_dp:f:6.420371492340655"	771
1	0	"Chromosome"	"S94_LN:i:754_dp:f:1.328928903297674"	754
1	0	"Chromosome"	"S95_LN:i:746_dp:f:0.9782027810399877"	746
1	0	"Chromosome"	"S96_LN:i:730_dp:f:1.1393973343137456"	730
1	0	"Chromosome"	"S97_LN:i:665_dp:f:1.2422743046060407"	665
1	0	"Chromosome"	"S98_LN:i:662_dp:f:0.994281071186601"	662
1	0	"Chromosome"	"S99_LN:i:646_dp:f:0.7983342350510343"	646
