"Prob_Chromosome"	"Prob_Plasmid"	"Prediction"	"Contig_name"	"Contig_length"
1	0	"Chromosome"	"S1_LN:i:563827_dp:f:0.8798163506326089"	563827
1	0	"Chromosome"	"S10_LN:i:147859_dp:f:1.0"	147859
1	0	"Chromosome"	"S100_LN:i:691_dp:f:1.2602936836039136"	691
1	0	"Chromosome"	"S101_LN:i:691_dp:f:2.1468672320558615"	691
1	0	"Chromosome"	"S102_LN:i:687_dp:f:2.687109062286122"	687
1	0	"Chromosome"	"S103_LN:i:648_dp:f:1.7779200461666431"	648
1	0	"Chromosome"	"S104_LN:i:644_dp:f:2.730250124046822"	644
1	0	"Chromosome"	"S105_LN:i:627_dp:f:1.9919576811113635"	627
1	0	"Chromosome"	"S106_LN:i:560_dp:f:2.05393223419239"	560
1	0	"Chromosome"	"S107_LN:i:554_dp:f:1.2100973712486098"	554
1	0	"Chromosome"	"S108_LN:i:550_dp:f:1.0059173037206839"	550
1	0	"Chromosome"	"S109_LN:i:546_dp:f:1.587081369508951"	546
1	0	"Chromosome"	"S11_LN:i:145854_dp:f:1.1201756398873708"	145854
1	0	"Chromosome"	"S110_LN:i:507_dp:f:0.970707329194835"	507
1	0	"Chromosome"	"S111_LN:i:507_dp:f:0.8293728457001709"	507
1	0	"Chromosome"	"S12_LN:i:133626_dp:f:1.0493762962938278"	133626
1	0	"Chromosome"	"S13_LN:i:132671_dp:f:1.1587375818018206"	132671
1	0	"Chromosome"	"S14_LN:i:128809_dp:f:0.9009947907146519"	128809
1	0	"Chromosome"	"S15_LN:i:119964_dp:f:0.9331268489384035"	119964
1	0	"Chromosome"	"S16_LN:i:112970_dp:f:1.1501398054737588"	112970
1	0	"Chromosome"	"S17_LN:i:109743_dp:f:0.9369905219818178"	109743
1	0	"Chromosome"	"S18_LN:i:104862_dp:f:1.1166860095609163"	104862
1	0	"Chromosome"	"S19_LN:i:102518_dp:f:1.018648472331852"	102518
1	0	"Chromosome"	"S2_LN:i:362840_dp:f:1.087138055200143"	362840
1	0	"Chromosome"	"S20_LN:i:97387_dp:f:1.1313945185521583"	97387
1	0	"Chromosome"	"S21_LN:i:96060_dp:f:0.964505789051922"	96060
1	0	"Chromosome"	"S22_LN:i:77762_dp:f:1.1580930188971668"	77762
1	0	"Chromosome"	"S23_LN:i:72252_dp:f:1.1090565793673393"	72252
1	0	"Chromosome"	"S24_LN:i:57870_dp:f:1.0415191420565382"	57870
1	0	"Chromosome"	"S25_LN:i:57608_dp:f:1.0685949890290147"	57608
1	0	"Chromosome"	"S26_LN:i:49615_dp:f:1.1233151558184267"	49615
0.67	0.33	"Chromosome"	"S27_LN:i:46131_dp:f:1.208016827291346"	46131
1	0	"Chromosome"	"S28_LN:i:41345_dp:f:1.2188543359920805"	41345
1	0	"Chromosome"	"S29_LN:i:37919_dp:f:1.020447701899969"	37919
1	0	"Chromosome"	"S3_LN:i:326582_dp:f:0.9441685178577365"	326582
1	0	"Chromosome"	"S30_LN:i:31815_dp:f:1.1371264028103665"	31815
1	0	"Chromosome"	"S31_LN:i:29791_dp:f:1.1542674910023505"	29791
0	1	"Plasmid"	"S32_LN:i:29057_dp:f:0.9774393972706095"	29057
0	1	"Plasmid"	"S33_LN:i:27854_dp:f:0.8886238060366175"	27854
1	0	"Chromosome"	"S34_LN:i:27009_dp:f:1.0121580903156977"	27009
1	0	"Chromosome"	"S35_LN:i:25966_dp:f:1.198782178586575"	25966
1	0	"Chromosome"	"S36_LN:i:23733_dp:f:1.0254698773674598"	23733
1	0	"Chromosome"	"S37_LN:i:19553_dp:f:1.104804746898429"	19553
1	0	"Chromosome"	"S38_LN:i:18944_dp:f:1.1973429751453821"	18944
1	0	"Chromosome"	"S39_LN:i:15220_dp:f:0.7679318241070131"	15220
1	0	"Chromosome"	"S4_LN:i:304129_dp:f:1.0599557636418466"	304129
1	0	"Chromosome"	"S40_LN:i:14948_dp:f:1.1321193186724376"	14948
1	0	"Chromosome"	"S41_LN:i:14411_dp:f:1.1014253272235162"	14411
0.67	0.33	"Chromosome"	"S42_LN:i:13459_dp:f:1.029560299823123"	13459
0	1	"Plasmid"	"S43_LN:i:13263_dp:f:0.9066583733639825"	13263
1	0	"Chromosome"	"S44_LN:i:12703_dp:f:1.1933073023250527"	12703
1	0	"Chromosome"	"S45_LN:i:12196_dp:f:1.1025021215110204"	12196
0	1	"Plasmid"	"S46_LN:i:12014_dp:f:1.0192361679283601"	12014
1	0	"Chromosome"	"S47_LN:i:10602_dp:f:1.146475512020567"	10602
0.33	0.67	"Plasmid"	"S48_LN:i:10291_dp:f:0.8405855708248112"	10291
1	0	"Chromosome"	"S49_LN:i:9857_dp:f:0.941513583256521"	9857
1	0	"Chromosome"	"S5_LN:i:287540_dp:f:1.1722309208174266"	287540
1	0	"Chromosome"	"S50_LN:i:8073_dp:f:1.2360239579566377"	8073
1	0	"Chromosome"	"S51_LN:i:7968_dp:f:1.3333013955317514"	7968
1	0	"Chromosome"	"S52_LN:i:7592_dp:f:1.221655851866269"	7592
0	1	"Plasmid"	"S53_LN:i:7503_dp:f:0.8260768445532133"	7503
1	0	"Chromosome"	"S54_LN:i:7326_dp:f:1.0453134329792744"	7326
0	1	"Plasmid"	"S55_LN:i:7280_dp:f:0.8279274349119619"	7280
1	0	"Chromosome"	"S56_LN:i:6692_dp:f:0.8815831418066423"	6692
1	0	"Chromosome"	"S57_LN:i:6690_dp:f:0.9415721447905742"	6690
0	1	"Plasmid"	"S58_LN:i:6658_dp:f:0.6448996031703124"	6658
1	0	"Chromosome"	"S59_LN:i:5766_dp:f:2.283017879962724"	5766
1	0	"Chromosome"	"S6_LN:i:244107_dp:f:1.0775116212808036"	244107
1	0	"Chromosome"	"S60_LN:i:5635_dp:f:1.7884275828871052"	5635
1	0	"Chromosome"	"S61_LN:i:4819_dp:f:1.2382767327185906"	4819
1	0	"Chromosome"	"S62_LN:i:4571_dp:f:1.1360828676821886"	4571
1	0	"Chromosome"	"S63_LN:i:4220_dp:f:1.3561024828987591"	4220
1	0	"Chromosome"	"S64_LN:i:4174_dp:f:0.9822977476140761"	4174
1	0	"Chromosome"	"S65_LN:i:3516_dp:f:0.7790903313161458"	3516
0	1	"Plasmid"	"S66_LN:i:3503_dp:f:0.9446562951909881"	3503
1	0	"Chromosome"	"S67_LN:i:3245_dp:f:9.621972266374481"	3245
1	0	"Chromosome"	"S68_LN:i:3060_dp:f:1.0818264497859666"	3060
0.33	0.67	"Plasmid"	"S69_LN:i:2973_dp:f:0.7780498998614761"	2973
1	0	"Chromosome"	"S7_LN:i:233942_dp:f:0.9546689461646806"	233942
1	0	"Chromosome"	"S70_LN:i:2353_dp:f:1.724693246927063"	2353
0.67	0.33	"Chromosome"	"S71_LN:i:2212_dp:f:4.748642092781016"	2212
1	0	"Chromosome"	"S72_LN:i:2197_dp:f:2.09465313144638"	2197
0	1	"Plasmid"	"S73_LN:i:2034_dp:f:0.8824467639898586"	2034
1	0	"Chromosome"	"S74_LN:i:1892_dp:f:1.6451767311790235"	1892
1	0	"Chromosome"	"S75_LN:i:1601_dp:f:9.259127303075921"	1601
1	0	"Chromosome"	"S76_LN:i:1590_dp:f:1.4810191342472951"	1590
1	0	"Chromosome"	"S77_LN:i:1556_dp:f:1.1355889959969339"	1556
1	0	"Chromosome"	"S78_LN:i:1535_dp:f:0.8763681693652607"	1535
1	0	"Chromosome"	"S79_LN:i:1446_dp:f:2.124956298274638"	1446
1	0	"Chromosome"	"S8_LN:i:207071_dp:f:0.8830598896854318"	207071
1	0	"Chromosome"	"S80_LN:i:1428_dp:f:2.641019811048357"	1428
1	0	"Chromosome"	"S81_LN:i:1319_dp:f:1.948932957047962"	1319
1	0	"Chromosome"	"S82_LN:i:1114_dp:f:2.102691345476506"	1114
1	0	"Chromosome"	"S83_LN:i:1091_dp:f:1.6296259252451202"	1091
1	0	"Chromosome"	"S84_LN:i:1056_dp:f:2.177604312464233"	1056
1	0	"Chromosome"	"S85_LN:i:1046_dp:f:1.3381567423202103"	1046
1	0	"Chromosome"	"S86_LN:i:1040_dp:f:1.418645709061245"	1040
1	0	"Chromosome"	"S87_LN:i:847_dp:f:0.829318381236031"	847
1	0	"Chromosome"	"S88_LN:i:847_dp:f:1.1536241295196996"	847
1	0	"Chromosome"	"S89_LN:i:846_dp:f:0.8600107086747876"	846
1	0	"Chromosome"	"S9_LN:i:169153_dp:f:1.0057757361613204"	169153
1	0	"Chromosome"	"S90_LN:i:846_dp:f:0.5836301846865951"	846
1	0	"Chromosome"	"S91_LN:i:810_dp:f:2.0107253945770216"	810
1	0	"Chromosome"	"S92_LN:i:807_dp:f:0.816598225659891"	807
1	0	"Chromosome"	"S93_LN:i:806_dp:f:2.366423899327244"	806
1	0	"Chromosome"	"S94_LN:i:779_dp:f:0.9799677898760973"	779
1	0	"Chromosome"	"S95_LN:i:779_dp:f:0.6427033036301767"	779
0.5	0.5	"Plasmid"	"S96_LN:i:777_dp:f:3.619976904664361"	777
1	0	"Chromosome"	"S97_LN:i:768_dp:f:4.996865890467959"	768
1	0	"Chromosome"	"S98_LN:i:700_dp:f:2.156304401890077"	700
1	0	"Chromosome"	"S99_LN:i:691_dp:f:1.303498821204778"	691
