"Prob_Chromosome"	"Prob_Plasmid"	"Prediction"	"Contig_name"	"Contig_length"
1	0	"Chromosome"	"S1_LN:i:277784_dp:f:1.0763822395908385"	277784
1	0	"Chromosome"	"S10_LN:i:138701_dp:f:0.9742571276435745"	138701
1	0	"Chromosome"	"S11_LN:i:138660_dp:f:0.9636729897748456"	138660
1	0	"Chromosome"	"S12_LN:i:132954_dp:f:0.9863374917315407"	132954
1	0	"Chromosome"	"S13_LN:i:126197_dp:f:1.1288425850611759"	126197
1	0	"Chromosome"	"S14_LN:i:123716_dp:f:1.1167046529638762"	123716
1	0	"Chromosome"	"S15_LN:i:119020_dp:f:0.9718085279117028"	119020
1	0	"Chromosome"	"S16_LN:i:106217_dp:f:0.8890145845151062"	106217
1	0	"Chromosome"	"S17_LN:i:88119_dp:f:1.111562926144199"	88119
1	0	"Chromosome"	"S18_LN:i:85381_dp:f:0.9008083645326945"	85381
1	0	"Chromosome"	"S19_LN:i:82493_dp:f:1.0899375067073562"	82493
1	0	"Chromosome"	"S2_LN:i:244076_dp:f:1.048476197519911"	244076
1	0	"Chromosome"	"S20_LN:i:80314_dp:f:1.1177102891808113"	80314
1	0	"Chromosome"	"S21_LN:i:71973_dp:f:1.0412171407426873"	71973
0	1	"Plasmid"	"S22_LN:i:68783_dp:f:1.0251320645332687"	68783
1	0	"Chromosome"	"S23_LN:i:66746_dp:f:1.0897897291491498"	66746
1	0	"Chromosome"	"S24_LN:i:65562_dp:f:1.1372025617239399"	65562
1	0	"Chromosome"	"S25_LN:i:64567_dp:f:1.029872899347582"	64567
1	0	"Chromosome"	"S26_LN:i:62083_dp:f:0.8926077054521814"	62083
1	0	"Chromosome"	"S27_LN:i:58900_dp:f:0.9065272184967005"	58900
1	0	"Chromosome"	"S28_LN:i:57517_dp:f:1.0085727419295234"	57517
1	0	"Chromosome"	"S29_LN:i:56222_dp:f:0.9511128692443808"	56222
1	0	"Chromosome"	"S3_LN:i:234635_dp:f:0.888244750544616"	234635
1	0	"Chromosome"	"S30_LN:i:55199_dp:f:1.0759138443313743"	55199
1	0	"Chromosome"	"S31_LN:i:54892_dp:f:1.1242502484397934"	54892
1	0	"Chromosome"	"S32_LN:i:50970_dp:f:1.1375218804497642"	50970
1	0	"Chromosome"	"S33_LN:i:47564_dp:f:1.0768404722777896"	47564
1	0	"Chromosome"	"S34_LN:i:41591_dp:f:0.9332570001069111"	41591
1	0	"Chromosome"	"S35_LN:i:39528_dp:f:1.1576177945181405"	39528
1	0	"Chromosome"	"S36_LN:i:37592_dp:f:0.8783733013488231"	37592
1	0	"Chromosome"	"S37_LN:i:32838_dp:f:1.1341799493724845"	32838
1	0	"Chromosome"	"S38_LN:i:30733_dp:f:1.1034408148065102"	30733
1	0	"Chromosome"	"S39_LN:i:30103_dp:f:0.9920599369805703"	30103
1	0	"Chromosome"	"S4_LN:i:224240_dp:f:1.0"	224240
1	0	"Chromosome"	"S40_LN:i:29786_dp:f:1.130067900947109"	29786
1	0	"Chromosome"	"S41_LN:i:29070_dp:f:0.9301653621634869"	29070
1	0	"Chromosome"	"S42_LN:i:28826_dp:f:1.1056825407644497"	28826
1	0	"Chromosome"	"S43_LN:i:27427_dp:f:1.1005021503230286"	27427
1	0	"Chromosome"	"S44_LN:i:27354_dp:f:0.9464675038611604"	27354
1	0	"Chromosome"	"S45_LN:i:24795_dp:f:0.9207748395195813"	24795
1	0	"Chromosome"	"S46_LN:i:24352_dp:f:1.0208166551401796"	24352
1	0	"Chromosome"	"S47_LN:i:20941_dp:f:1.1371090354926863"	20941
1	0	"Chromosome"	"S48_LN:i:20568_dp:f:0.8931275227909939"	20568
1	0	"Chromosome"	"S49_LN:i:20157_dp:f:0.9855209710557435"	20157
1	0	"Chromosome"	"S5_LN:i:221182_dp:f:0.9125490939186995"	221182
1	0	"Chromosome"	"S50_LN:i:19909_dp:f:0.9221737649654379"	19909
1	0	"Chromosome"	"S51_LN:i:19762_dp:f:0.860278879193401"	19762
1	0	"Chromosome"	"S52_LN:i:19257_dp:f:1.0617897023850507"	19257
1	0	"Chromosome"	"S53_LN:i:17450_dp:f:1.1227414394507091"	17450
1	0	"Chromosome"	"S54_LN:i:16609_dp:f:1.1089815563154082"	16609
1	0	"Chromosome"	"S55_LN:i:15857_dp:f:1.107500265858642"	15857
1	0	"Chromosome"	"S56_LN:i:15745_dp:f:0.9769746296233489"	15745
1	0	"Chromosome"	"S57_LN:i:13745_dp:f:1.1209215092744902"	13745
1	0	"Chromosome"	"S58_LN:i:11315_dp:f:1.139857361869916"	11315
1	0	"Chromosome"	"S59_LN:i:10922_dp:f:1.0391858488050687"	10922
1	0	"Chromosome"	"S6_LN:i:219810_dp:f:0.9494789109689505"	219810
1	0	"Chromosome"	"S60_LN:i:8948_dp:f:0.9707386306159408"	8948
0	1	"Plasmid"	"S61_LN:i:7461_dp:f:6.510362027306515"	7461
1	0	"Chromosome"	"S62_LN:i:6435_dp:f:1.0882939207316495"	6435
1	0	"Chromosome"	"S63_LN:i:4419_dp:f:0.995655730213056"	4419
1	0	"Chromosome"	"S64_LN:i:4316_dp:f:1.2100966312858332"	4316
1	0	"Chromosome"	"S65_LN:i:3864_dp:f:1.1628324167827653"	3864
1	0	"Chromosome"	"S66_LN:i:2938_dp:f:7.526511616532693"	2938
1	0	"Chromosome"	"S67_LN:i:2857_dp:f:0.9936339906621925"	2857
1	0	"Chromosome"	"S68_LN:i:2789_dp:f:0.94155454953852"	2789
0.33	0.67	"Plasmid"	"S69_LN:i:2524_dp:f:6.138679156604493"	2524
1	0	"Chromosome"	"S7_LN:i:209170_dp:f:1.0477165261219346"	209170
1	0	"Chromosome"	"S70_LN:i:2475_dp:f:2.6952312148235227"	2475
1	0	"Chromosome"	"S71_LN:i:2135_dp:f:1.4493986996017407"	2135
0	1	"Plasmid"	"S72_LN:i:2089_dp:f:8.396100558303408"	2089
0.5	0.5	"Plasmid"	"S73_LN:i:1955_dp:f:2.20047508277215"	1955
1	0	"Chromosome"	"S74_LN:i:1843_dp:f:1.3447046416691535"	1843
1	0	"Chromosome"	"S75_LN:i:1817_dp:f:1.058424439086954"	1817
1	0	"Chromosome"	"S76_LN:i:1475_dp:f:0.9992081987942991"	1475
1	0	"Chromosome"	"S77_LN:i:1344_dp:f:1.9004006015935628"	1344
0.5	0.5	"Plasmid"	"S78_LN:i:1318_dp:f:2.8636226726550533"	1318
1	0	"Chromosome"	"S79_LN:i:1283_dp:f:6.7058648598845965"	1283
1	0	"Chromosome"	"S8_LN:i:153980_dp:f:1.0038103923469164"	153980
1	0	"Chromosome"	"S80_LN:i:1258_dp:f:4.546380245910199"	1258
1	0	"Chromosome"	"S81_LN:i:1223_dp:f:2.382175384439322"	1223
1	0	"Chromosome"	"S82_LN:i:1205_dp:f:1.9250013624673203"	1205
1	0	"Chromosome"	"S83_LN:i:1191_dp:f:1.0152737741423312"	1191
1	0	"Chromosome"	"S84_LN:i:1133_dp:f:1.783413804256062"	1133
0.5	0.5	"Plasmid"	"S85_LN:i:1040_dp:f:5.778645497595279"	1040
1	0	"Chromosome"	"S86_LN:i:1031_dp:f:2.1246971349259653"	1031
1	0	"Chromosome"	"S87_LN:i:848_dp:f:1.4706601766860832"	848
0.5	0.5	"Plasmid"	"S88_LN:i:820_dp:f:2.074545680084541"	820
1	0	"Chromosome"	"S89_LN:i:676_dp:f:3.0601706455853304"	676
1	0	"Chromosome"	"S9_LN:i:147219_dp:f:1.0915397547001309"	147219
0.5	0.5	"Plasmid"	"S90_LN:i:560_dp:f:21.792293767777835"	560
