GCA_014170595.1_ASM1417059v1,GCA_014170595.1_ASM1417059v1_bin_2,CP059905.1,45075,70549
GCA_014170595.1_ASM1417059v1,GCA_014170595.1_ASM1417059v1_bin_2,CP059906.1,25459,70549
GCA_014170595.1_ASM1417059v1,GCA_014170595.1_ASM1417059v1_bin_3,no_correct_alignments,0,0
GCA_014170595.1_ASM1417059v1,GCA_014170595.1_ASM1417059v1_bin_1,CP059906.1,70336,116660
GCA_014170595.1_ASM1417059v1,GCA_014170595.1_ASM1417059v1_bin_1,CP059905.1,46212,116660
GCA_014170595.1_ASM1417059v1,GCA_014170595.1_ASM1417059v1_bin_Unbinned,CP059905.1,40403,40405
GCA_013795065.1_ASM1379506v1,GCA_013795065.1_ASM1379506v1_bin_2,CP056865.1,36134,36134
GCA_013795065.1_ASM1379506v1,GCA_013795065.1_ASM1379506v1_bin_1,CP056866.1,42668,42668
GCA_013823335.1_ASM1382333v1,GCA_013823335.1_ASM1382333v1_bin_4,CP057183.1,1603,1603
GCA_013823335.1_ASM1382333v1,GCA_013823335.1_ASM1382333v1_bin_3,CP057182.1,2519,2519
GCA_013823335.1_ASM1382333v1,GCA_013823335.1_ASM1382333v1_bin_1,CP057180.1,46794,111103
GCA_013823335.1_ASM1382333v1,GCA_013823335.1_ASM1382333v1_bin_1,CP057179.1,64309,111103
GCA_013823335.1_ASM1382333v1,GCA_013823335.1_ASM1382333v1_bin_2,CP057181.1,2898,2974
GCA_013823335.1_ASM1382333v1,GCA_013823335.1_ASM1382333v1_bin_5,CP057184.1,1552,1552
GCA_013728735.1_ASM1372873v1,GCA_013728735.1_ASM1372873v1_bin_1,CP056274.1,13264,16240
GCA_013728735.1_ASM1372873v1,GCA_013728735.1_ASM1372873v1_bin_1,CP056273.1,2976,16240
GCA_013728735.1_ASM1372873v1,GCA_013728735.1_ASM1372873v1_bin_4,CP056273.1,6101,6101
GCA_013728735.1_ASM1372873v1,GCA_013728735.1_ASM1372873v1_bin_3,CP056274.1,53470,53470
GCA_013728735.1_ASM1372873v1,GCA_013728735.1_ASM1372873v1_bin_2,CP056274.1,31941,31968
GCA_014170975.1_ASM1417097v1,GCA_014170975.1_ASM1417097v1_bin_Unbinned,CP059950.1,6122,11223
GCA_014170975.1_ASM1417097v1,GCA_014170975.1_ASM1417097v1_bin_Unbinned,CP059951.1,5101,11223
GCA_014170975.1_ASM1417097v1,GCA_014170975.1_ASM1417097v1_bin_1,CP059948.1,133058,133078
GCA_014170975.1_ASM1417097v1,GCA_014170975.1_ASM1417097v1_bin_2,CP059952.1,1506,1506
GCA_014109625.1_ASM1410962v1,GCA_014109625.1_ASM1410962v1_bin_2,CP058091.1,84399,84399
GCA_014109625.1_ASM1410962v1,GCA_014109625.1_ASM1410962v1_bin_1,CP058092.1,69173,69173
GCA_013829905.1_ASM1382990v1,GCA_013829905.1_ASM1382990v1_bin_1,CP057379.1,32692,32692
GCA_014170615.1_ASM1417061v1,GCA_014170615.1_ASM1417061v1_bin_Unbinned,CP059909.1,53094,61222
GCA_014170615.1_ASM1417061v1,GCA_014170615.1_ASM1417061v1_bin_Unbinned,CP059910.1,8124,61222
GCA_014170615.1_ASM1417061v1,GCA_014170615.1_ASM1417061v1_bin_3,CP059909.1,43524,63805
GCA_014170615.1_ASM1417061v1,GCA_014170615.1_ASM1417061v1_bin_3,CP059908.1,20275,63805
GCA_014170615.1_ASM1417061v1,GCA_014170615.1_ASM1417061v1_bin_2,CP059910.1,83061,83061
GCA_014170615.1_ASM1417061v1,GCA_014170615.1_ASM1417061v1_bin_1,CP059908.1,143734,143739
GCA_013729295.1_ASM1372929v1,GCA_013729295.1_ASM1372929v1_bin_1,CP056279.1,55049,99312
GCA_013729295.1_ASM1372929v1,GCA_013729295.1_ASM1372929v1_bin_1,CP056280.1,44263,99312
GCA_013729295.1_ASM1372929v1,GCA_013729295.1_ASM1372929v1_bin_2,CP056281.1,4074,4074
GCA_013886475.1_ASM1388647v1,GCA_013886475.1_ASM1388647v1_bin_Unbinned,CP057572.1,87552,174764
GCA_013886475.1_ASM1388647v1,GCA_013886475.1_ASM1388647v1_bin_Unbinned,CP057571.1,86614,174764
GCA_013886475.1_ASM1388647v1,GCA_013886475.1_ASM1388647v1_bin_1,CP057573.1,4430,4671
GCA_013791985.1_ASM1379198v1,GCA_013791985.1_ASM1379198v1_bin_2,CP056845.1,46419,46419
GCA_013791985.1_ASM1379198v1,GCA_013791985.1_ASM1379198v1_bin_1,CP056844.1,51081,133061
GCA_013791985.1_ASM1379198v1,GCA_013791985.1_ASM1379198v1_bin_1,CP056843.1,78567,133061
GCA_013791985.1_ASM1379198v1,GCA_013791985.1_ASM1379198v1_bin_1,CP056842.1,3413,133061
GCA_013790145.1_ASM1379014v1,GCA_013790145.1_ASM1379014v1_bin_1,CP056794.1,60287,60287
GCA_013790145.1_ASM1379014v1,GCA_013790145.1_ASM1379014v1_bin_5,CP056799.1,41391,41391
GCA_013790145.1_ASM1379014v1,GCA_013790145.1_ASM1379014v1_bin_3,CP056795.1,201176,201176
GCA_013790145.1_ASM1379014v1,GCA_013790145.1_ASM1379014v1_bin_2,CP056798.1,62520,146900
GCA_013790145.1_ASM1379014v1,GCA_013790145.1_ASM1379014v1_bin_2,CP056797.1,84344,146900
GCA_013790145.1_ASM1379014v1,GCA_013790145.1_ASM1379014v1_bin_4,CP056796.1,86430,86505
GCA_014169595.1_ASM1416959v1,GCA_014169595.1_ASM1416959v1_bin_1,AP022219.1,1521,1521
GCA_014169595.1_ASM1416959v1,GCA_014169595.1_ASM1416959v1_bin_4,AP022216.1,90632,90733
GCA_014169595.1_ASM1416959v1,GCA_014169595.1_ASM1416959v1_bin_3,AP022217.1,91103,91103
GCA_014169595.1_ASM1416959v1,GCA_014169595.1_ASM1416959v1_bin_2,AP022220.1,1465,1507
GCA_014170695.1_ASM1417069v1,GCA_014170695.1_ASM1417069v1_bin_1,CP059923.1,63421,77442
GCA_014170695.1_ASM1417069v1,GCA_014170695.1_ASM1417069v1_bin_1,CP059924.1,13937,77442
GCA_014170695.1_ASM1417069v1,GCA_014170695.1_ASM1417069v1_bin_Unbinned,CP059924.1,24209,50829
GCA_014170695.1_ASM1417069v1,GCA_014170695.1_ASM1417069v1_bin_Unbinned,CP059923.1,26609,50829
GCA_014170695.1_ASM1417069v1,GCA_014170695.1_ASM1417069v1_bin_2,CP059924.1,13549,18222
GCA_014170695.1_ASM1417069v1,GCA_014170695.1_ASM1417069v1_bin_2,CP059923.1,4418,18222
GCA_014170695.1_ASM1417069v1,GCA_014170695.1_ASM1417069v1_bin_4,CP059923.1,10589,10590
GCA_014170695.1_ASM1417069v1,GCA_014170695.1_ASM1417069v1_bin_3,CP059924.1,48301,56666
GCA_014170695.1_ASM1417069v1,GCA_014170695.1_ASM1417069v1_bin_3,CP059923.1,8352,56666
GCA_013824985.1_ASM1382498v1,GCA_013824985.1_ASM1382498v1_bin_4,CP057291.1,4866,5128
GCA_013824985.1_ASM1382498v1,GCA_013824985.1_ASM1382498v1_bin_3,CP057290.1,25449,25449
GCA_013824985.1_ASM1382498v1,GCA_013824985.1_ASM1382498v1_bin_1,CP057289.1,76327,84651
GCA_013824985.1_ASM1382498v1,GCA_013824985.1_ASM1382498v1_bin_1,CP057290.1,8324,84651
GCA_013824985.1_ASM1382498v1,GCA_013824985.1_ASM1382498v1_bin_2,CP057288.1,178621,178621
GCA_013824985.1_ASM1382498v1,GCA_013824985.1_ASM1382498v1_bin_2,CP057287.1,6489,178621
GCA_013824985.1_ASM1382498v1,GCA_013824985.1_ASM1382498v1_bin_5,CP057292.1,3126,3126
GCA_013801205.1_ASM1380120v1,GCA_013801205.1_ASM1380120v1_bin_2,CP056956.1,111144,111144
GCA_013801205.1_ASM1380120v1,GCA_013801205.1_ASM1380120v1_bin_1,CP056956.1,31505,31505
GCA_013801205.1_ASM1380120v1,GCA_013801205.1_ASM1380120v1_bin_Unbinned,CP056958.1,5609,15475
GCA_013801205.1_ASM1380120v1,GCA_013801205.1_ASM1380120v1_bin_Unbinned,CP056957.1,5446,15475
GCA_013801205.1_ASM1380120v1,GCA_013801205.1_ASM1380120v1_bin_Unbinned,CP056959.1,4420,15475
GCA_013801205.1_ASM1380120v1,GCA_013801205.1_ASM1380120v1_bin_3,CP056960.1,3743,3743
GCA_013996855.1_ASM1399685v1,GCA_013996855.1_ASM1399685v1_bin_Unbinned,CP058032.1,112182,118752
GCA_013996855.1_ASM1399685v1,GCA_013996855.1_ASM1399685v1_bin_Unbinned,CP058031.1,6570,118752
GCA_013996855.1_ASM1399685v1,GCA_013996855.1_ASM1399685v1_bin_1,CP058033.1,6768,6768
GCA_013996855.1_ASM1399685v1,GCA_013996855.1_ASM1399685v1_bin_3,CP058035.1,2460,2460
GCA_013996855.1_ASM1399685v1,GCA_013996855.1_ASM1399685v1_bin_2,CP058034.1,4664,4664
GCA_013790405.1_ASM1379040v1,GCA_013790405.1_ASM1379040v1_bin_2,CP056820.1,36067,36067
GCA_013790405.1_ASM1379040v1,GCA_013790405.1_ASM1379040v1_bin_1,CP056818.1,67507,170560
GCA_013790405.1_ASM1379040v1,GCA_013790405.1_ASM1379040v1_bin_1,CP056819.1,67664,170560
GCA_013790405.1_ASM1379040v1,GCA_013790405.1_ASM1379040v1_bin_1,CP056817.1,35389,170560
GCA_013837755.1_ASM1383775v1,GCA_013837755.1_ASM1383775v1_bin_5,CP057499.1,1551,1551
GCA_013837755.1_ASM1383775v1,GCA_013837755.1_ASM1383775v1_bin_1,CP057494.1,133673,133673
GCA_013837755.1_ASM1383775v1,GCA_013837755.1_ASM1383775v1_bin_2,CP057496.1,4958,4958
GCA_013837755.1_ASM1383775v1,GCA_013837755.1_ASM1383775v1_bin_Unbinned,CP057497.1,3876,3876
GCA_013837755.1_ASM1383775v1,GCA_013837755.1_ASM1383775v1_bin_4,CP057498.1,2590,2590
GCA_013837755.1_ASM1383775v1,GCA_013837755.1_ASM1383775v1_bin_3,CP057495.1,6826,6826
GCA_013748455.1_ASM1374845v1,GCA_013748455.1_ASM1374845v1_bin_1,CP056472.1,53305,130139
GCA_013748455.1_ASM1374845v1,GCA_013748455.1_ASM1374845v1_bin_1,CP056471.1,69231,130139
GCA_013748455.1_ASM1374845v1,GCA_013748455.1_ASM1374845v1_bin_1,CP056470.1,7603,130139
GCA_013802065.1_ASM1380206v1,GCA_013802065.1_ASM1380206v1_bin_2,CP056975.1,27554,77268
GCA_013802065.1_ASM1380206v1,GCA_013802065.1_ASM1380206v1_bin_2,CP056977.1,10984,77268
GCA_013802065.1_ASM1380206v1,GCA_013802065.1_ASM1380206v1_bin_2,CP056976.1,38730,77268
GCA_013802065.1_ASM1380206v1,GCA_013802065.1_ASM1380206v1_bin_9,CP056981.1,3751,3751
GCA_013802065.1_ASM1380206v1,GCA_013802065.1_ASM1380206v1_bin_7,CP056979.1,4072,4072
GCA_013802065.1_ASM1380206v1,GCA_013802065.1_ASM1380206v1_bin_6,CP056984.1,1011,1087
GCA_013802065.1_ASM1380206v1,GCA_013802065.1_ASM1380206v1_bin_8,CP056980.1,4018,4018
GCA_013802065.1_ASM1380206v1,GCA_013802065.1_ASM1380206v1_bin_4,CP056975.1,15890,72011
GCA_013802065.1_ASM1380206v1,GCA_013802065.1_ASM1380206v1_bin_4,CP056977.1,32704,72011
GCA_013802065.1_ASM1380206v1,GCA_013802065.1_ASM1380206v1_bin_4,CP056974.1,23417,72011
GCA_013802065.1_ASM1380206v1,GCA_013802065.1_ASM1380206v1_bin_1,CP056978.1,47878,47878
GCA_013802065.1_ASM1380206v1,GCA_013802065.1_ASM1380206v1_bin_3,CP056977.1,4803,4803
GCA_013802065.1_ASM1380206v1,GCA_013802065.1_ASM1380206v1_bin_10,CP056982.1,2601,2601
GCA_013802065.1_ASM1380206v1,GCA_013802065.1_ASM1380206v1_bin_5,CP056983.1,1024,1100
GCA_014169415.1_ASM1416941v1,GCA_014169415.1_ASM1416941v1_bin_1,AP022163.1,92181,92181
GCA_014169415.1_ASM1416941v1,GCA_014169415.1_ASM1416941v1_bin_Unbinned,AP022165.1,3864,6358
GCA_014169415.1_ASM1416941v1,GCA_014169415.1_ASM1416941v1_bin_Unbinned,AP022166.1,2494,6358
GCA_014169415.1_ASM1416941v1,GCA_014169415.1_ASM1416941v1_bin_5,AP022170.1,2088,2088
GCA_014169415.1_ASM1416941v1,GCA_014169415.1_ASM1416941v1_bin_2,AP022162.1,128062,128080
GCA_014169415.1_ASM1416941v1,GCA_014169415.1_ASM1416941v1_bin_6,no_correct_alignments,0,0
GCA_014169415.1_ASM1416941v1,GCA_014169415.1_ASM1416941v1_bin_4,AP022167.1,5167,5167
GCA_014169415.1_ASM1416941v1,GCA_014169415.1_ASM1416941v1_bin_3,AP022164.1,47454,47454
GCA_013824345.1_ASM1382434v1,GCA_013824345.1_ASM1382434v1_bin_3,CP057199.1,3487,3487
GCA_013824345.1_ASM1382434v1,GCA_013824345.1_ASM1382434v1_bin_1,CP057195.1,105477,105479
GCA_013824345.1_ASM1382434v1,GCA_013824345.1_ASM1382434v1_bin_2,CP057196.1,64686,64686
GCA_013795795.1_ASM1379579v1,GCA_013795795.1_ASM1379579v1_bin_1,CP056875.1,50907,108869
GCA_013795795.1_ASM1379579v1,GCA_013795795.1_ASM1379579v1_bin_1,CP056874.1,50359,108869
GCA_013795795.1_ASM1379579v1,GCA_013795795.1_ASM1379579v1_bin_1,CP056873.1,7603,108869
GCA_013829445.1_ASM1382944v1,GCA_013829445.1_ASM1382944v1_bin_1,CP057370.1,39610,39610
GCA_013829445.1_ASM1382944v1,GCA_013829445.1_ASM1382944v1_bin_2,CP057369.1,107288,107288
