GCA_014169995.1_ASM1416999v1,CP054282.1,4655853,62.0
GCA_014169995.1_ASM1416999v1,CP054284.1,33415,2.0
GCA_013899745.1_ASM1389974v1,CP057905.1,4969060,132.0
GCA_013804445.1_ASM1380444v1,CP057020.1,5010322,147.0
GCA_013804445.1_ASM1380444v1,CP057021.1,54502,1
GCA_013815865.1_ASM1381586v1,CP057139.1,4838546,99.0
GCA_013815865.1_ASM1381586v1,CP057140.1,103357,6.0
GCA_013727815.1_ASM1372781v1,CP056263.1,4906977,114.0
GCA_013727815.1_ASM1372781v1,CP056264.1,73251,6.0
GCA_013727815.1_ASM1372781v1,CP056265.1,49799,11.0
GCA_013727815.1_ASM1372781v1,CP056266.1,7939,1
GCA_013803745.1_ASM1380374v1,CP057012.1,4854757,60.0
GCA_013803745.1_ASM1380374v1,CP057013.1,89314,3.0
GCA_013835785.1_ASM1383578v1,CP057475.1,4788052,89.0
GCA_013835785.1_ASM1383578v1,CP057476.1,98077,1
GCA_013835785.1_ASM1383578v1,CP057478.1,56860,1
GCA_013835785.1_ASM1383578v1,CP057477.1,82029,6.0
GCA_013744185.1_ASM1374418v1,CP056655.1,4702611,102.0
GCA_013744185.1_ASM1374418v1,CP056656.1,114483,4.0
GCA_013744185.1_ASM1374418v1,CP056657.1,4401,1
GCA_013744185.1_ASM1374418v1,CP056658.1,4315,1
GCA_013744185.1_ASM1374418v1,CP056659.1,4161,1
GCA_013744185.1_ASM1374418v1,CP056660.1,3569,1
GCA_013744185.1_ASM1374418v1,CP056661.1,2865,1
GCA_013797825.1_ASM1379782v1,CP056902.1,5071191,148.0
GCA_013797825.1_ASM1379782v1,CP056904.1,92533,4.0
GCA_013797825.1_ASM1379782v1,CP056903.1,121790,25.0
GCA_013797825.1_ASM1379782v1,CP056905.1,3789,1
GCA_013797825.1_ASM1379782v1,CP056906.1,1565,1
GCA_013899145.1_ASM1389914v1,CP057843.1,4782534,125.0
GCA_013899145.1_ASM1389914v1,CP057846.1,90767,1
GCA_013899145.1_ASM1389914v1,CP057844.1,127895,13.0
GCA_013899145.1_ASM1389914v1,CP057845.1,91863,6.0
GCA_013899145.1_ASM1389914v1,CP057847.1,6668,1
GCA_013899145.1_ASM1389914v1,CP057848.1,6230,1
GCA_014168735.1_ASM1416873v1,AP021944.1,4740046,76.0
GCA_014168735.1_ASM1416873v1,AP021945.1,101606,4.0
GCA_013729295.1_ASM1372929v1,CP056278.1,4761829,107.0
GCA_013729295.1_ASM1372929v1,CP056279.1,57977,5.0
GCA_013729295.1_ASM1372929v1,CP056280.1,48949,5.0
GCA_013729295.1_ASM1372929v1,CP056281.1,4074,1
GCA_014169915.1_ASM1416991v1,AP022298.1,5008223,127.0
GCA_014169915.1_ASM1416991v1,AP022299.1,99365,20.0
GCA_014169915.1_ASM1416991v1,AP022300.1,61815,20.0
GCA_014169915.1_ASM1416991v1,AP022301.1,7936,1
GCA_013890395.1_ASM1389039v1,CP057621.1,5001162,131.0
GCA_013890395.1_ASM1389039v1,CP057623.1,97938,1
GCA_013890395.1_ASM1389039v1,CP057622.1,115957,11.0
GCA_013890395.1_ASM1389039v1,CP057624.1,6647,1
GCA_013890395.1_ASM1389039v1,CP057625.1,4671,1
GCA_013922765.1_ASM1392276v1,CP058019.1,4742986,102.0
GCA_013922765.1_ASM1392276v1,CP058020.1,143696,2.0
GCA_013922765.1_ASM1392276v1,CP058021.1,94057,2.0
GCA_013922765.1_ASM1392276v1,CP058022.1,8873,1
GCA_013731515.1_ASM1373151v1,CP056304.1,5142776,89.0
GCA_013731515.1_ASM1373151v1,CP056305.1,118153,16.0
GCA_013731515.1_ASM1373151v1,CP056306.1,4074,1
GCA_013825245.1_ASM1382524v1,CP057293.1,4998096,192.0
GCA_013825245.1_ASM1382524v1,CP057294.1,115961,3.0
GCA_013825245.1_ASM1382524v1,CP057295.1,90345,14.0
GCA_013825245.1_ASM1382524v1,CP057296.1,66524,15.0
GCA_013825245.1_ASM1382524v1,CP057297.1,54669,10.0
GCA_013825245.1_ASM1382524v1,CP057299.1,4674,1
GCA_013825245.1_ASM1382524v1,CP057300.1,5962,2.0
GCA_013825245.1_ASM1382524v1,CP057301.1,5775,2.0
GCA_013825245.1_ASM1382524v1,CP057298.1,1951,1
GCA_014169095.1_ASM1416909v1,AP022064.1,4911178,102.0
GCA_014169095.1_ASM1416909v1,AP022066.1,86403,4.0
GCA_014169095.1_ASM1416909v1,AP022065.1,110842,20.0
GCA_014169095.1_ASM1416909v1,AP022067.1,4816,1
GCA_014169095.1_ASM1416909v1,AP022068.1,4087,1
GCA_014109025.1_ASM1410902v1,CP058052.1,4406756,131.0
GCA_014109025.1_ASM1410902v1,CP058053.1,44862,11.0
GCA_014109025.1_ASM1410902v1,CP058054.1,37377,10.0
GCA_014109025.1_ASM1410902v1,CP058055.1,7431,1
GCA_014109025.1_ASM1410902v1,CP058056.1,2455,1
GCA_014131495.1_ASM1413149v1,CP048853.1,4965875,95.0
GCA_014131495.1_ASM1413149v1,CP048854.1,112675,7.0
GCA_013893695.1_ASM1389369v1,CP057684.1,4659860,71.0
GCA_013893695.1_ASM1389369v1,CP057685.1,112153,1
GCA_013795795.1_ASM1379579v1,CP056873.1,5195972,113.0
GCA_013795795.1_ASM1379579v1,CP056875.1,59706,10.0
GCA_013795795.1_ASM1379579v1,CP056874.1,68318,17.0
GCA_013815445.1_ASM1381544v1,CP057137.1,4840692,102.0
GCA_013815445.1_ASM1381544v1,CP057138.1,86321,2.0
GCA_014170975.1_ASM1417097v1,CP059947.1,4810894,119.75
GCA_014170975.1_ASM1417097v1,CP059949.1,36893,0.25
GCA_014170975.1_ASM1417097v1,CP059948.1,133059,8.0
GCA_014170975.1_ASM1417097v1,CP059950.1,6122,1
GCA_014170975.1_ASM1417097v1,CP059951.1,5101,1
GCA_014170975.1_ASM1417097v1,CP059952.1,1506,1
GCA_013803905.1_ASM1380390v1,CP057016.1,4854715,59.0
GCA_013803905.1_ASM1380390v1,CP057017.1,89314,3.0
GCA_014131535.1_ASM1413153v1,CP048857.1,5119568,103.0
GCA_014131535.1_ASM1413153v1,CP048858.1,111378,10.0
GCA_014131535.1_ASM1413153v1,CP048859.1,5219,1
GCA_013752295.1_ASM1375229v1,CP056618.1,4696808,113.0
GCA_013752295.1_ASM1375229v1,CP056619.1,110691,1
GCA_013827205.1_ASM1382720v1,CP057336.1,4923713,59.0
GCA_013827205.1_ASM1382720v1,CP057337.1,9653,1
GCA_013827205.1_ASM1382720v1,CP057338.1,6930,1
GCA_013827205.1_ASM1382720v1,CP057339.1,1551,1
GCA_013784085.1_ASM1378408v1,CP056392.1,4691735,74.0
GCA_013790405.1_ASM1379040v1,CP056816.1,5209786,97.0
GCA_013790405.1_ASM1379040v1,CP056818.1,75398,8.0
GCA_013790405.1_ASM1379040v1,CP056817.1,73157,5.0
GCA_013790405.1_ASM1379040v1,CP056820.1,36067,1
GCA_013790405.1_ASM1379040v1,CP056819.1,72843,9.0
GCA_013886735.1_ASM1388673v1,CP057580.1,4872167,52.0
GCA_013886735.1_ASM1388673v1,CP057581.1,51812,7.0
GCA_013888235.1_ASM1388823v1,CP057600.1,4755577,79.0
GCA_013888235.1_ASM1388823v1,CP057601.1,63875,1
GCA_013888235.1_ASM1388823v1,CP057602.1,3524,1
GCA_014169155.1_ASM1416915v1,AP022095.1,4869797,122.0
GCA_014169155.1_ASM1416915v1,AP022096.1,155099,6.0
GCA_014169155.1_ASM1416915v1,AP022097.1,88753,3.0
GCA_013899525.1_ASM1389952v1,CP057878.1,4813688,43.0
GCA_013824345.1_ASM1382434v1,CP057194.1,4919263,115.0
GCA_013824345.1_ASM1382434v1,CP057195.1,110042,6.0
GCA_013824345.1_ASM1382434v1,CP057196.1,71668,6.0
GCA_013824345.1_ASM1382434v1,CP057198.1,6275,1
GCA_013824345.1_ASM1382434v1,CP057197.1,5484,1
GCA_013824345.1_ASM1382434v1,CP057199.1,3487,1
GCA_013823975.1_ASM1382397v1,CP057190.1,4930859,91.0
GCA_013823975.1_ASM1382397v1,CP057191.1,101468,1
GCA_013832965.1_ASM1383296v1,CP057438.1,4675610,100.0
GCA_013832965.1_ASM1383296v1,CP057439.1,95081,1
GCA_013832965.1_ASM1383296v1,CP057440.1,52356,2.0
GCA_013821185.1_ASM1382118v1,CP057250.1,4907844,86.0
GCA_013821185.1_ASM1382118v1,CP057251.1,110561,1
GCA_013821185.1_ASM1382118v1,CP057252.1,109232,7.0
GCA_013821185.1_ASM1382118v1,CP057253.1,4671,1
GCA_014169615.1_ASM1416961v1,AP022222.1,4901843,94.0
GCA_014169615.1_ASM1416961v1,AP022224.1,82986,3.0
GCA_014169615.1_ASM1416961v1,AP022223.1,102067,25.0
GCA_014169615.1_ASM1416961v1,AP022225.1,43960,15.0
GCA_014169615.1_ASM1416961v1,AP022226.1,5473,1
GCA_013812225.1_ASM1381222v1,CP057075.1,5102560,308.0
GCA_013812225.1_ASM1381222v1,CP057077.1,46685,2.0
GCA_013812225.1_ASM1381222v1,CP057076.1,98579,18.0
GCA_013812225.1_ASM1381222v1,CP057078.1,41711,6.0
GCA_013812225.1_ASM1381222v1,CP057079.1,23543,5.0
GCA_013812225.1_ASM1381222v1,CP057080.1,5973,1
GCA_013812225.1_ASM1381222v1,CP057081.1,5445,1
GCA_013812225.1_ASM1381222v1,CP057082.1,4571,1
GCA_013812225.1_ASM1381222v1,CP057084.1,1948,1
GCA_013812225.1_ASM1381222v1,CP057083.1,1005,1
GCA_013796065.1_ASM1379606v1,CP056876.1,5122087,126.0
GCA_013796065.1_ASM1379606v1,CP056877.1,143759,15.0
GCA_013741635.1_ASM1374163v1,CP056598.1,4985922,128.0
GCA_013741635.1_ASM1374163v1,CP056600.1,92972,2.0
GCA_013741635.1_ASM1374163v1,CP056599.1,110661,9.0
GCA_013741635.1_ASM1374163v1,CP056601.1,7939,1
GCA_013741635.1_ASM1374163v1,CP056602.1,4072,1
GCA_013741635.1_ASM1374163v1,CP056603.1,1552,1
GCA_014109005.1_ASM1410900v1,CP058046.1,4407242,132.0
GCA_014109005.1_ASM1410900v1,CP058047.1,44862,11.0
GCA_014109005.1_ASM1410900v1,CP058048.1,37375,10.0
GCA_014109005.1_ASM1410900v1,CP058049.1,7430,1
GCA_014109005.1_ASM1410900v1,CP058050.1,2460,1
GCA_014109005.1_ASM1410900v1,CP058051.1,1552,1
GCA_013806525.1_ASM1380652v1,CP057050.1,4949625,55.0
GCA_013806525.1_ASM1380652v1,CP057052.1,92057,2.0
GCA_013806525.1_ASM1380652v1,CP057051.1,127009,9.0
GCA_013806525.1_ASM1380652v1,CP057053.1,37909,2.0
GCA_013806525.1_ASM1380652v1,CP057054.1,4671,1
GCA_013742835.1_ASM1374283v1,CP056625.1,4834995,211.0
GCA_013742835.1_ASM1374283v1,CP056627.1,110066,24.0
GCA_013742835.1_ASM1374283v1,CP056626.1,120598,34.0
GCA_013742835.1_ASM1374283v1,CP056628.1,4075,1
GCA_013742835.1_ASM1374283v1,CP056629.1,4018,1
GCA_013742835.1_ASM1374283v1,CP056630.1,1917,1
GCA_013742835.1_ASM1374283v1,CP056631.1,1610,1
GCA_013884935.1_ASM1388493v1,CP057535.1,4810301,108.0
GCA_013884935.1_ASM1388493v1,CP057536.1,104813,9.0
GCA_013884935.1_ASM1388493v1,CP057537.1,6930,1
GCA_013884935.1_ASM1388493v1,CP057538.1,4721,1
GCA_013601135.1_ASM1360113v1,CP055713.1,5022384,127.0
GCA_013601135.1_ASM1360113v1,CP055714.1,71264,1
GCA_013601135.1_ASM1360113v1,CP055715.1,37616,1
GCA_013601135.1_ASM1360113v1,CP055716.1,6809,1
GCA_013601135.1_ASM1360113v1,CP055717.1,1549,1
GCA_011849985.2_ASM1184998v2,CP058233.1,5093222,181.0
GCA_011849985.2_ASM1184998v2,CP058234.1,87408,6.0
GCA_013740395.1_ASM1374039v1,CP056446.1,4819463,118.0
GCA_013740395.1_ASM1374039v1,CP056447.1,92321,3.0
GCA_013740395.1_ASM1374039v1,CP056448.1,47782,11.0
GCA_013740395.1_ASM1374039v1,CP056449.1,6200,1
GCA_013740395.1_ASM1374039v1,CP056450.1,4034,1
GCA_014168675.1_ASM1416867v1,AP021933.1,4889427,72.0
GCA_014168675.1_ASM1416867v1,AP021934.1,101017,7.0
GCA_013602835.1_ASM1360283v1,CP055724.1,4928944,127.0
GCA_013602835.1_ASM1360283v1,CP055726.1,48288,8.0
GCA_013602835.1_ASM1360283v1,CP055725.1,83285,14.0
GCA_013602835.1_ASM1360283v1,CP055727.1,6860,1
GCA_013602835.1_ASM1360283v1,CP055728.1,5978,1
GCA_013602835.1_ASM1360283v1,CP055729.1,4973,1
GCA_013602835.1_ASM1360283v1,CP055730.1,4158,1
GCA_013602835.1_ASM1360283v1,CP055731.1,3605,1
GCA_013602835.1_ASM1360283v1,CP055732.1,3142,1
GCA_013602835.1_ASM1360283v1,CP055733.1,3136,1
GCA_013602835.1_ASM1360283v1,CP055734.1,2848,1
GCA_013602835.1_ASM1360283v1,CP055735.1,2275,1
GCA_013782445.1_ASM1378244v1,CP056190.1,5140350,90.0
GCA_013750815.1_ASM1375081v1,CP056569.1,5121403,106.0
GCA_013750815.1_ASM1375081v1,CP056572.1,39529,1
GCA_013750815.1_ASM1375081v1,CP056570.1,100642,27.0
GCA_013750815.1_ASM1375081v1,CP056571.1,64865,16.0
GCA_013742135.1_ASM1374213v1,CP056613.1,5101705,154.0
GCA_013742135.1_ASM1374213v1,CP056615.1,92524,4.0
GCA_013742135.1_ASM1374213v1,CP056614.1,124082,24.0
GCA_013742135.1_ASM1374213v1,CP056616.1,4072,1
GCA_013742135.1_ASM1374213v1,CP056617.1,1565,1
GCA_011843745.2_ASM1184374v2,CP058231.1,5121180,172.0
GCA_011843745.2_ASM1184374v2,CP058232.1,87533,4.0
GCA_013834305.1_ASM1383430v1,CP057455.1,4880700,83.0
GCA_013834305.1_ASM1383430v1,CP057456.1,95064,2.0
GCA_013834305.1_ASM1383430v1,CP057457.1,6811,1
GCA_013786165.1_ASM1378616v1,CP056632.1,4802848,99.0
GCA_013786165.1_ASM1378616v1,CP056633.1,7462,1
GCA_013786165.1_ASM1378616v1,CP056634.1,4072,1
GCA_014169895.1_ASM1416989v1,AP022295.1,4608318,80.0
GCA_014169895.1_ASM1416989v1,AP022296.1,102653,4.0
GCA_014169895.1_ASM1416989v1,AP022297.1,3372,1
GCA_013899165.1_ASM1389916v1,CP057839.1,4801308,45.0
GCA_013899165.1_ASM1389916v1,CP057840.1,103068,4.0
GCA_013835585.1_ASM1383558v1,CP057473.1,5055423,175.0
GCA_013835585.1_ASM1383558v1,CP057474.1,82709,1
GCA_013823865.1_ASM1382386v1,CP057188.1,4987243,126.0
GCA_013823865.1_ASM1382386v1,CP057189.1,1551,1
GCA_013899985.1_ASM1389998v1,CP057946.1,4806677,102.0
GCA_013899985.1_ASM1389998v1,CP057947.1,99933,6.0
GCA_013899985.1_ASM1389998v1,CP057948.1,57018,3.0
GCA_013899985.1_ASM1389998v1,CP057949.1,4924,1
GCA_013899985.1_ASM1389998v1,CP057950.1,4612,1
GCA_003367885.1_ASM336788v1,CP031214.1,4543930,99.0
GCA_013748665.1_ASM1374866v1,CP056492.1,5198982,109.0
GCA_013748665.1_ASM1374866v1,CP056494.1,62302,10.0
GCA_013748665.1_ASM1374866v1,CP056493.1,59731,13.0
GCA_013888615.1_ASM1388861v1,CP057605.1,4901708,71.0
GCA_013888615.1_ASM1388861v1,CP057606.1,89809,2.0
GCA_013888615.1_ASM1388861v1,CP057607.1,2719,1
GCA_013812015.1_ASM1381201v1,CP057072.1,4607841,135.0
GCA_013812015.1_ASM1381201v1,CP057073.1,137565,1
GCA_013812015.1_ASM1381201v1,CP057074.1,3430,1
GCA_014169115.1_ASM1416911v1,AP022069.1,5175369,157.0
GCA_014169115.1_ASM1416911v1,AP022071.1,78801,3.0
GCA_014169115.1_ASM1416911v1,AP022072.1,69800,7.0
GCA_014169115.1_ASM1416911v1,AP022070.1,99040,21.0
GCA_014169115.1_ASM1416911v1,AP022073.1,5066,1
GCA_014169115.1_ASM1416911v1,AP022074.1,5167,1
GCA_014169115.1_ASM1416911v1,AP022075.1,3272,1
GCA_014169115.1_ASM1416911v1,AP022076.1,2023,1
GCA_014170595.1_ASM1417059v1,CP059904.1,5005378,125.0
GCA_014170595.1_ASM1417059v1,CP059906.1,104161,10.15
GCA_014170595.1_ASM1417059v1,CP059905.1,132971,10.85
GCA_013828065.1_ASM1382806v1,CP057347.1,5005338,104.0
GCA_013828065.1_ASM1382806v1,CP057348.1,118006,2.0
GCA_014108885.1_ASM1410888v1,CP057994.1,5241210,97.0
GCA_013818685.1_ASM1381868v1,CP057175.1,4697591,120.0
GCA_013730915.1_ASM1373091v1,CP056299.1,4778184,75.0
GCA_013730915.1_ASM1373091v1,CP056300.1,110291,1
GCA_014169175.1_ASM1416917v1,AP022098.1,5075251,104.0
GCA_014169175.1_ASM1416917v1,AP022100.1,5067,1
GCA_014169175.1_ASM1416917v1,AP022099.1,3948,1
GCA_014169175.1_ASM1416917v1,AP022102.1,3855,1
GCA_014169175.1_ASM1416917v1,AP022101.1,2679,1
GCA_014169175.1_ASM1416917v1,AP022103.1,2188,1
GCA_014169175.1_ASM1416917v1,AP022104.1,2088,1
GCA_013898135.1_ASM1389813v1,CP057778.1,4898621,103.0
GCA_013898135.1_ASM1389813v1,CP057779.1,71485,2.0
GCA_013898135.1_ASM1389813v1,CP057780.1,41696,1
GCA_013898135.1_ASM1389813v1,CP057781.1,6930,1
GCA_014058445.1_ASM1405844v1,CP058682.1,5286748,291.0
GCA_014058445.1_ASM1405844v1,CP058684.1,89589,1
GCA_014058445.1_ASM1405844v1,CP058685.1,33867,1
GCA_014058445.1_ASM1405844v1,CP058683.1,82355,16.0
GCA_014058445.1_ASM1405844v1,CP058686.1,6542,1
GCA_014058445.1_ASM1405844v1,CP058687.1,4536,1
GCA_014058445.1_ASM1405844v1,CP058688.1,2784,1
GCA_013789905.1_ASM1378990v1,CP056786.1,4724383,139.0
GCA_013789905.1_ASM1378990v1,CP056788.1,110171,4.0
GCA_013789905.1_ASM1378990v1,CP056787.1,155389,14.0
GCA_013789905.1_ASM1378990v1,CP056789.1,11271,1
GCA_013789905.1_ASM1378990v1,CP056790.1,3133,1
GCA_013789905.1_ASM1378990v1,CP056791.1,2035,1
GCA_013789905.1_ASM1378990v1,CP056792.1,1976,1
GCA_013789905.1_ASM1378990v1,CP056793.1,1551,1
GCA_014169415.1_ASM1416941v1,AP022161.1,5070443,127.0
GCA_014169415.1_ASM1416941v1,AP022163.1,93626,2.0
GCA_014169415.1_ASM1416941v1,AP022164.1,47454,1
GCA_014169415.1_ASM1416941v1,AP022162.1,135221,17.0
GCA_014169415.1_ASM1416941v1,AP022167.1,5167,1
GCA_014169415.1_ASM1416941v1,AP022165.1,3864,1
GCA_014169415.1_ASM1416941v1,AP022166.1,2494,1
GCA_014169415.1_ASM1416941v1,AP022170.1,2088,1
GCA_014169455.1_ASM1416945v1,AP022173.1,5073167,171.0
GCA_014169455.1_ASM1416945v1,AP022174.1,91252,8.0
GCA_014169455.1_ASM1416945v1,AP022175.1,59297,4.0
GCA_014169455.1_ASM1416945v1,AP022176.1,4062,1
GCA_013805505.1_ASM1380550v1,CP057031.1,4932147,138.2
GCA_013805505.1_ASM1380550v1,CP057033.1,55483,1
GCA_013805505.1_ASM1380550v1,CP057032.1,56388,4.8
GCA_014168755.1_ASM1416875v1,AP021946.1,4999305,181.0
GCA_014168755.1_ASM1416875v1,AP021948.1,89470,4.0
GCA_014168755.1_ASM1416875v1,AP021947.1,193579,17.0
GCA_014168755.1_ASM1416875v1,AP021949.1,3898,1
GCA_013795285.1_ASM1379528v1,CP056867.1,5041990,79.0
GCA_013795285.1_ASM1379528v1,CP056868.1,145710,14.0
GCA_013795285.1_ASM1379528v1,CP056869.1,2181,1
GCA_014169575.1_ASM1416957v1,AP022207.1,5056958,149.0
GCA_014169575.1_ASM1416957v1,AP022208.1,149534,40.0
GCA_014169575.1_ASM1416957v1,AP022209.1,5163,1
GCA_014169575.1_ASM1416957v1,AP022210.1,4034,1
GCA_014169575.1_ASM1416957v1,AP022211.1,4073,1
GCA_014169575.1_ASM1416957v1,AP022212.1,1921,1
GCA_013891215.1_ASM1389121v1,CP057638.1,4592227,118.0
GCA_013891215.1_ASM1389121v1,CP057639.1,103467,13.0
GCA_014169435.1_ASM1416943v1,AP022171.1,5001957,99.0
GCA_014169435.1_ASM1416943v1,AP022172.1,145165,39.0
GCA_013830785.1_ASM1383078v1,CP057396.1,5099399,105.0
GCA_013830785.1_ASM1383078v1,CP057397.1,231616,16.0
GCA_013830785.1_ASM1383078v1,CP057400.1,89167,14.0
GCA_013830785.1_ASM1383078v1,CP057399.1,99400,12.0
GCA_013830785.1_ASM1383078v1,CP057398.1,158369,21.0
GCA_013830785.1_ASM1383078v1,CP057401.1,6888,1
GCA_013739975.1_ASM1373997v1,CP056404.1,4605744,114.0
GCA_013739975.1_ASM1373997v1,CP056405.1,68783,1
GCA_013739975.1_ASM1373997v1,CP056406.1,7461,1
GCA_013739975.1_ASM1373997v1,CP056407.1,2524,1
GCA_013739975.1_ASM1373997v1,CP056408.1,1911,1
GCA_014168935.1_ASM1416893v1,AP022030.1,4554405,103.0
GCA_014168935.1_ASM1416893v1,AP022031.1,72662,3.0
GCA_014169195.1_ASM1416919v1,AP022105.1,4789834,182.0
GCA_014169195.1_ASM1416919v1,AP022106.1,120956,11.0
GCA_014168855.1_ASM1416885v1,AP022003.1,5139645,115.0
GCA_014168855.1_ASM1416885v1,AP022004.1,126114,9.0
GCA_013791815.1_ASM1379181v1,CP056846.1,4682316,91.0
GCA_013791815.1_ASM1379181v1,CP056847.1,147258,7.0
GCA_013791815.1_ASM1379181v1,CP056848.1,4263,1
GCA_013791815.1_ASM1379181v1,CP056849.1,4195,1
GCA_013893255.1_ASM1389325v1,CP057673.1,5085878,77.0
GCA_013893255.1_ASM1389325v1,CP057674.1,112831,2.0
GCA_013893255.1_ASM1389325v1,CP057675.1,5509,1
GCA_013893255.1_ASM1389325v1,CP057676.1,3896,1
GCA_013806725.1_ASM1380672v1,CP057055.1,4625068,125.0
GCA_013806725.1_ASM1380672v1,CP057056.1,93912,9.0
GCA_013833985.1_ASM1383398v1,CP057453.1,4778670,91.0
GCA_013833985.1_ASM1383398v1,CP057454.1,4315,1
GCA_013829445.1_ASM1382944v1,CP057368.1,4680275,113.0
GCA_013829445.1_ASM1382944v1,CP057369.1,137040,17.0
GCA_013829445.1_ASM1382944v1,CP057370.1,40696,4.0
GCA_013741855.1_ASM1374185v1,CP056608.1,5094890,158.0
GCA_013741855.1_ASM1374185v1,CP056610.1,92524,4.0
GCA_013741855.1_ASM1374185v1,CP056609.1,124082,24.0
GCA_013741855.1_ASM1374185v1,CP056611.1,3865,1
GCA_013741855.1_ASM1374185v1,CP056612.1,1565,1
GCA_013892855.1_ASM1389285v1,CP057665.1,4900404,125.0
GCA_013892855.1_ASM1389285v1,CP057666.1,127711,11.0
GCA_013892855.1_ASM1389285v1,CP057667.1,6930,1
GCA_013892855.1_ASM1389285v1,CP057668.1,6230,1
GCA_013798625.1_ASM1379862v1,CP056914.1,4996327,62.0
GCA_013798625.1_ASM1379862v1,CP056915.1,137294,9.0
GCA_013899605.1_ASM1389960v1,CP057885.1,4945445,98.0
GCA_013899605.1_ASM1389960v1,CP057886.1,102195,6.0
GCA_013899605.1_ASM1389960v1,CP057887.1,4671,1
GCA_013732175.1_ASM1373217v1,CP056315.1,5061361,95.0
GCA_013732175.1_ASM1373217v1,CP056317.1,52715,2.0
GCA_013732175.1_ASM1373217v1,CP056316.1,82263,12.0
GCA_013732175.1_ASM1373217v1,CP056318.1,5716,1
GCA_013732175.1_ASM1373217v1,CP056319.1,5444,1
GCA_013732175.1_ASM1373217v1,CP056320.1,4084,1
GCA_013795065.1_ASM1379506v1,CP056865.1,5004294,115.0
GCA_013795065.1_ASM1379506v1,CP056866.1,42668,2.0
GCA_014170675.1_ASM1417067v1,CP059917.1,5059300,127.0
GCA_014170675.1_ASM1417067v1,CP059919.1,118556,5.0
GCA_014170675.1_ASM1417067v1,CP059918.1,196543,23.0
GCA_014170675.1_ASM1417067v1,CP059920.1,2861,1
GCA_014170675.1_ASM1417067v1,CP059921.1,2096,1
GCA_014131475.1_ASM1413147v1,CP048606.1,5223911,158.0
GCA_014131595.1_ASM1413159v1,CP048865.1,5013304,97.0
GCA_014131595.1_ASM1413159v1,CP048866.1,129024,14.0
GCA_014169595.1_ASM1416959v1,AP022215.1,4764522,103.0
GCA_014169595.1_ASM1416959v1,AP022217.1,91103,1
GCA_014169595.1_ASM1416959v1,AP022216.1,90632,1
GCA_014169595.1_ASM1416959v1,AP022219.1,2549,2.0
GCA_014169595.1_ASM1416959v1,AP022220.1,2493,2.0
GCA_013783685.1_ASM1378368v1,CP056355.1,4705159,139.0
GCA_013783685.1_ASM1378368v1,CP056356.1,142539,18.0
GCA_013899705.1_ASM1389970v1,CP057900.1,4965489,133.0
GCA_013829905.1_ASM1382990v1,CP057378.1,4717873,88.0
GCA_013829905.1_ASM1382990v1,CP057379.1,41352,7.0
GCA_014131635.1_ASM1413163v1,CP048870.1,5028913,104.0
GCA_014131635.1_ASM1413163v1,CP048871.1,114774,8.0
GCA_014131635.1_ASM1413163v1,CP048872.1,5153,1
GCA_014131655.1_ASM1413165v1,CP048873.1,5071819,82.0
GCA_014131655.1_ASM1413165v1,CP048874.1,5163,1
GCA_013735655.1_ASM1373565v1,CP056412.1,4976923,223.0
GCA_013735655.1_ASM1373565v1,CP056413.1,159674,31.0
GCA_013735655.1_ASM1373565v1,CP056414.1,13243,1
GCA_013735655.1_ASM1373565v1,CP056416.1,4161,1
GCA_013735655.1_ASM1373565v1,CP056415.1,4460,2.0
GCA_013735655.1_ASM1373565v1,CP056417.1,2353,1
GCA_013726815.1_ASM1372681v1,CP056248.1,4871782,43.0
GCA_013818265.1_ASM1381826v1,CP057171.1,4607134,70.0
GCA_013818265.1_ASM1381826v1,CP057172.1,94708,2.0
GCA_014169775.1_ASM1416977v1,AP022261.1,4862537,110.0
GCA_014169775.1_ASM1416977v1,AP022263.1,91233,1
GCA_014169775.1_ASM1416977v1,AP022262.1,120734,13.0
GCA_013899185.1_ASM1389918v1,CP057841.1,4801652,43.0
GCA_013899185.1_ASM1389918v1,CP057842.1,103068,4.0
GCA_008275005.1_ASM827500v1,CP041988.1,3941298,35.0
GCA_014109665.1_ASM1410966v1,CP058104.1,4794576,92.0
GCA_014109665.1_ASM1410966v1,CP058105.1,140092,3.0
GCA_014109665.1_ASM1410966v1,CP058106.1,6230,1
GCA_014109665.1_ASM1410966v1,CP058107.1,5682,1
GCA_014109665.1_ASM1410966v1,CP058108.1,5345,1
GCA_014109665.1_ASM1410966v1,CP058109.1,2491,1
GCA_014109665.1_ASM1410966v1,CP058110.1,1551,1
GCA_014109665.1_ASM1410966v1,CP058111.1,1251,1
GCA_013812575.1_ASM1381257v1,CP057087.1,5009208,91.0
GCA_013812575.1_ASM1381257v1,CP057088.1,129084,12.0
GCA_013812575.1_ASM1381257v1,CP057089.1,38504,3.0
GCA_013748455.1_ASM1374845v1,CP056470.1,5197445,115.0
GCA_013748455.1_ASM1374845v1,CP056472.1,58665,9.0
GCA_013748455.1_ASM1374845v1,CP056471.1,85067,20.0
GCA_013785665.1_ASM1378566v1,CP056564.1,4802297,83.0
GCA_014109085.1_ASM1410908v1,CP058072.1,4797193,94.0
GCA_014109085.1_ASM1410908v1,CP058073.1,109760,11.0
GCA_013824985.1_ASM1382498v1,CP057287.1,4822253,148.0
GCA_013824985.1_ASM1382498v1,CP057288.1,184482,13.0
GCA_013824985.1_ASM1382498v1,CP057289.1,82713,7.0
GCA_013824985.1_ASM1382498v1,CP057290.1,38707,7.0
GCA_013824985.1_ASM1382498v1,CP057291.1,4866,1
GCA_013824985.1_ASM1382498v1,CP057292.1,3126,1
GCA_014168595.1_ASM1416859v1,AP021914.1,4702799,114.0
GCA_014168595.1_ASM1416859v1,AP021916.1,87435,1
GCA_014168595.1_ASM1416859v1,AP021915.1,149544,14.0
GCA_013592195.1_ASM1359219v1,CP055624.1,5092193,125.0
GCA_013592195.1_ASM1359219v1,CP055626.1,92102,3.0
GCA_013592195.1_ASM1359219v1,CP055628.1,44425,2.0
GCA_013592195.1_ASM1359219v1,CP055627.1,80072,12.0
GCA_013592195.1_ASM1359219v1,CP055625.1,99158,21.0
GCA_013592195.1_ASM1359219v1,CP055629.1,3125,1
GCA_013806085.1_ASM1380608v1,CP057045.1,4948673,58.0
GCA_013806085.1_ASM1380608v1,CP057047.1,92057,2.0
GCA_013806085.1_ASM1380608v1,CP057046.1,127052,10.0
GCA_013806085.1_ASM1380608v1,CP057048.1,37909,2.0
GCA_013806085.1_ASM1380608v1,CP057049.1,4671,1
GCA_014170615.1_ASM1417061v1,CP059907.1,5031973,126.0
GCA_014170615.1_ASM1417061v1,CP059909.1,101870,10.0
GCA_014170615.1_ASM1417061v1,CP059910.1,94974,6.0
GCA_014170615.1_ASM1417061v1,CP059908.1,180791,20.0
GCA_014170615.1_ASM1417061v1,CP059911.1,3237,1
GCA_013816045.1_ASM1381604v1,CP057141.1,4915069,58.0
GCA_013816045.1_ASM1381604v1,CP057142.1,89539,2.0
GCA_013816045.1_ASM1381604v1,CP057143.1,4821,1
GCA_014131555.1_ASM1413155v1,CP048860.1,5020630,124.0
GCA_014131555.1_ASM1413155v1,CP048861.1,113488,15.0
GCA_014131555.1_ASM1413155v1,CP048862.1,1546,1
GCA_013799025.1_ASM1379902v1,CP056920.1,4686225,76.0
GCA_013751495.1_ASM1375149v1,CP056584.1,4782400,96.0
GCA_013751495.1_ASM1375149v1,CP056585.1,148654,9.0
GCA_013827445.1_ASM1382744v1,CP057342.1,5010183,106.0
GCA_013827445.1_ASM1382744v1,CP057343.1,118965,1
GCA_013890795.1_ASM1389079v1,CP057634.1,4598933,119.0
GCA_013890795.1_ASM1389079v1,CP057635.1,103635,11.0
GCA_014109125.1_ASM1410912v1,CP058078.1,4796896,95.0
GCA_014109125.1_ASM1410912v1,CP058079.1,109759,11.0
GCA_013837755.1_ASM1383775v1,CP057493.1,4814004,106.0
GCA_013837755.1_ASM1383775v1,CP057494.1,143244,4.0
GCA_013837755.1_ASM1383775v1,CP057495.1,6826,1
GCA_013837755.1_ASM1383775v1,CP057496.1,4958,2.0
GCA_013837755.1_ASM1383775v1,CP057498.1,2590,1
GCA_013837755.1_ASM1383775v1,CP057497.1,3876,2.0
GCA_013837755.1_ASM1383775v1,CP057499.1,1551,1
GCA_008124405.1_ASM812440v1,CP043213.1,4594464,105.0
GCA_013899825.1_ASM1389982v1,CP057916.1,5069636,91.0
GCA_013899825.1_ASM1389982v1,CP057917.1,98055,3.0
GCA_013821835.1_ASM1382183v1,CP057259.1,4622930,94.0
GCA_013821835.1_ASM1382183v1,CP057260.1,79194,12.0
GCA_013821835.1_ASM1382183v1,CP057261.1,5101,1
GCA_013900025.1_ASM1390002v1,CP057951.1,5066946,80.0
GCA_013900025.1_ASM1390002v1,CP057952.1,156360,12.0
GCA_014171015.1_ASM1417101v1,AP022087.1,4934222,93.0
GCA_014171015.1_ASM1417101v1,AP022089.1,110167,1
GCA_014171015.1_ASM1417101v1,AP022090.1,71056,5.0
GCA_014171015.1_ASM1417101v1,AP022091.1,67592,6.0
GCA_014171015.1_ASM1417101v1,AP022088.1,152877,28.0
GCA_014171015.1_ASM1417101v1,AP022092.1,6796,1
GCA_014171015.1_ASM1417101v1,AP022093.1,5344,1
GCA_014171015.1_ASM1417101v1,AP022094.1,3137,1
GCA_013797045.1_ASM1379704v1,CP056894.1,4763501,114.0
GCA_013797045.1_ASM1379704v1,CP056895.1,97941,2.0
GCA_013749975.1_ASM1374997v1,CP056556.1,5178342,199.0
GCA_013749975.1_ASM1374997v1,CP056558.1,67422,5.0
GCA_013749975.1_ASM1374997v1,CP056557.1,88856,15.0
GCA_013749295.1_ASM1374929v1,CP056524.1,5141524,92.0
GCA_013749295.1_ASM1374929v1,CP056525.1,118161,17.0
GCA_013749295.1_ASM1374929v1,CP056526.1,4074,1
GCA_013885915.1_ASM1388591v1,CP057559.1,4740141,38.0
GCA_013885915.1_ASM1388591v1,CP057560.1,109880,1
GCA_014109065.1_ASM1410906v1,CP058074.1,4796295,92.0
GCA_014109065.1_ASM1410906v1,CP058075.1,107202,10.0
GCA_013832525.1_ASM1383252v1,CP057432.1,4631168,100.0
GCA_013832525.1_ASM1383252v1,CP057433.1,95081,1
GCA_013832525.1_ASM1383252v1,CP057434.1,52356,2.0
GCA_013725375.1_ASM1372537v1,CP056237.1,4804556,43.0
GCA_013886595.1_ASM1388659v1,CP057577.1,4824196,95.0
GCA_013886595.1_ASM1388659v1,CP057578.1,77886,1
GCA_013886595.1_ASM1388659v1,CP057579.1,31751,2.0
GCA_008275105.1_ASM827510v1,CP041993.1,3967447,44.0
GCA_013785265.1_ASM1378526v1,CP056481.1,5250693,111.0
GCA_013785265.1_ASM1378526v1,CP056482.1,1887,1
GCA_014169695.1_ASM1416969v1,AP022245.1,4613971,118.0
GCA_014169695.1_ASM1416969v1,AP022246.1,109565,26.0
GCA_014169695.1_ASM1416969v1,AP022249.1,44149,5.0
GCA_014169695.1_ASM1416969v1,AP022248.1,40554,8.0
GCA_014169695.1_ASM1416969v1,AP022247.1,42722,17.0
GCA_014169695.1_ASM1416969v1,AP022250.1,3274,1
GCA_014169695.1_ASM1416969v1,AP022251.1,3067,1
GCA_014109625.1_ASM1410962v1,CP058090.1,5025724,112.0
GCA_014109625.1_ASM1410962v1,CP058092.1,74290,4.0
GCA_014109625.1_ASM1410962v1,CP058091.1,87879,4.0
GCA_013819985.1_ASM1381998v1,CP057225.1,4752324,77.0
GCA_013819985.1_ASM1381998v1,CP057226.1,143708,2.0
GCA_013819985.1_ASM1381998v1,CP057227.1,6760,1
GCA_013819985.1_ASM1381998v1,CP057228.1,2590,1
GCA_013923405.1_ASM1392340v1,CP058070.1,4794723,99.0
GCA_013923405.1_ASM1392340v1,CP058071.1,109760,11.0
GCA_013815235.1_ASM1381523v1,CP057133.1,4936189,85.0
GCA_013815235.1_ASM1381523v1,CP057135.1,95505,7.0
GCA_013815235.1_ASM1381523v1,CP057134.1,134142,8.0
GCA_013885155.1_ASM1388515v1,CP057539.1,4750492,70.0
GCA_013885155.1_ASM1388515v1,CP057540.1,98678,2.0
GCA_013885155.1_ASM1388515v1,CP057541.1,60882,2.0
GCA_013885155.1_ASM1388515v1,CP057542.1,7198,1
GCA_013885155.1_ASM1388515v1,CP057543.1,6230,1
GCA_013885155.1_ASM1388515v1,CP057544.1,3257,1
GCA_013886475.1_ASM1388647v1,CP057570.1,4904948,58.0
GCA_013886475.1_ASM1388647v1,CP057572.1,90723,2.0
GCA_013886475.1_ASM1388647v1,CP057571.1,120032,8.0
GCA_013886475.1_ASM1388647v1,CP057573.1,4430,1
GCA_013725775.1_ASM1372577v1,CP056242.1,4747254,85.0
GCA_013725775.1_ASM1372577v1,CP056243.1,108027,3.0
GCA_013783465.1_ASM1378346v1,CP056348.1,4750743,54.0
GCA_013783465.1_ASM1378346v1,CP056349.1,83612,1
GCA_014168835.1_ASM1416883v1,AP021998.1,4945701,94.0
GCA_014168835.1_ASM1416883v1,AP021999.1,94171,16.0
GCA_014168835.1_ASM1416883v1,AP022000.1,6669,1
GCA_014168835.1_ASM1416883v1,AP022001.1,4816,1
GCA_014168835.1_ASM1416883v1,AP022002.1,4087,1
GCA_012849755.1_ASM1284975v1,CP051631.1,5104468,166.0
GCA_012849755.1_ASM1284975v1,CP051632.1,24865,7.0
GCA_013832285.1_ASM1383228v1,CP057423.1,4914948,77.0
GCA_013832285.1_ASM1383228v1,CP057424.1,108940,11.0
GCA_013832285.1_ASM1383228v1,CP057425.1,6711,1
GCA_013832285.1_ASM1383228v1,CP057426.1,6676,1
GCA_013832285.1_ASM1383228v1,CP057427.1,4064,1
GCA_013832285.1_ASM1383228v1,CP057428.1,1552,1
GCA_013822325.1_ASM1382232v1,CP057270.1,4699253,118.0
GCA_013822325.1_ASM1382232v1,CP057271.1,213046,12.0
GCA_013822325.1_ASM1382232v1,CP057272.1,5569,1
GCA_013884735.1_ASM1388473v1,CP057523.1,4876718,100.0
GCA_013884735.1_ASM1388473v1,CP057524.1,86339,2.0
GCA_013827685.1_ASM1382768v1,CP057340.1,5005096,101.0
GCA_013827685.1_ASM1382768v1,CP057341.1,118965,1
GCA_013898915.1_ASM1389891v1,CP057802.1,4853981,112.0
GCA_013898915.1_ASM1389891v1,CP057803.1,48150,1
GCA_013823335.1_ASM1382333v1,CP057178.1,4690130,174.0
GCA_013823335.1_ASM1382333v1,CP057179.1,66995,7.0
GCA_013823335.1_ASM1382333v1,CP057180.1,50338,6.0
GCA_013823335.1_ASM1382333v1,CP057181.1,2898,1
GCA_013823335.1_ASM1382333v1,CP057182.1,2519,1
GCA_013823335.1_ASM1382333v1,CP057183.1,1603,1
GCA_013823335.1_ASM1382333v1,CP057184.1,1552,1
GCA_013394575.1_ASM1339457v1,CP053079.1,5096877,81.0
GCA_013752075.1_ASM1375207v1,CP056604.1,5035115,113.0
GCA_013752075.1_ASM1375207v1,CP056607.1,79330,7.0
GCA_013752075.1_ASM1375207v1,CP056606.1,98561,11.0
GCA_013752075.1_ASM1375207v1,CP056605.1,109374,7.0
GCA_013746875.1_ASM1374687v1,CP056396.1,5009296,157.0
GCA_013746875.1_ASM1374687v1,CP056397.1,6963,1
GCA_013746875.1_ASM1374687v1,CP056398.1,2292,1
GCA_013900245.1_ASM1390024v1,CP057975.1,5145010,60.0
GCA_013900245.1_ASM1390024v1,CP057976.1,93585,1
GCA_013900245.1_ASM1390024v1,CP057977.1,89301,1
GCA_013783905.1_ASM1378390v1,CP056370.1,5076711,91.0
GCA_013783905.1_ASM1378390v1,CP056371.1,116541,7.0
GCA_013899075.1_ASM1389907v1,CP057831.1,4565843,83.0
GCA_013899075.1_ASM1389907v1,CP057832.1,91567,4.0
GCA_013819805.1_ASM1381980v1,CP057223.1,4867225,51.0
GCA_013819805.1_ASM1381980v1,CP057224.1,100610,5.0
GCA_013790285.1_ASM1379028v1,CP056810.1,4738472,51.0
GCA_013790285.1_ASM1379028v1,CP056811.1,131737,3.0
GCA_013790285.1_ASM1379028v1,CP056812.1,36596,1
GCA_013790285.1_ASM1379028v1,CP056813.1,3792,1
GCA_013790285.1_ASM1379028v1,CP056814.1,2150,1
GCA_014168955.1_ASM1416895v1,AP022032.1,4909328,84.0
GCA_014168955.1_ASM1416895v1,AP022033.1,95826,15.0
GCA_014168955.1_ASM1416895v1,AP022034.1,5167,1
GCA_014168955.1_ASM1416895v1,AP022035.1,4029,1
GCA_013822575.1_ASM1382257v1,CP057276.1,4651652,114.0
GCA_013822575.1_ASM1382257v1,CP057277.1,212213,13.0
GCA_013822575.1_ASM1382257v1,CP057278.1,70690,11.0
GCA_013822575.1_ASM1382257v1,CP057279.1,4925,2.0
GCA_013822575.1_ASM1382257v1,CP057280.1,1846,1
GCA_014170695.1_ASM1417069v1,CP059922.1,4986777,128.0
GCA_014170695.1_ASM1417069v1,CP059923.1,116165,11.8
GCA_014170695.1_ASM1417069v1,CP059924.1,102695,7.1899999999999995
GCA_013804065.1_ASM1380406v1,CP057014.1,4856087,62.0
GCA_013804065.1_ASM1380406v1,CP057015.1,89314,3.0
GCA_014169475.1_ASM1416947v1,AP022177.1,4652410,158.0
GCA_014169475.1_ASM1416947v1,AP022178.1,110689,24.0
GCA_014169475.1_ASM1416947v1,AP022179.1,87352,17.0
GCA_014169475.1_ASM1416947v1,AP022180.1,5166,1
GCA_014169475.1_ASM1416947v1,AP022181.1,4491,1
GCA_014169475.1_ASM1416947v1,AP022182.1,4074,1
GCA_013790245.1_ASM1379024v1,CP056800.1,5058431,198.0
GCA_013790245.1_ASM1379024v1,CP056802.1,79293,2.0
GCA_013790245.1_ASM1379024v1,CP056801.1,112468,6.0
GCA_013790245.1_ASM1379024v1,CP056803.1,66646,7.0
GCA_013790245.1_ASM1379024v1,CP056804.1,5210,1
GCA_013790245.1_ASM1379024v1,CP056805.1,5165,1
GCA_013790245.1_ASM1379024v1,CP056806.1,1976,1
GCA_013790245.1_ASM1379024v1,CP056807.1,1549,1
GCA_013790245.1_ASM1379024v1,CP056808.1,1506,1
GCA_013728735.1_ASM1372873v1,CP056273.1,5231123,135.0
GCA_013728735.1_ASM1372873v1,CP056274.1,127808,12.0
GCA_013745955.1_ASM1374595v1,CP056357.1,4944379,106.0
GCA_013745955.1_ASM1374595v1,CP056358.1,116734,7.0
GCA_013745955.1_ASM1374595v1,CP056359.1,4116,1
GCA_013745955.1_ASM1374595v1,CP056360.1,4073,1
GCA_014117345.1_ASM1411734v1,CP059840.1,4838721,118.0
GCA_014117345.1_ASM1411734v1,CP059841.1,90734,7.0
GCA_014117345.1_ASM1411734v1,CP059842.1,5218,1
GCA_013804645.1_ASM1380464v1,CP057022.1,4857701,53.0
GCA_013804645.1_ASM1380464v1,CP057023.1,89314,3.0
GCA_013802585.1_ASM1380258v1,CP056997.1,4409293,128.0
GCA_013802585.1_ASM1380258v1,CP056998.1,44863,11.0
GCA_013802585.1_ASM1380258v1,CP056999.1,37377,10.0
GCA_013802585.1_ASM1380258v1,CP057000.1,7431,1
GCA_013802585.1_ASM1380258v1,CP057001.1,2460,1
GCA_014131515.1_ASM1413151v1,CP048855.1,4927887,86.0
GCA_014131515.1_ASM1413151v1,CP048856.1,66894,3.0
GCA_013813585.1_ASM1381358v1,CP057109.1,4959592,116.0
GCA_013813585.1_ASM1381358v1,CP057110.1,104139,5.0
GCA_013813585.1_ASM1381358v1,CP057111.1,5686,1
GCA_014168975.1_ASM1416897v1,AP022036.1,4735412,53.0
GCA_014168975.1_ASM1416897v1,AP022037.1,87585,1
GCA_014131615.1_ASM1413161v1,CP048867.1,5116417,139.0
GCA_014131615.1_ASM1413161v1,CP048869.1,62140,1
GCA_014131615.1_ASM1413161v1,CP048868.1,161864,24.0
GCA_013801205.1_ASM1380120v1,CP056955.1,4740160,121.0
GCA_013801205.1_ASM1380120v1,CP056956.1,145231,9.0
GCA_013801205.1_ASM1380120v1,CP056958.1,5609,1
GCA_013801205.1_ASM1380120v1,CP056957.1,6502,2.0
GCA_013801205.1_ASM1380120v1,CP056959.1,4420,1
GCA_013801205.1_ASM1380120v1,CP056960.1,3743,1
GCA_013828415.1_ASM1382841v1,CP057349.1,4924599,57.0
GCA_013828415.1_ASM1382841v1,CP057350.1,9653,1
GCA_013828415.1_ASM1382841v1,CP057351.1,6930,1
GCA_013828415.1_ASM1382841v1,CP057352.1,1551,1
GCA_013727075.1_ASM1372707v1,CP056249.1,4567535,126.0
GCA_013727075.1_ASM1372707v1,CP056250.1,110829,4.0
GCA_013790145.1_ASM1379014v1,CP056794.1,4935056,108.0
GCA_013790145.1_ASM1379014v1,CP056795.1,201176,1
GCA_013790145.1_ASM1379014v1,CP056796.1,89490,2.0
GCA_013790145.1_ASM1379014v1,CP056798.1,65216,4.0
GCA_013790145.1_ASM1379014v1,CP056797.1,87040,7.0
GCA_013790145.1_ASM1379014v1,CP056799.1,41391,1
GCA_014109105.1_ASM1410910v1,CP058076.1,4801765,94.19
GCA_014109105.1_ASM1410910v1,CP058077.1,110171,10.8
GCA_014169275.1_ASM1416927v1,AP022120.1,4752168,107.0
GCA_014169275.1_ASM1416927v1,AP022122.1,89059,1
GCA_014169275.1_ASM1416927v1,AP022121.1,155661,8.0
GCA_014169275.1_ASM1416927v1,AP022123.1,7233,1
GCA_014169275.1_ASM1416927v1,AP022124.1,4022,1
GCA_014169275.1_ASM1416927v1,AP022125.1,2997,1
GCA_014169015.1_ASM1416901v1,AP022044.1,4962494,110.0
GCA_014169015.1_ASM1416901v1,AP022045.1,132672,23.0
GCA_014169015.1_ASM1416901v1,AP022046.1,5210,1
GCA_014169015.1_ASM1416901v1,AP022047.1,3971,1
GCA_014169015.1_ASM1416901v1,AP022048.1,3372,1
GCA_014131575.1_ASM1413157v1,CP048863.1,5314143,134.0
GCA_014131575.1_ASM1413157v1,CP048864.1,4593,1
GCA_013899725.1_ASM1389972v1,CP057901.1,4941572,125.0
GCA_013899725.1_ASM1389972v1,CP057903.1,62892,1
GCA_013899725.1_ASM1389972v1,CP057902.1,183295,30.0
GCA_013899725.1_ASM1389972v1,CP057904.1,32598,1
GCA_013996855.1_ASM1399685v1,CP058031.1,4623266,107.0
GCA_013996855.1_ASM1399685v1,CP058032.1,115155,3.0
GCA_013996855.1_ASM1399685v1,CP058033.1,6768,1
GCA_013996855.1_ASM1399685v1,CP058034.1,4664,1
GCA_013996855.1_ASM1399685v1,CP058035.1,2460,1
GCA_013889395.1_ASM1388939v1,CP057612.1,4902617,68.0
GCA_013889395.1_ASM1388939v1,CP057613.1,89809,2.0
GCA_013889395.1_ASM1388939v1,CP057614.1,2719,1
GCA_014169855.1_ASM1416985v1,AP022287.1,5097390,151.0
GCA_014169855.1_ASM1416985v1,AP022289.1,76967,4.0
GCA_014169855.1_ASM1416985v1,AP022288.1,117555,12.0
GCA_014108945.1_ASM1410894v1,CP058014.1,4776966,78.0
GCA_014108945.1_ASM1410894v1,CP058016.1,93048,4.0
GCA_014108945.1_ASM1410894v1,CP058015.1,97296,6.0
GCA_014108945.1_ASM1410894v1,CP058017.1,35166,1
GCA_014108945.1_ASM1410894v1,CP058018.1,2998,1
GCA_013802065.1_ASM1380206v1,CP056974.1,4759507,155.0
GCA_013802065.1_ASM1380206v1,CP056976.1,85744,6.0
GCA_013802065.1_ASM1380206v1,CP056978.1,50995,5.0
GCA_013802065.1_ASM1380206v1,CP056977.1,63841,20.0
GCA_013802065.1_ASM1380206v1,CP056975.1,69670,18.0
GCA_013802065.1_ASM1380206v1,CP056979.1,4072,1
GCA_013802065.1_ASM1380206v1,CP056980.1,4018,1
GCA_013802065.1_ASM1380206v1,CP056981.1,3751,1
GCA_013802065.1_ASM1380206v1,CP056982.1,2601,1
GCA_013802065.1_ASM1380206v1,CP056983.1,1024,1
GCA_013802065.1_ASM1380206v1,CP056984.1,1011,1
GCA_013895455.1_ASM1389545v1,CP057713.1,4666444,90.0
GCA_013895455.1_ASM1389545v1,CP057714.1,214865,10.0
GCA_013895455.1_ASM1389545v1,CP057716.1,69716,1
GCA_013895455.1_ASM1389545v1,CP057715.1,72779,4.0
GCA_013893495.1_ASM1389349v1,CP057677.1,4791073,72.0
GCA_013893495.1_ASM1389349v1,CP057678.1,143708,2.0
GCA_013893495.1_ASM1389349v1,CP057679.1,6760,1
GCA_013893495.1_ASM1389349v1,CP057680.1,2590,1
GCA_014169395.1_ASM1416939v1,AP022159.1,5015387,108.0
GCA_014169395.1_ASM1416939v1,AP022160.1,93458,3.0
GCA_013900005.1_ASM1390000v1,CP057942.1,4915578,104.0
GCA_013900005.1_ASM1390000v1,CP057944.1,85874,7.0
GCA_013900005.1_ASM1390000v1,CP057943.1,134685,10.0
GCA_013900005.1_ASM1390000v1,CP057945.1,4612,1
GCA_013786125.1_ASM1378612v1,CP056620.1,4887212,76.0
GCA_013786125.1_ASM1378612v1,CP056621.1,96235,1
GCA_013795545.1_ASM1379554v1,CP056870.1,5204916,114.0
GCA_013795545.1_ASM1379554v1,CP056872.1,59700,8.0
GCA_013795545.1_ASM1379554v1,CP056871.1,71189,16.0
GCA_013900205.1_ASM1390020v1,CP057970.1,4955749,107.0
GCA_013900205.1_ASM1390020v1,CP057971.1,139637,3.0
GCA_013900205.1_ASM1390020v1,CP057972.1,110218,4.0
GCA_013899265.1_ASM1389926v1,CP057860.1,4564760,97.0
GCA_013750375.1_ASM1375037v1,CP056565.1,4780471,85.0
GCA_013750375.1_ASM1375037v1,CP056566.1,12814,1
GCA_013729535.1_ASM1372953v1,CP056282.1,5210663,102.0
GCA_013729535.1_ASM1372953v1,CP056283.1,95880,5.0
GCA_013791985.1_ASM1379198v1,CP056842.1,4523685,92.0
GCA_013791985.1_ASM1379198v1,CP056844.1,83975,4.0
GCA_013791985.1_ASM1379198v1,CP056845.1,46419,1
GCA_013791985.1_ASM1379198v1,CP056843.1,99616,19.0
GCA_004804205.1_ASM480420v1,CP039403.1,4639433,54.0
